Total Requests handled:	10000
Requests per second:   	131.932716
Completely idle time:  	0.000000   	0.000000
Response time average: 	355.131156
Response time std.dev.:	247.439069
Response time maximum:	1928.440231
Response time distribution
Overlaps combined:     	0	0.000000
Read overlaps combined:	0	0.000000	0.000000
Critical Reads:      	     0  	0.000000
Critical Read Response time average: 	0.000000
Critical Read Response time std.dev.:	0.000000
Critical Read Response time maximum:	0
Critical Read Response time distribution
Non-Critical Reads:  	     0  	0.000000
Non-Critical Read Response time average: 	0.000000
Non-Critical Read Response time std.dev.:	0.000000
Non-Critical Read Response time maximum:	0
Non-Critical Read Response time distribution
Critical Writes:     	 10000  	0.301069
Critical Write Response time average: 	355.131156
Critical Write Response time std.dev.:	247.439069
Critical Write Response time maximum:	1928.440231
Critical Write Response time distribution
Non-Critical Writes: 	     0  	0.000000
Non-Critical Write Response time average: 	0.000000
Non-Critical Write Response time std.dev.:	0.000000
Non-Critical Write Response time maximum:	0
Non-Critical Write Response time distribution
Number of reads:         0  	0.000000
Number of writes:    33215  	1.000000
Sequential reads:        0  	0.000000  	0.000000
Sequential writes:       0  	0.000000  	0.000000
Base SPTF/SDF Different:      0 /      0 	0.000000
Timeout SPTF/SDF Different:      0 /      0 	0.000000
Priority SPTF/SDF Different:      0 /      0 	0.000000
runlistlen:              883213326.281937
runoutstanding:          0.000000
simtime:                 75796.211330
warmuptime:              0.000000
setsize:                 1
Average # requests:      11652.473267
Maximum # requests:      23216
End # requests:          23215
Average queue length:    11652.473267
Maximum queue length:    23216
End queued requests:     23215
Queue time average: 	355.131156
Queue time std.dev.:	247.439069
Queue time maximum:	1928.440231
Queue time distribution
Avg # read requests:     0.000000
Max # read requests:     0
Avg # write requests:    11652.473267
Max # write requests:    23216
Physical access time average: 	0.000000
Physical access time std.dev.:	0.000000
Physical access time maximum:	0
Physical access time distribution
Number of batches:  0
Batch size average: 	0.000000
Batch size std.dev.:	0.000000
Batch size maximum:	0
Batch size distribution
Inter-arrival time average: 	2.281905
Inter-arrival time std.dev.:	2.314699
Inter-arrival time maximum:	20.044114
Inter-arrival time distribution
Read inter-arrival average: 	0.000000
Read inter-arrival std.dev.:	0.000000
Read inter-arrival maximum:	0
Read inter-arrival distribution
Write inter-arrival average: 	2.281905
Write inter-arrival std.dev.:	2.314699
Write inter-arrival maximum:	20.044114
Write inter-arrival distribution
Number of idle periods:  1
Idle period length average: 	0.000000
Idle period length std.dev.:	0.000000
Idle period length maximum:	0
Idle period length distribution
Request size average: 	14.272738
Request size std.dev.:	8.874169
Request size maximum:	116
Request size distribution
Read request size average: 	0.000000
Read request size std.dev.:	0.000000
Read request size maximum:	0
Read request size distribution
Write request size average: 	14.272738
Write request size std.dev.:	8.874169
Write request size maximum:	116
Write request size distribution
Instantaneous queue length average: 	11661.905900
Instantaneous queue length std.dev.:	6670.843396
Instantaneous queue length maximum:	23216
Instantaneous queue length distribution
Sub-optimal mapping penalty average: 	0.000000
Sub-optimal mapping penalty std.dev.:	0.000000
Sub-optimal mapping penalty maximum:	0
Sub-optimal mapping penalty distribution
