Total Requests handled:	10000
Requests per second:   	128.958702
Completely idle time:  	0.000000   	0.000000
Response time average: 	162.597237
Response time std.dev.:	104.627422
Response time maximum:	862.447632
Response time distribution
Overlaps combined:     	0	0.000000
Read overlaps combined:	0	0.000000	0.000000
Critical Reads:      	     0  	0.000000
Critical Read Response time average: 	0.000000
Critical Read Response time std.dev.:	0.000000
Critical Read Response time maximum:	0
Critical Read Response time distribution
Non-Critical Reads:  	     0  	0.000000
Non-Critical Read Response time average: 	0.000000
Non-Critical Read Response time std.dev.:	0.000000
Non-Critical Read Response time maximum:	0
Non-Critical Read Response time distribution
Critical Writes:     	 10000  	0.301541
Critical Write Response time average: 	162.597237
Critical Write Response time std.dev.:	104.627422
Critical Write Response time maximum:	862.447632
Critical Write Response time distribution
Non-Critical Writes: 	     0  	0.000000
Non-Critical Write Response time average: 	0.000000
Non-Critical Write Response time std.dev.:	0.000000
Non-Critical Write Response time maximum:	0
Non-Critical Write Response time distribution
Number of reads:         0  	0.000000
Number of writes:    33163  	1.000000
Sequential reads:        0  	0.000000  	0.000000
Sequential writes:       0  	0.000000  	0.000000
Base SPTF/SDF Different:      0 /      0 	0.000000
Timeout SPTF/SDF Different:      0 /      0 	0.000000
Priority SPTF/SDF Different:      0 /      0 	0.000000
runlistlen:              899621401.841975
runoutstanding:          0.000000
simtime:                 77544.204545
warmuptime:              0.000000
setsize:                 1
Average # requests:      11601.400867
Maximum # requests:      23164
End # requests:          23163
Average queue length:    11601.400867
Maximum queue length:    23164
End queued requests:     23163
Queue time average: 	162.597237
Queue time std.dev.:	104.627422
Queue time maximum:	862.447632
Queue time distribution
Avg # read requests:     0.000000
Max # read requests:     0
Avg # write requests:    11601.400867
Max # write requests:    23164
Physical access time average: 	0.000000
Physical access time std.dev.:	0.000000
Physical access time maximum:	0
Physical access time distribution
Number of batches:  0
Batch size average: 	0.000000
Batch size std.dev.:	0.000000
Batch size maximum:	0
Batch size distribution
Inter-arrival time average: 	2.338242
Inter-arrival time std.dev.:	2.347214
Inter-arrival time maximum:	20.283636
Inter-arrival time distribution
Read inter-arrival average: 	0.000000
Read inter-arrival std.dev.:	0.000000
Read inter-arrival maximum:	0
Read inter-arrival distribution
Write inter-arrival average: 	2.338242
Write inter-arrival std.dev.:	2.347214
Write inter-arrival maximum:	20.283636
Write inter-arrival distribution
Number of idle periods:  1
Idle period length average: 	0.000000
Idle period length std.dev.:	0.000000
Idle period length maximum:	0
Idle period length distribution
Request size average: 	14.275035
Request size std.dev.:	8.875853
Request size maximum:	116
Request size distribution
Read request size average: 	0.000000
Read request size std.dev.:	0.000000
Read request size maximum:	0
Read request size distribution
Write request size average: 	14.275035
Write request size std.dev.:	8.875853
Write request size maximum:	116
Write request size distribution
Instantaneous queue length average: 	11606.535300
Instantaneous queue length std.dev.:	6670.438382
Instantaneous queue length maximum:	23164
Instantaneous queue length distribution
Sub-optimal mapping penalty average: 	0.000000
Sub-optimal mapping penalty std.dev.:	0.000000
Sub-optimal mapping penalty maximum:	0
Sub-optimal mapping penalty distribution
