Total Requests handled:	10000
Requests per second:   	85.085583
Completely idle time:  	0.000000   	0.000000
Response time average: 	480.606350
Response time std.dev.:	231.251416
Response time maximum:	1893.717039
Response time distribution
Overlaps combined:     	0	0.000000
Read overlaps combined:	0	0.000000	0.000000
Critical Reads:      	     0  	0.000000
Critical Read Response time average: 	0.000000
Critical Read Response time std.dev.:	0.000000
Critical Read Response time maximum:	0
Critical Read Response time distribution
Non-Critical Reads:  	     0  	0.000000
Non-Critical Read Response time average: 	0.000000
Non-Critical Read Response time std.dev.:	0.000000
Non-Critical Read Response time maximum:	0
Non-Critical Read Response time distribution
Critical Writes:     	 10000  	0.299383
Critical Write Response time average: 	480.606350
Critical Write Response time std.dev.:	231.251416
Critical Write Response time maximum:	1893.717039
Critical Write Response time distribution
Non-Critical Writes: 	     0  	0.000000
Non-Critical Write Response time average: 	0.000000
Non-Critical Write Response time std.dev.:	0.000000
Non-Critical Write Response time maximum:	0
Non-Critical Write Response time distribution
Number of reads:         0  	0.000000
Number of writes:    33402  	1.000000
Sequential reads:        0  	0.000000  	0.000000
Sequential writes:       0  	0.000000  	0.000000
Base SPTF/SDF Different:      0 /      0 	0.000000
Timeout SPTF/SDF Different:      0 /      0 	0.000000
Priority SPTF/SDF Different:      0 /      0 	0.000000
runlistlen:              1378336186.285532
runoutstanding:          0.000000
simtime:                 117528.724324
warmuptime:              0.000000
setsize:                 1
Average # requests:      11727.653765
Maximum # requests:      23403
End # requests:          23402
Average queue length:    11727.653765
Maximum queue length:    23403
End queued requests:     23402
Queue time average: 	480.606350
Queue time std.dev.:	231.251416
Queue time maximum:	1893.717039
Queue time distribution
Avg # read requests:     0.000000
Max # read requests:     0
Avg # write requests:    11727.653765
Max # write requests:    23403
Physical access time average: 	0.000000
Physical access time std.dev.:	0.000000
Physical access time maximum:	0
Physical access time distribution
Number of batches:  0
Batch size average: 	0.000000
Batch size std.dev.:	0.000000
Batch size maximum:	0
Batch size distribution
Inter-arrival time average: 	3.518502
Inter-arrival time std.dev.:	3.839109
Inter-arrival time maximum:	45.148000
Inter-arrival time distribution
Read inter-arrival average: 	0.000000
Read inter-arrival std.dev.:	0.000000
Read inter-arrival maximum:	0
Read inter-arrival distribution
Write inter-arrival average: 	3.518502
Write inter-arrival std.dev.:	3.839109
Write inter-arrival maximum:	45.148000
Write inter-arrival distribution
Number of idle periods:  1
Idle period length average: 	0.000000
Idle period length std.dev.:	0.000000
Idle period length maximum:	0
Idle period length distribution
Request size average: 	14.753308
Request size std.dev.:	8.390357
Request size maximum:	116
Request size distribution
Read request size average: 	0.000000
Read request size std.dev.:	0.000000
Read request size maximum:	0
Read request size distribution
Write request size average: 	14.753308
Write request size std.dev.:	8.390357
Write request size maximum:	116
Write request size distribution
Instantaneous queue length average: 	11747.758800
Instantaneous queue length std.dev.:	6729.818249
Instantaneous queue length maximum:	23403
Instantaneous queue length distribution
Sub-optimal mapping penalty average: 	0.000000
Sub-optimal mapping penalty std.dev.:	0.000000
Sub-optimal mapping penalty maximum:	0
Sub-optimal mapping penalty distribution
