Total Requests handled:	10000
Requests per second:   	85.346951
Completely idle time:  	0.000000   	0.000000
Response time average: 	1464.028060
Response time std.dev.:	711.667160
Response time maximum:	5355.523943
Response time distribution
Overlaps combined:     	0	0.000000
Read overlaps combined:	0	0.000000	0.000000
Critical Reads:      	     0  	0.000000
Critical Read Response time average: 	0.000000
Critical Read Response time std.dev.:	0.000000
Critical Read Response time maximum:	0
Critical Read Response time distribution
Non-Critical Reads:  	     0  	0.000000
Non-Critical Read Response time average: 	0.000000
Non-Critical Read Response time std.dev.:	0.000000
Non-Critical Read Response time maximum:	0
Non-Critical Read Response time distribution
Critical Writes:     	 10000  	0.297539
Critical Write Response time average: 	1464.028060
Critical Write Response time std.dev.:	711.667160
Critical Write Response time maximum:	5355.523943
Critical Write Response time distribution
Non-Critical Writes: 	     0  	0.000000
Non-Critical Write Response time average: 	0.000000
Non-Critical Write Response time std.dev.:	0.000000
Non-Critical Write Response time maximum:	0
Non-Critical Write Response time distribution
Number of reads:         0  	0.000000
Number of writes:    33609  	1.000000
Sequential reads:        0  	0.000000  	0.000000
Sequential writes:       1  	0.000030  	0.000030
Base SPTF/SDF Different:      0 /      0 	0.000000
Timeout SPTF/SDF Different:      0 /      0 	0.000000
Priority SPTF/SDF Different:      0 /      0 	0.000000
runlistlen:              1393965110.696212
runoutstanding:          0.000000
simtime:                 117168.802157
warmuptime:              0.000000
setsize:                 1
Average # requests:      11897.067180
Maximum # requests:      23610
End # requests:          23609
Average queue length:    11897.067180
Maximum queue length:    23610
End queued requests:     23609
Queue time average: 	1464.028060
Queue time std.dev.:	711.667160
Queue time maximum:	5355.523943
Queue time distribution
Avg # read requests:     0.000000
Max # read requests:     0
Avg # write requests:    11897.067180
Max # write requests:    23610
Physical access time average: 	0.000000
Physical access time std.dev.:	0.000000
Physical access time maximum:	0
Physical access time distribution
Number of batches:  0
Batch size average: 	0.000000
Batch size std.dev.:	0.000000
Batch size maximum:	0
Batch size distribution
Inter-arrival time average: 	3.486145
Inter-arrival time std.dev.:	3.842865
Inter-arrival time maximum:	35.590920
Inter-arrival time distribution
Read inter-arrival average: 	0.000000
Read inter-arrival std.dev.:	0.000000
Read inter-arrival maximum:	0
Read inter-arrival distribution
Write inter-arrival average: 	3.486145
Write inter-arrival std.dev.:	3.842865
Write inter-arrival maximum:	35.590920
Write inter-arrival distribution
Number of idle periods:  1
Idle period length average: 	0.000000
Idle period length std.dev.:	0.000000
Idle period length maximum:	0
Idle period length distribution
Request size average: 	14.740248
Request size std.dev.:	8.369573
Request size maximum:	116
Request size distribution
Read request size average: 	0.000000
Read request size std.dev.:	0.000000
Read request size maximum:	0
Read request size distribution
Write request size average: 	14.740248
Write request size std.dev.:	8.369573
Write request size maximum:	116
Write request size distribution
Instantaneous queue length average: 	11948.264900
Instantaneous queue length std.dev.:	6733.811269
Instantaneous queue length maximum:	23610
Instantaneous queue length distribution
Sub-optimal mapping penalty average: 	0.000000
Sub-optimal mapping penalty std.dev.:	0.000000
Sub-optimal mapping penalty maximum:	0
Sub-optimal mapping penalty distribution
