Total Requests handled:	10000
Requests per second:   	85.311122
Completely idle time:  	0.000000   	0.000000
Response time average: 	1268.010503
Response time std.dev.:	601.926094
Response time maximum:	4702.625040
Response time distribution
Overlaps combined:     	0	0.000000
Read overlaps combined:	0	0.000000	0.000000
Critical Reads:      	     0  	0.000000
Critical Read Response time average: 	0.000000
Critical Read Response time std.dev.:	0.000000
Critical Read Response time maximum:	0
Critical Read Response time distribution
Non-Critical Reads:  	     0  	0.000000
Non-Critical Read Response time average: 	0.000000
Non-Critical Read Response time std.dev.:	0.000000
Non-Critical Read Response time maximum:	0
Non-Critical Read Response time distribution
Critical Writes:     	 10000  	0.297814
Critical Write Response time average: 	1268.010503
Critical Write Response time std.dev.:	601.926094
Critical Write Response time maximum:	4702.625040
Critical Write Response time distribution
Non-Critical Writes: 	     0  	0.000000
Non-Critical Write Response time average: 	0.000000
Non-Critical Write Response time std.dev.:	0.000000
Non-Critical Write Response time maximum:	0
Non-Critical Write Response time distribution
Number of reads:         0  	0.000000
Number of writes:    33578  	1.000000
Sequential reads:        0  	0.000000  	0.000000
Sequential writes:       2  	0.000060  	0.000060
Base SPTF/SDF Different:      0 /      0 	0.000000
Timeout SPTF/SDF Different:      0 /      0 	0.000000
Priority SPTF/SDF Different:      0 /      0 	0.000000
runlistlen:              1389684283.518840
runoutstanding:          0.000000
simtime:                 117218.010164
warmuptime:              0.000000
setsize:                 1
Average # requests:      11855.552586
Maximum # requests:      23579
End # requests:          23578
Average queue length:    11855.552586
Maximum queue length:    23579
End queued requests:     23578
Queue time average: 	1268.010503
Queue time std.dev.:	601.926094
Queue time maximum:	4702.625040
Queue time distribution
Avg # read requests:     0.000000
Max # read requests:     0
Avg # write requests:    11855.552586
Max # write requests:    23579
Physical access time average: 	0.000000
Physical access time std.dev.:	0.000000
Physical access time maximum:	0
Physical access time distribution
Number of batches:  0
Batch size average: 	0.000000
Batch size std.dev.:	0.000000
Batch size maximum:	0
Batch size distribution
Inter-arrival time average: 	3.490701
Inter-arrival time std.dev.:	3.866917
Inter-arrival time maximum:	48.876000
Inter-arrival time distribution
Read inter-arrival average: 	0.000000
Read inter-arrival std.dev.:	0.000000
Read inter-arrival maximum:	0
Read inter-arrival distribution
Write inter-arrival average: 	3.490701
Write inter-arrival std.dev.:	3.866917
Write inter-arrival maximum:	48.876000
Write inter-arrival distribution
Number of idle periods:  1
Idle period length average: 	0.000000
Idle period length std.dev.:	0.000000
Idle period length maximum:	0
Idle period length distribution
Request size average: 	14.741497
Request size std.dev.:	8.371607
Request size maximum:	116
Request size distribution
Read request size average: 	0.000000
Read request size std.dev.:	0.000000
Read request size maximum:	0
Read request size distribution
Write request size average: 	14.741497
Write request size std.dev.:	8.371607
Write request size maximum:	116
Write request size distribution
Instantaneous queue length average: 	11911.311600
Instantaneous queue length std.dev.:	6732.503288
Instantaneous queue length maximum:	23579
Instantaneous queue length distribution
Sub-optimal mapping penalty average: 	0.000000
Sub-optimal mapping penalty std.dev.:	0.000000
Sub-optimal mapping penalty maximum:	0
Sub-optimal mapping penalty distribution
