Total Requests handled:	10000
Requests per second:   	78.540073
Completely idle time:  	0.000000   	0.000000
Response time average: 	50.915012
Response time std.dev.:	22.734296
Response time maximum:	193.469198
Response time distribution
Overlaps combined:     	0	0.000000
Read overlaps combined:	0	0.000000	0.000000
Critical Reads:      	     0  	0.000000
Critical Read Response time average: 	0.000000
Critical Read Response time std.dev.:	0.000000
Critical Read Response time maximum:	0
Critical Read Response time distribution
Non-Critical Reads:  	     0  	0.000000
Non-Critical Read Response time average: 	0.000000
Non-Critical Read Response time std.dev.:	0.000000
Non-Critical Read Response time maximum:	0
Non-Critical Read Response time distribution
Critical Writes:     	 10000  	0.300147
Critical Write Response time average: 	50.915012
Critical Write Response time std.dev.:	22.734296
Critical Write Response time maximum:	193.469198
Critical Write Response time distribution
Non-Critical Writes: 	     0  	0.000000
Non-Critical Write Response time average: 	0.000000
Non-Critical Write Response time std.dev.:	0.000000
Non-Critical Write Response time maximum:	0
Non-Critical Write Response time distribution
Number of reads:         0  	0.000000
Number of writes:    33317  	1.000000
Sequential reads:        0  	0.000000  	0.000000
Sequential writes:       1  	0.000030  	0.000030
Base SPTF/SDF Different:      0 /      0 	0.000000
Timeout SPTF/SDF Different:      0 /      0 	0.000000
Priority SPTF/SDF Different:      0 /      0 	0.000000
runlistlen:              1484154734.263706
runoutstanding:          0.000000
simtime:                 127323.538961
warmuptime:              0.000000
setsize:                 1
Average # requests:      11656.562065
Maximum # requests:      23318
End # requests:          23317
Average queue length:    11656.562065
Maximum queue length:    23318
End queued requests:     23317
Queue time average: 	50.915012
Queue time std.dev.:	22.734296
Queue time maximum:	193.469198
Queue time distribution
Avg # read requests:     0.000000
Max # read requests:     0
Avg # write requests:    11656.562065
Max # write requests:    23318
Physical access time average: 	0.000000
Physical access time std.dev.:	0.000000
Physical access time maximum:	0
Physical access time distribution
Number of batches:  0
Batch size average: 	0.000000
Batch size std.dev.:	0.000000
Batch size maximum:	0
Batch size distribution
Inter-arrival time average: 	3.821259
Inter-arrival time std.dev.:	3.870602
Inter-arrival time maximum:	35.535630
Inter-arrival time distribution
Read inter-arrival average: 	0.000000
Read inter-arrival std.dev.:	0.000000
Read inter-arrival maximum:	0
Read inter-arrival distribution
Write inter-arrival average: 	3.821259
Write inter-arrival std.dev.:	3.870602
Write inter-arrival maximum:	35.535630
Write inter-arrival distribution
Number of idle periods:  1
Idle period length average: 	0.000000
Idle period length std.dev.:	0.000000
Idle period length maximum:	0
Idle period length distribution
Request size average: 	14.749947
Request size std.dev.:	8.384811
Request size maximum:	116
Request size distribution
Read request size average: 	0.000000
Read request size std.dev.:	0.000000
Read request size maximum:	0
Read request size distribution
Write request size average: 	14.749947
Write request size std.dev.:	8.384811
Write request size maximum:	116
Write request size distribution
Instantaneous queue length average: 	11660.318600
Instantaneous queue length std.dev.:	6728.817218
Instantaneous queue length maximum:	23318
Instantaneous queue length distribution
Sub-optimal mapping penalty average: 	0.000000
Sub-optimal mapping penalty std.dev.:	0.000000
Sub-optimal mapping penalty maximum:	0
Sub-optimal mapping penalty distribution
