Total Requests handled:	10000
Requests per second:   	85.154484
Completely idle time:  	0.000000   	0.000000
Response time average: 	678.409607
Response time std.dev.:	326.035557
Response time maximum:	2683.825452
Response time distribution
Overlaps combined:     	0	0.000000
Read overlaps combined:	0	0.000000	0.000000
Critical Reads:      	     0  	0.000000
Critical Read Response time average: 	0.000000
Critical Read Response time std.dev.:	0.000000
Critical Read Response time maximum:	0
Critical Read Response time distribution
Non-Critical Reads:  	     0  	0.000000
Non-Critical Read Response time average: 	0.000000
Non-Critical Read Response time std.dev.:	0.000000
Non-Critical Read Response time maximum:	0
Non-Critical Read Response time distribution
Critical Writes:     	 10000  	0.298900
Critical Write Response time average: 	678.409607
Critical Write Response time std.dev.:	326.035557
Critical Write Response time maximum:	2683.825452
Critical Write Response time distribution
Non-Critical Writes: 	     0  	0.000000
Non-Critical Write Response time average: 	0.000000
Non-Critical Write Response time std.dev.:	0.000000
Non-Critical Write Response time maximum:	0
Non-Critical Write Response time distribution
Number of reads:         0  	0.000000
Number of writes:    33456  	1.000000
Sequential reads:        0  	0.000000  	0.000000
Sequential writes:       1  	0.000030  	0.000030
Base SPTF/SDF Different:      0 /      0 	0.000000
Timeout SPTF/SDF Different:      0 /      0 	0.000000
Priority SPTF/SDF Different:      0 /      0 	0.000000
runlistlen:              1382381592.166706
runoutstanding:          0.000000
simtime:                 117433.627502
warmuptime:              0.000000
setsize:                 1
Average # requests:      11771.599171
Maximum # requests:      23457
End # requests:          23456
Average queue length:    11771.599171
Maximum queue length:    23457
End queued requests:     23456
Queue time average: 	678.409607
Queue time std.dev.:	326.035557
Queue time maximum:	2683.825452
Queue time distribution
Avg # read requests:     0.000000
Max # read requests:     0
Avg # write requests:    11771.599171
Max # write requests:    23457
Physical access time average: 	0.000000
Physical access time std.dev.:	0.000000
Physical access time maximum:	0
Physical access time distribution
Number of batches:  0
Batch size average: 	0.000000
Batch size std.dev.:	0.000000
Batch size maximum:	0
Batch size distribution
Inter-arrival time average: 	3.510062
Inter-arrival time std.dev.:	3.850557
Inter-arrival time maximum:	39.076978
Inter-arrival time distribution
Read inter-arrival average: 	0.000000
Read inter-arrival std.dev.:	0.000000
Read inter-arrival maximum:	0
Read inter-arrival distribution
Write inter-arrival average: 	3.510062
Write inter-arrival std.dev.:	3.850557
Write inter-arrival maximum:	39.076978
Write inter-arrival distribution
Number of idle periods:  1
Idle period length average: 	0.000000
Idle period length std.dev.:	0.000000
Idle period length maximum:	0
Idle period length distribution
Request size average: 	14.747549
Request size std.dev.:	8.380090
Request size maximum:	116
Request size distribution
Read request size average: 	0.000000
Read request size std.dev.:	0.000000
Read request size maximum:	0
Read request size distribution
Write request size average: 	14.747549
Write request size std.dev.:	8.380090
Write request size maximum:	116
Write request size distribution
Instantaneous queue length average: 	11787.139100
Instantaneous queue length std.dev.:	6729.839800
Instantaneous queue length maximum:	23457
Instantaneous queue length distribution
Sub-optimal mapping penalty average: 	0.000000
Sub-optimal mapping penalty std.dev.:	0.000000
Sub-optimal mapping penalty maximum:	0
Sub-optimal mapping penalty distribution
