Total Requests handled:	10000
Requests per second:   	84.761942
Completely idle time:  	0.000000   	0.000000
Response time average: 	470.699492
Response time std.dev.:	225.608580
Response time maximum:	1900.242849
Response time distribution
Overlaps combined:     	0	0.000000
Read overlaps combined:	0	0.000000	0.000000
Critical Reads:      	     0  	0.000000
Critical Read Response time average: 	0.000000
Critical Read Response time std.dev.:	0.000000
Critical Read Response time maximum:	0
Critical Read Response time distribution
Non-Critical Reads:  	     0  	0.000000
Non-Critical Read Response time average: 	0.000000
Non-Critical Read Response time std.dev.:	0.000000
Non-Critical Read Response time maximum:	0
Non-Critical Read Response time distribution
Critical Writes:     	 10000  	0.299365
Critical Write Response time average: 	470.699492
Critical Write Response time std.dev.:	225.608580
Critical Write Response time maximum:	1900.242849
Critical Write Response time distribution
Non-Critical Writes: 	     0  	0.000000
Non-Critical Write Response time average: 	0.000000
Non-Critical Write Response time std.dev.:	0.000000
Non-Critical Write Response time maximum:	0
Non-Critical Write Response time distribution
Number of reads:         0  	0.000000
Number of writes:    33404  	1.000000
Sequential reads:        0  	0.000000  	0.000000
Sequential writes:       2  	0.000060  	0.000060
Base SPTF/SDF Different:      0 /      0 	0.000000
Timeout SPTF/SDF Different:      0 /      0 	0.000000
Priority SPTF/SDF Different:      0 /      0 	0.000000
runlistlen:              1384673927.757803
runoutstanding:          0.000000
simtime:                 117977.475656
warmuptime:              0.000000
setsize:                 1
Average # requests:      11736.765175
Maximum # requests:      23405
End # requests:          23404
Average queue length:    11736.765175
Maximum queue length:    23405
End queued requests:     23404
Queue time average: 	470.699492
Queue time std.dev.:	225.608580
Queue time maximum:	1900.242849
Queue time distribution
Avg # read requests:     0.000000
Max # read requests:     0
Avg # write requests:    11736.765175
Max # write requests:    23405
Physical access time average: 	0.000000
Physical access time std.dev.:	0.000000
Physical access time maximum:	0
Physical access time distribution
Number of batches:  0
Batch size average: 	0.000000
Batch size std.dev.:	0.000000
Batch size maximum:	0
Batch size distribution
Inter-arrival time average: 	3.531633
Inter-arrival time std.dev.:	3.877327
Inter-arrival time maximum:	40.084000
Inter-arrival time distribution
Read inter-arrival average: 	0.000000
Read inter-arrival std.dev.:	0.000000
Read inter-arrival maximum:	0
Read inter-arrival distribution
Write inter-arrival average: 	3.531633
Write inter-arrival std.dev.:	3.877327
Write inter-arrival maximum:	40.084000
Write inter-arrival distribution
Number of idle periods:  1
Idle period length average: 	0.000000
Idle period length std.dev.:	0.000000
Idle period length maximum:	0
Idle period length distribution
Request size average: 	14.750419
Request size std.dev.:	8.386453
Request size maximum:	116
Request size distribution
Read request size average: 	0.000000
Read request size std.dev.:	0.000000
Read request size maximum:	0
Read request size distribution
Write request size average: 	14.750419
Write request size std.dev.:	8.386453
Write request size maximum:	116
Write request size distribution
Instantaneous queue length average: 	11746.331100
Instantaneous queue length std.dev.:	6729.187788
Instantaneous queue length maximum:	23405
Instantaneous queue length distribution
Sub-optimal mapping penalty average: 	0.000000
Sub-optimal mapping penalty std.dev.:	0.000000
Sub-optimal mapping penalty maximum:	0
Sub-optimal mapping penalty distribution
