Total Requests handled:	10000
Requests per second:   	83.519462
Completely idle time:  	0.000000   	0.000000
Response time average: 	191.400647
Response time std.dev.:	92.341553
Response time maximum:	712.453345
Response time distribution
Overlaps combined:     	0	0.000000
Read overlaps combined:	0	0.000000	0.000000
Critical Reads:      	     0  	0.000000
Critical Read Response time average: 	0.000000
Critical Read Response time std.dev.:	0.000000
Critical Read Response time maximum:	0
Critical Read Response time distribution
Non-Critical Reads:  	     0  	0.000000
Non-Critical Read Response time average: 	0.000000
Non-Critical Read Response time std.dev.:	0.000000
Non-Critical Read Response time maximum:	0
Non-Critical Read Response time distribution
Critical Writes:     	 10000  	0.299949
Critical Write Response time average: 	191.400647
Critical Write Response time std.dev.:	92.341553
Critical Write Response time maximum:	712.453345
Critical Write Response time distribution
Non-Critical Writes: 	     0  	0.000000
Non-Critical Write Response time average: 	0.000000
Non-Critical Write Response time std.dev.:	0.000000
Non-Critical Write Response time maximum:	0
Non-Critical Write Response time distribution
Number of reads:         0  	0.000000
Number of writes:    33339  	1.000000
Sequential reads:        0  	0.000000  	0.000000
Sequential writes:       0  	0.000000  	0.000000
Base SPTF/SDF Different:      0 /      0 	0.000000
Timeout SPTF/SDF Different:      0 /      0 	0.000000
Priority SPTF/SDF Different:      0 /      0 	0.000000
runlistlen:              1399237860.746303
runoutstanding:          0.000000
simtime:                 119732.572740
warmuptime:              0.000000
setsize:                 1
Average # requests:      11686.359265
Maximum # requests:      23340
End # requests:          23339
Average queue length:    11686.359265
Maximum queue length:    23340
End queued requests:     23339
Queue time average: 	191.400647
Queue time std.dev.:	92.341553
Queue time maximum:	712.453345
Queue time distribution
Avg # read requests:     0.000000
Max # read requests:     0
Avg # write requests:    11686.359265
Max # write requests:    23340
Physical access time average: 	0.000000
Physical access time std.dev.:	0.000000
Physical access time maximum:	0
Physical access time distribution
Number of batches:  0
Batch size average: 	0.000000
Batch size std.dev.:	0.000000
Batch size maximum:	0
Batch size distribution
Inter-arrival time average: 	3.591328
Inter-arrival time std.dev.:	3.887604
Inter-arrival time maximum:	47.049152
Inter-arrival time distribution
Read inter-arrival average: 	0.000000
Read inter-arrival std.dev.:	0.000000
Read inter-arrival maximum:	0
Read inter-arrival distribution
Write inter-arrival average: 	3.591328
Write inter-arrival std.dev.:	3.887604
Write inter-arrival maximum:	47.049152
Write inter-arrival distribution
Number of idle periods:  1
Idle period length average: 	0.000000
Idle period length std.dev.:	0.000000
Idle period length maximum:	0
Idle period length distribution
Request size average: 	14.751492
Request size std.dev.:	8.384392
Request size maximum:	116
Request size distribution
Read request size average: 	0.000000
Read request size std.dev.:	0.000000
Read request size maximum:	0
Read request size distribution
Write request size average: 	14.751492
Write request size std.dev.:	8.384392
Write request size maximum:	116
Write request size distribution
Instantaneous queue length average: 	11687.170900
Instantaneous queue length std.dev.:	6728.839827
Instantaneous queue length maximum:	23340
Instantaneous queue length distribution
Sub-optimal mapping penalty average: 	0.000000
Sub-optimal mapping penalty std.dev.:	0.000000
Sub-optimal mapping penalty maximum:	0
Sub-optimal mapping penalty distribution
