Total Requests handled:	10000
Requests per second:   	85.377998
Completely idle time:  	0.000000   	0.000000
Response time average: 	1717.187973
Response time std.dev.:	815.647672
Response time maximum:	6091.721414
Response time distribution
Overlaps combined:     	0	0.000000
Read overlaps combined:	0	0.000000	0.000000
Critical Reads:      	     0  	0.000000
Critical Read Response time average: 	0.000000
Critical Read Response time std.dev.:	0.000000
Critical Read Response time maximum:	0
Critical Read Response time distribution
Non-Critical Reads:  	     0  	0.000000
Non-Critical Read Response time average: 	0.000000
Non-Critical Read Response time std.dev.:	0.000000
Non-Critical Read Response time maximum:	0
Non-Critical Read Response time distribution
Critical Writes:     	 10000  	0.297106
Critical Write Response time average: 	1717.187973
Critical Write Response time std.dev.:	815.647672
Critical Write Response time maximum:	6091.721414
Critical Write Response time distribution
Non-Critical Writes: 	     0  	0.000000
Non-Critical Write Response time average: 	0.000000
Non-Critical Write Response time std.dev.:	0.000000
Non-Critical Write Response time maximum:	0
Non-Critical Write Response time distribution
Number of reads:         0  	0.000000
Number of writes:    33658  	1.000000
Sequential reads:        0  	0.000000  	0.000000
Sequential writes:       0  	0.000000  	0.000000
Base SPTF/SDF Different:      0 /      0 	0.000000
Timeout SPTF/SDF Different:      0 /      0 	0.000000
Priority SPTF/SDF Different:      0 /      0 	0.000000
runlistlen:              1396222941.139463
runoutstanding:          0.000000
simtime:                 117126.194117
warmuptime:              0.000000
setsize:                 1
Average # requests:      11920.671987
Maximum # requests:      23659
End # requests:          23658
Average queue length:    11920.671987
Maximum queue length:    23659
End queued requests:     23658
Queue time average: 	1717.187973
Queue time std.dev.:	815.647672
Queue time maximum:	6091.721414
Queue time distribution
Avg # read requests:     0.000000
Max # read requests:     0
Avg # write requests:    11920.671987
Max # write requests:    23659
Physical access time average: 	0.000000
Physical access time std.dev.:	0.000000
Physical access time maximum:	0
Physical access time distribution
Number of batches:  0
Batch size average: 	0.000000
Batch size std.dev.:	0.000000
Batch size maximum:	0
Batch size distribution
Inter-arrival time average: 	3.479842
Inter-arrival time std.dev.:	3.878672
Inter-arrival time maximum:	41.169000
Inter-arrival time distribution
Read inter-arrival average: 	0.000000
Read inter-arrival std.dev.:	0.000000
Read inter-arrival maximum:	0
Read inter-arrival distribution
Write inter-arrival average: 	3.479842
Write inter-arrival std.dev.:	3.878672
Write inter-arrival maximum:	41.169000
Write inter-arrival distribution
Number of idle periods:  1
Idle period length average: 	0.000000
Idle period length std.dev.:	0.000000
Idle period length maximum:	0
Idle period length distribution
Request size average: 	14.733793
Request size std.dev.:	8.360580
Request size maximum:	116
Request size distribution
Read request size average: 	0.000000
Read request size std.dev.:	0.000000
Read request size maximum:	0
Read request size distribution
Write request size average: 	14.733793
Write request size std.dev.:	8.360580
Write request size maximum:	116
Write request size distribution
Instantaneous queue length average: 	12002.367700
Instantaneous queue length std.dev.:	6730.802675
Instantaneous queue length maximum:	23659
Instantaneous queue length distribution
Sub-optimal mapping penalty average: 	0.000000
Sub-optimal mapping penalty std.dev.:	0.000000
Sub-optimal mapping penalty maximum:	0
Sub-optimal mapping penalty distribution
