Total Requests handled:	10000
Requests per second:   	93.220983
Completely idle time:  	0.000000   	0.000000
Response time average: 	395.761434
Response time std.dev.:	323.438462
Response time maximum:	1817.845004
Response time distribution
Overlaps combined:     	0	0.000000
Read overlaps combined:	0	0.000000	0.000000
Critical Reads:      	     0  	0.000000
Critical Read Response time average: 	0.000000
Critical Read Response time std.dev.:	0.000000
Critical Read Response time maximum:	0
Critical Read Response time distribution
Non-Critical Reads:  	     0  	0.000000
Non-Critical Read Response time average: 	0.000000
Non-Critical Read Response time std.dev.:	0.000000
Non-Critical Read Response time maximum:	0
Non-Critical Read Response time distribution
Critical Writes:     	 10000  	0.342313
Critical Write Response time average: 	395.761434
Critical Write Response time std.dev.:	323.438462
Critical Write Response time maximum:	1817.845004
Critical Write Response time distribution
Non-Critical Writes: 	     0  	0.000000
Non-Critical Write Response time average: 	0.000000
Non-Critical Write Response time std.dev.:	0.000000
Non-Critical Write Response time maximum:	0
Non-Critical Write Response time distribution
Number of reads:         0  	0.000000
Number of writes:    29213  	1.000000
Sequential reads:        0  	0.000000  	0.000000
Sequential writes:       0  	0.000000  	0.000000
Base SPTF/SDF Different:      0 /      0 	0.000000
Timeout SPTF/SDF Different:      0 /      0 	0.000000
Priority SPTF/SDF Different:      0 /      0 	0.000000
runlistlen:              1031742678.419330
runoutstanding:          0.000000
simtime:                 107271.985604
warmuptime:              0.000000
setsize:                 1
Average # requests:      9618.006720
Maximum # requests:      19214
End # requests:          19213
Average queue length:    9618.006720
Maximum queue length:    19214
End queued requests:     19213
Queue time average: 	395.761434
Queue time std.dev.:	323.438462
Queue time maximum:	1817.845004
Queue time distribution
Avg # read requests:     0.000000
Max # read requests:     0
Avg # write requests:    9618.006720
Max # write requests:    19214
Physical access time average: 	0.000000
Physical access time std.dev.:	0.000000
Physical access time maximum:	0
Physical access time distribution
Number of batches:  0
Batch size average: 	0.000000
Batch size std.dev.:	0.000000
Batch size maximum:	0
Batch size distribution
Inter-arrival time average: 	3.672010
Inter-arrival time std.dev.:	3.057934
Inter-arrival time maximum:	20.651668
Inter-arrival time distribution
Read inter-arrival average: 	0.000000
Read inter-arrival std.dev.:	0.000000
Read inter-arrival maximum:	0
Read inter-arrival distribution
Write inter-arrival average: 	3.672010
Write inter-arrival std.dev.:	3.057934
Write inter-arrival maximum:	20.651668
Write inter-arrival distribution
Number of idle periods:  1
Idle period length average: 	0.000000
Idle period length std.dev.:	0.000000
Idle period length maximum:	0
Idle period length distribution
Request size average: 	15.296341
Request size std.dev.:	9.810311
Request size maximum:	116
Request size distribution
Read request size average: 	0.000000
Read request size std.dev.:	0.000000
Read request size maximum:	0
Read request size distribution
Write request size average: 	15.296341
Write request size std.dev.:	9.810311
Write request size maximum:	116
Write request size distribution
Instantaneous queue length average: 	9634.249500
Instantaneous queue length std.dev.:	5526.616561
Instantaneous queue length maximum:	19214
Instantaneous queue length distribution
Sub-optimal mapping penalty average: 	0.000000
Sub-optimal mapping penalty std.dev.:	0.000000
Sub-optimal mapping penalty maximum:	0
Sub-optimal mapping penalty distribution
