Total Requests handled:	10000
Requests per second:   	93.666330
Completely idle time:  	0.000000   	0.000000
Response time average: 	510.502285
Response time std.dev.:	420.082265
Response time maximum:	2284.749657
Response time distribution
Overlaps combined:     	0	0.000000
Read overlaps combined:	0	0.000000	0.000000
Critical Reads:      	     0  	0.000000
Critical Read Response time average: 	0.000000
Critical Read Response time std.dev.:	0.000000
Critical Read Response time maximum:	0
Critical Read Response time distribution
Non-Critical Reads:  	     0  	0.000000
Non-Critical Read Response time average: 	0.000000
Non-Critical Read Response time std.dev.:	0.000000
Non-Critical Read Response time maximum:	0
Non-Critical Read Response time distribution
Critical Writes:     	 10000  	0.342056
Critical Write Response time average: 	510.502285
Critical Write Response time std.dev.:	420.082265
Critical Write Response time maximum:	2284.749657
Critical Write Response time distribution
Non-Critical Writes: 	     0  	0.000000
Non-Critical Write Response time average: 	0.000000
Non-Critical Write Response time std.dev.:	0.000000
Non-Critical Write Response time maximum:	0
Non-Critical Write Response time distribution
Number of reads:         0  	0.000000
Number of writes:    29235  	1.000000
Sequential reads:        0  	0.000000  	0.000000
Sequential writes:       0  	0.000000  	0.000000
Base SPTF/SDF Different:      0 /      0 	0.000000
Timeout SPTF/SDF Different:      0 /      0 	0.000000
Priority SPTF/SDF Different:      0 /      0 	0.000000
runlistlen:              1027615083.921727
runoutstanding:          0.000000
simtime:                 106761.949298
warmuptime:              0.000000
setsize:                 1
Average # requests:      9625.293381
Maximum # requests:      19236
End # requests:          19235
Average queue length:    9625.293381
Maximum queue length:    19236
End queued requests:     19235
Queue time average: 	510.502285
Queue time std.dev.:	420.082265
Queue time maximum:	2284.749657
Queue time distribution
Avg # read requests:     0.000000
Max # read requests:     0
Avg # write requests:    9625.293381
Max # write requests:    19236
Physical access time average: 	0.000000
Physical access time std.dev.:	0.000000
Physical access time maximum:	0
Physical access time distribution
Number of batches:  0
Batch size average: 	0.000000
Batch size std.dev.:	0.000000
Batch size maximum:	0
Batch size distribution
Inter-arrival time average: 	3.651746
Inter-arrival time std.dev.:	3.045983
Inter-arrival time maximum:	24.806018
Inter-arrival time distribution
Read inter-arrival average: 	0.000000
Read inter-arrival std.dev.:	0.000000
Read inter-arrival maximum:	0
Read inter-arrival distribution
Write inter-arrival average: 	3.651746
Write inter-arrival std.dev.:	3.045983
Write inter-arrival maximum:	24.806018
Write inter-arrival distribution
Number of idle periods:  1
Idle period length average: 	0.000000
Idle period length std.dev.:	0.000000
Idle period length maximum:	0
Idle period length distribution
Request size average: 	15.293108
Request size std.dev.:	9.802572
Request size maximum:	116
Request size distribution
Read request size average: 	0.000000
Read request size std.dev.:	0.000000
Read request size maximum:	0
Read request size distribution
Write request size average: 	15.293108
Write request size std.dev.:	9.802572
Write request size maximum:	116
Write request size distribution
Instantaneous queue length average: 	9654.429500
Instantaneous queue length std.dev.:	5526.775851
Instantaneous queue length maximum:	19236
Instantaneous queue length distribution
Sub-optimal mapping penalty average: 	0.000000
Sub-optimal mapping penalty std.dev.:	0.000000
Sub-optimal mapping penalty maximum:	0
Sub-optimal mapping penalty distribution
