Total Requests handled:	10000
Requests per second:   	93.162871
Completely idle time:  	0.000000   	0.000000
Response time average: 	374.709224
Response time std.dev.:	307.772925
Response time maximum:	1739.847684
Response time distribution
Overlaps combined:     	0	0.000000
Read overlaps combined:	0	0.000000	0.000000
Critical Reads:      	     0  	0.000000
Critical Read Response time average: 	0.000000
Critical Read Response time std.dev.:	0.000000
Critical Read Response time maximum:	0
Critical Read Response time distribution
Non-Critical Reads:  	     0  	0.000000
Non-Critical Read Response time average: 	0.000000
Non-Critical Read Response time std.dev.:	0.000000
Non-Critical Read Response time maximum:	0
Non-Critical Read Response time distribution
Critical Writes:     	 10000  	0.342313
Critical Write Response time average: 	374.709224
Critical Write Response time std.dev.:	307.772925
Critical Write Response time maximum:	1739.847684
Critical Write Response time distribution
Non-Critical Writes: 	     0  	0.000000
Non-Critical Write Response time average: 	0.000000
Non-Critical Write Response time std.dev.:	0.000000
Non-Critical Write Response time maximum:	0
Non-Critical Write Response time distribution
Number of reads:         0  	0.000000
Number of writes:    29213  	1.000000
Sequential reads:        0  	0.000000  	0.000000
Sequential writes:       0  	0.000000  	0.000000
Base SPTF/SDF Different:      0 /      0 	0.000000
Timeout SPTF/SDF Different:      0 /      0 	0.000000
Priority SPTF/SDF Different:      0 /      0 	0.000000
runlistlen:              1030221646.505267
runoutstanding:          0.000000
simtime:                 107338.898893
warmuptime:              0.000000
setsize:                 1
Average # requests:      9597.840644
Maximum # requests:      19214
End # requests:          19213
Average queue length:    9597.840644
Maximum queue length:    19214
End queued requests:     19213
Queue time average: 	374.709224
Queue time std.dev.:	307.772925
Queue time maximum:	1739.847684
Queue time distribution
Avg # read requests:     0.000000
Max # read requests:     0
Avg # write requests:    9597.840644
Max # write requests:    19214
Physical access time average: 	0.000000
Physical access time std.dev.:	0.000000
Physical access time maximum:	0
Physical access time distribution
Number of batches:  0
Batch size average: 	0.000000
Batch size std.dev.:	0.000000
Batch size maximum:	0
Batch size distribution
Inter-arrival time average: 	3.674050
Inter-arrival time std.dev.:	3.068589
Inter-arrival time maximum:	24.434443
Inter-arrival time distribution
Read inter-arrival average: 	0.000000
Read inter-arrival std.dev.:	0.000000
Read inter-arrival maximum:	0
Read inter-arrival distribution
Write inter-arrival average: 	3.674050
Write inter-arrival std.dev.:	3.068589
Write inter-arrival maximum:	24.434443
Write inter-arrival distribution
Number of idle periods:  1
Idle period length average: 	0.000000
Idle period length std.dev.:	0.000000
Idle period length maximum:	0
Idle period length distribution
Request size average: 	15.296272
Request size std.dev.:	9.806837
Request size maximum:	116
Request size distribution
Read request size average: 	0.000000
Read request size std.dev.:	0.000000
Read request size maximum:	0
Read request size distribution
Write request size average: 	15.296272
Write request size std.dev.:	9.806837
Write request size maximum:	116
Write request size distribution
Instantaneous queue length average: 	9631.469800
Instantaneous queue length std.dev.:	5526.695712
Instantaneous queue length maximum:	19214
Instantaneous queue length distribution
Sub-optimal mapping penalty average: 	0.000000
Sub-optimal mapping penalty std.dev.:	0.000000
Sub-optimal mapping penalty maximum:	0
Sub-optimal mapping penalty distribution
