Total Requests handled:	10000
Requests per second:   	90.745493
Completely idle time:  	0.000000   	0.000000
Response time average: 	110.109173
Response time std.dev.:	79.771955
Response time maximum:	511.121465
Response time distribution
Overlaps combined:     	0	0.000000
Read overlaps combined:	0	0.000000	0.000000
Critical Reads:      	     0  	0.000000
Critical Read Response time average: 	0.000000
Critical Read Response time std.dev.:	0.000000
Critical Read Response time maximum:	0
Critical Read Response time distribution
Non-Critical Reads:  	     0  	0.000000
Non-Critical Read Response time average: 	0.000000
Non-Critical Read Response time std.dev.:	0.000000
Non-Critical Read Response time maximum:	0
Non-Critical Read Response time distribution
Critical Writes:     	 10000  	0.342818
Critical Write Response time average: 	110.109173
Critical Write Response time std.dev.:	79.771955
Critical Write Response time maximum:	511.121465
Critical Write Response time distribution
Non-Critical Writes: 	     0  	0.000000
Non-Critical Write Response time average: 	0.000000
Non-Critical Write Response time std.dev.:	0.000000
Non-Critical Write Response time maximum:	0
Non-Critical Write Response time distribution
Number of reads:         0  	0.000000
Number of writes:    29170  	1.000000
Sequential reads:        0  	0.000000  	0.000000
Sequential writes:       0  	0.000000  	0.000000
Base SPTF/SDF Different:      0 /      0 	0.000000
Timeout SPTF/SDF Different:      0 /      0 	0.000000
Priority SPTF/SDF Different:      0 /      0 	0.000000
runlistlen:              1053017867.577483
runoutstanding:          0.000000
simtime:                 110198.310629
warmuptime:              0.000000
setsize:                 1
Average # requests:      9555.662528
Maximum # requests:      19171
End # requests:          19170
Average queue length:    9555.662528
Maximum queue length:    19171
End queued requests:     19170
Queue time average: 	110.109173
Queue time std.dev.:	79.771955
Queue time maximum:	511.121465
Queue time distribution
Avg # read requests:     0.000000
Max # read requests:     0
Avg # write requests:    9555.662528
Max # write requests:    19171
Physical access time average: 	0.000000
Physical access time std.dev.:	0.000000
Physical access time maximum:	0
Physical access time distribution
Number of batches:  0
Batch size average: 	0.000000
Batch size std.dev.:	0.000000
Batch size maximum:	0
Batch size distribution
Inter-arrival time average: 	3.777759
Inter-arrival time std.dev.:	3.125641
Inter-arrival time maximum:	23.090981
Inter-arrival time distribution
Read inter-arrival average: 	0.000000
Read inter-arrival std.dev.:	0.000000
Read inter-arrival maximum:	0
Read inter-arrival distribution
Write inter-arrival average: 	3.777759
Write inter-arrival std.dev.:	3.125641
Write inter-arrival maximum:	23.090981
Write inter-arrival distribution
Number of idle periods:  1
Idle period length average: 	0.000000
Idle period length std.dev.:	0.000000
Idle period length maximum:	0
Idle period length distribution
Request size average: 	15.292458
Request size std.dev.:	9.796111
Request size maximum:	116
Request size distribution
Read request size average: 	0.000000
Read request size std.dev.:	0.000000
Read request size maximum:	0
Read request size distribution
Write request size average: 	15.292458
Write request size std.dev.:	9.796111
Write request size maximum:	116
Write request size distribution
Instantaneous queue length average: 	9585.405300
Instantaneous queue length std.dev.:	5526.654733
Instantaneous queue length maximum:	19171
Instantaneous queue length distribution
Sub-optimal mapping penalty average: 	0.000000
Sub-optimal mapping penalty std.dev.:	0.000000
Sub-optimal mapping penalty maximum:	0
Sub-optimal mapping penalty distribution
