Total Requests handled:	10000
Requests per second:   	91.166457
Completely idle time:  	0.000000   	0.000000
Response time average: 	120.558545
Response time std.dev.:	89.249089
Response time maximum:	537.171506
Response time distribution
Overlaps combined:     	0	0.000000
Read overlaps combined:	0	0.000000	0.000000
Critical Reads:      	     0  	0.000000
Critical Read Response time average: 	0.000000
Critical Read Response time std.dev.:	0.000000
Critical Read Response time maximum:	0
Critical Read Response time distribution
Non-Critical Reads:  	     0  	0.000000
Non-Critical Read Response time average: 	0.000000
Non-Critical Read Response time std.dev.:	0.000000
Non-Critical Read Response time maximum:	0
Non-Critical Read Response time distribution
Critical Writes:     	 10000  	0.342806
Critical Write Response time average: 	120.558545
Critical Write Response time std.dev.:	89.249089
Critical Write Response time maximum:	537.171506
Critical Write Response time distribution
Non-Critical Writes: 	     0  	0.000000
Non-Critical Write Response time average: 	0.000000
Non-Critical Write Response time std.dev.:	0.000000
Non-Critical Write Response time maximum:	0
Non-Critical Write Response time distribution
Number of reads:         0  	0.000000
Number of writes:    29171  	1.000000
Sequential reads:        0  	0.000000  	0.000000
Sequential writes:       1  	0.000034  	0.000034
Base SPTF/SDF Different:      0 /      0 	0.000000
Timeout SPTF/SDF Different:      0 /      0 	0.000000
Priority SPTF/SDF Different:      0 /      0 	0.000000
runlistlen:              1048956607.734339
runoutstanding:          0.000000
simtime:                 109689.465974
warmuptime:              0.000000
setsize:                 1
Average # requests:      9562.965764
Maximum # requests:      19172
End # requests:          19171
Average queue length:    9562.965764
Maximum queue length:    19172
End queued requests:     19171
Queue time average: 	120.558545
Queue time std.dev.:	89.249089
Queue time maximum:	537.171506
Queue time distribution
Avg # read requests:     0.000000
Max # read requests:     0
Avg # write requests:    9562.965764
Max # write requests:    19172
Physical access time average: 	0.000000
Physical access time std.dev.:	0.000000
Physical access time maximum:	0
Physical access time distribution
Number of batches:  0
Batch size average: 	0.000000
Batch size std.dev.:	0.000000
Batch size maximum:	0
Batch size distribution
Inter-arrival time average: 	3.760156
Inter-arrival time std.dev.:	3.111823
Inter-arrival time maximum:	23.519780
Inter-arrival time distribution
Read inter-arrival average: 	0.000000
Read inter-arrival std.dev.:	0.000000
Read inter-arrival maximum:	0
Read inter-arrival distribution
Write inter-arrival average: 	3.760156
Write inter-arrival std.dev.:	3.111823
Write inter-arrival maximum:	23.519780
Write inter-arrival distribution
Number of idle periods:  1
Idle period length average: 	0.000000
Idle period length std.dev.:	0.000000
Idle period length maximum:	0
Idle period length distribution
Request size average: 	15.291660
Request size std.dev.:	9.796147
Request size maximum:	116
Request size distribution
Read request size average: 	0.000000
Read request size std.dev.:	0.000000
Read request size maximum:	0
Read request size distribution
Write request size average: 	15.291660
Write request size std.dev.:	9.796147
Write request size maximum:	116
Write request size distribution
Instantaneous queue length average: 	9587.312900
Instantaneous queue length std.dev.:	5526.676643
Instantaneous queue length maximum:	19172
Instantaneous queue length distribution
Sub-optimal mapping penalty average: 	0.000000
Sub-optimal mapping penalty std.dev.:	0.000000
Sub-optimal mapping penalty maximum:	0
Sub-optimal mapping penalty distribution
