Total Requests handled:	10000
Requests per second:   	86.314383
Completely idle time:  	0.000000   	0.000000
Response time average: 	439.048387
Response time std.dev.:	362.757828
Response time maximum:	1994.817876
Response time distribution
Overlaps combined:     	0	0.000000
Read overlaps combined:	0	0.000000	0.000000
Critical Reads:      	     0  	0.000000
Critical Read Response time average: 	0.000000
Critical Read Response time std.dev.:	0.000000
Critical Read Response time maximum:	0
Critical Read Response time distribution
Non-Critical Reads:  	     0  	0.000000
Non-Critical Read Response time average: 	0.000000
Non-Critical Read Response time std.dev.:	0.000000
Non-Critical Read Response time maximum:	0
Non-Critical Read Response time distribution
Critical Writes:     	 10000  	0.314021
Critical Write Response time average: 	439.048387
Critical Write Response time std.dev.:	362.757828
Critical Write Response time maximum:	1994.817876
Critical Write Response time distribution
Non-Critical Writes: 	     0  	0.000000
Non-Critical Write Response time average: 	0.000000
Non-Critical Write Response time std.dev.:	0.000000
Non-Critical Write Response time maximum:	0
Non-Critical Write Response time distribution
Number of reads:         0  	0.000000
Number of writes:    31845  	1.000000
Sequential reads:        0  	0.000000  	0.000000
Sequential writes:       2  	0.000063  	0.000063
Base SPTF/SDF Different:      0 /      0 	0.000000
Timeout SPTF/SDF Different:      0 /      0 	0.000000
Priority SPTF/SDF Different:      0 /      0 	0.000000
runlistlen:              1264552956.148611
runoutstanding:          0.000000
simtime:                 115855.545733
warmuptime:              0.000000
setsize:                 1
Average # requests:      10914.910876
Maximum # requests:      21846
End # requests:          21845
Average queue length:    10914.910876
Maximum queue length:    21846
End queued requests:     21845
Queue time average: 	439.048387
Queue time std.dev.:	362.757828
Queue time maximum:	1994.817876
Queue time distribution
Avg # read requests:     0.000000
Max # read requests:     0
Avg # write requests:    10914.910876
Max # write requests:    21846
Physical access time average: 	0.000000
Physical access time std.dev.:	0.000000
Physical access time maximum:	0
Physical access time distribution
Number of batches:  0
Batch size average: 	0.000000
Batch size std.dev.:	0.000000
Batch size maximum:	0
Batch size distribution
Inter-arrival time average: 	3.637991
Inter-arrival time std.dev.:	3.296467
Inter-arrival time maximum:	30.714046
Inter-arrival time distribution
Read inter-arrival average: 	0.000000
Read inter-arrival std.dev.:	0.000000
Read inter-arrival maximum:	0
Read inter-arrival distribution
Write inter-arrival average: 	3.637991
Write inter-arrival std.dev.:	3.296467
Write inter-arrival maximum:	30.714046
Write inter-arrival distribution
Number of idle periods:  1
Idle period length average: 	0.000000
Idle period length std.dev.:	0.000000
Idle period length maximum:	0
Idle period length distribution
Request size average: 	15.322468
Request size std.dev.:	9.847019
Request size maximum:	116
Request size distribution
Read request size average: 	0.000000
Read request size std.dev.:	0.000000
Read request size maximum:	0
Read request size distribution
Write request size average: 	15.322468
Write request size std.dev.:	9.847019
Write request size maximum:	116
Write request size distribution
Instantaneous queue length average: 	10960.728600
Instantaneous queue length std.dev.:	6289.143201
Instantaneous queue length maximum:	21846
Instantaneous queue length distribution
Sub-optimal mapping penalty average: 	0.000000
Sub-optimal mapping penalty std.dev.:	0.000000
Sub-optimal mapping penalty maximum:	0
Sub-optimal mapping penalty distribution
