Total Requests handled:	10000
Requests per second:   	85.963476
Completely idle time:  	0.000000   	0.000000
Response time average: 	359.787199
Response time std.dev.:	294.212576
Response time maximum:	1560.514167
Response time distribution
Overlaps combined:     	0	0.000000
Read overlaps combined:	0	0.000000	0.000000
Critical Reads:      	     0  	0.000000
Critical Read Response time average: 	0.000000
Critical Read Response time std.dev.:	0.000000
Critical Read Response time maximum:	0
Critical Read Response time distribution
Non-Critical Reads:  	     0  	0.000000
Non-Critical Read Response time average: 	0.000000
Non-Critical Read Response time std.dev.:	0.000000
Non-Critical Read Response time maximum:	0
Non-Critical Read Response time distribution
Critical Writes:     	 10000  	0.314100
Critical Write Response time average: 	359.787199
Critical Write Response time std.dev.:	294.212576
Critical Write Response time maximum:	1560.514167
Critical Write Response time distribution
Non-Critical Writes: 	     0  	0.000000
Non-Critical Write Response time average: 	0.000000
Non-Critical Write Response time std.dev.:	0.000000
Non-Critical Write Response time maximum:	0
Non-Critical Write Response time distribution
Number of reads:         0  	0.000000
Number of writes:    31837  	1.000000
Sequential reads:        0  	0.000000  	0.000000
Sequential writes:       2  	0.000063  	0.000063
Base SPTF/SDF Different:      0 /      0 	0.000000
Timeout SPTF/SDF Different:      0 /      0 	0.000000
Priority SPTF/SDF Different:      0 /      0 	0.000000
runlistlen:              1269956664.891489
runoutstanding:          0.000000
simtime:                 116328.474656
warmuptime:              0.000000
setsize:                 1
Average # requests:      10916.988886
Maximum # requests:      21838
End # requests:          21837
Average queue length:    10916.988886
Maximum queue length:    21838
End queued requests:     21837
Queue time average: 	359.787199
Queue time std.dev.:	294.212576
Queue time maximum:	1560.514167
Queue time distribution
Avg # read requests:     0.000000
Max # read requests:     0
Avg # write requests:    10916.988886
Max # write requests:    21838
Physical access time average: 	0.000000
Physical access time std.dev.:	0.000000
Physical access time maximum:	0
Physical access time distribution
Number of batches:  0
Batch size average: 	0.000000
Batch size std.dev.:	0.000000
Batch size maximum:	0
Batch size distribution
Inter-arrival time average: 	3.653846
Inter-arrival time std.dev.:	3.312126
Inter-arrival time maximum:	35.741556
Inter-arrival time distribution
Read inter-arrival average: 	0.000000
Read inter-arrival std.dev.:	0.000000
Read inter-arrival maximum:	0
Read inter-arrival distribution
Write inter-arrival average: 	3.653846
Write inter-arrival std.dev.:	3.312126
Write inter-arrival maximum:	35.741556
Write inter-arrival distribution
Number of idle periods:  1
Idle period length average: 	0.000000
Idle period length std.dev.:	0.000000
Idle period length maximum:	0
Idle period length distribution
Request size average: 	15.318937
Request size std.dev.:	9.842717
Request size maximum:	116
Request size distribution
Read request size average: 	0.000000
Read request size std.dev.:	0.000000
Read request size maximum:	0
Read request size distribution
Write request size average: 	15.318937
Write request size std.dev.:	9.842717
Write request size maximum:	116
Write request size distribution
Instantaneous queue length average: 	10946.970800
Instantaneous queue length std.dev.:	6288.992334
Instantaneous queue length maximum:	21838
Instantaneous queue length distribution
Sub-optimal mapping penalty average: 	0.000000
Sub-optimal mapping penalty std.dev.:	0.000000
Sub-optimal mapping penalty maximum:	0
Sub-optimal mapping penalty distribution
