Total Requests handled:	10000
Requests per second:   	85.977567
Completely idle time:  	0.000000   	0.000000
Response time average: 	313.449020
Response time std.dev.:	254.097027
Response time maximum:	1408.297375
Response time distribution
Overlaps combined:     	0	0.000000
Read overlaps combined:	0	0.000000	0.000000
Critical Reads:      	     0  	0.000000
Critical Read Response time average: 	0.000000
Critical Read Response time std.dev.:	0.000000
Critical Read Response time maximum:	0
Critical Read Response time distribution
Non-Critical Reads:  	     0  	0.000000
Non-Critical Read Response time average: 	0.000000
Non-Critical Read Response time std.dev.:	0.000000
Non-Critical Read Response time maximum:	0
Non-Critical Read Response time distribution
Critical Writes:     	 10000  	0.314189
Critical Write Response time average: 	313.449020
Critical Write Response time std.dev.:	254.097027
Critical Write Response time maximum:	1408.297375
Critical Write Response time distribution
Non-Critical Writes: 	     0  	0.000000
Non-Critical Write Response time average: 	0.000000
Non-Critical Write Response time std.dev.:	0.000000
Non-Critical Write Response time maximum:	0
Non-Critical Write Response time distribution
Number of reads:         0  	0.000000
Number of writes:    31828  	1.000000
Sequential reads:        0  	0.000000  	0.000000
Sequential writes:       0  	0.000000  	0.000000
Base SPTF/SDF Different:      0 /      0 	0.000000
Timeout SPTF/SDF Different:      0 /      0 	0.000000
Priority SPTF/SDF Different:      0 /      0 	0.000000
runlistlen:              1268739843.079573
runoutstanding:          0.000000
simtime:                 116309.408770
warmuptime:              0.000000
setsize:                 1
Average # requests:      10908.316502
Maximum # requests:      21829
End # requests:          21828
Average queue length:    10908.316502
Maximum queue length:    21829
End queued requests:     21828
Queue time average: 	313.449020
Queue time std.dev.:	254.097027
Queue time maximum:	1408.297375
Queue time distribution
Avg # read requests:     0.000000
Max # read requests:     0
Avg # write requests:    10908.316502
Max # write requests:    21829
Physical access time average: 	0.000000
Physical access time std.dev.:	0.000000
Physical access time maximum:	0
Physical access time distribution
Number of batches:  0
Batch size average: 	0.000000
Batch size std.dev.:	0.000000
Batch size maximum:	0
Batch size distribution
Inter-arrival time average: 	3.654240
Inter-arrival time std.dev.:	3.305297
Inter-arrival time maximum:	37.844811
Inter-arrival time distribution
Read inter-arrival average: 	0.000000
Read inter-arrival std.dev.:	0.000000
Read inter-arrival maximum:	0
Read inter-arrival distribution
Write inter-arrival average: 	3.654240
Write inter-arrival std.dev.:	3.305297
Write inter-arrival maximum:	37.844811
Write inter-arrival distribution
Number of idle periods:  1
Idle period length average: 	0.000000
Idle period length std.dev.:	0.000000
Idle period length maximum:	0
Idle period length distribution
Request size average: 	15.324746
Request size std.dev.:	9.848544
Request size maximum:	116
Request size distribution
Read request size average: 	0.000000
Read request size std.dev.:	0.000000
Read request size maximum:	0
Read request size distribution
Write request size average: 	15.324746
Write request size std.dev.:	9.848544
Write request size maximum:	116
Write request size distribution
Instantaneous queue length average: 	10937.735300
Instantaneous queue length std.dev.:	6289.024358
Instantaneous queue length maximum:	21829
Instantaneous queue length distribution
Sub-optimal mapping penalty average: 	0.000000
Sub-optimal mapping penalty std.dev.:	0.000000
Sub-optimal mapping penalty maximum:	0
Sub-optimal mapping penalty distribution
