Total Requests handled:	10000
Requests per second:   	461.539288
Completely idle time:  	0.000000   	0.000000
Response time average: 	8.664758
Response time std.dev.:	6.134393
Response time maximum:	46.448428
Response time distribution
Overlaps combined:     	0	0.000000
Read overlaps combined:	0	0.000000	0.000000
Critical Reads:      	     0  	0.000000
Critical Read Response time average: 	0.000000
Critical Read Response time std.dev.:	0.000000
Critical Read Response time maximum:	0
Critical Read Response time distribution
Non-Critical Reads:  	     0  	0.000000
Non-Critical Read Response time average: 	0.000000
Non-Critical Read Response time std.dev.:	0.000000
Non-Critical Read Response time maximum:	0
Non-Critical Read Response time distribution
Critical Writes:     	 10000  	0.999700
Critical Write Response time average: 	8.664758
Critical Write Response time std.dev.:	6.134393
Critical Write Response time maximum:	46.448428
Critical Write Response time distribution
Non-Critical Writes: 	     0  	0.000000
Non-Critical Write Response time average: 	0.000000
Non-Critical Write Response time std.dev.:	0.000000
Non-Critical Write Response time maximum:	0
Non-Critical Write Response time distribution
Number of reads:         0  	0.000000
Number of writes:    10003  	1.000000
Sequential reads:        0  	0.000000  	0.000000
Sequential writes:       0  	0.000000  	0.000000
Base SPTF/SDF Different:      0 /      0 	0.000000
Timeout SPTF/SDF Different:      0 /      0 	0.000000
Priority SPTF/SDF Different:      0 /      0 	0.000000
runlistlen:              86666.511505
runoutstanding:          0.000000
simtime:                 21666.627876
warmuptime:              0.000000
setsize:                 1
Average # requests:      4.000000
Maximum # requests:      4
End # requests:          3
Average queue length:    4.000000
Maximum queue length:    4
End queued requests:     3
Queue time average: 	8.664758
Queue time std.dev.:	6.134393
Queue time maximum:	46.448428
Queue time distribution
Avg # read requests:     0.000000
Max # read requests:     0
Avg # write requests:    4.000000
Max # write requests:    4
Physical access time average: 	0.000000
Physical access time std.dev.:	0.000000
Physical access time maximum:	0
Physical access time distribution
Number of batches:  0
Batch size average: 	0.000000
Batch size std.dev.:	0.000000
Batch size maximum:	0
Batch size distribution
Inter-arrival time average: 	2.165847
Inter-arrival time std.dev.:	1.385751
Inter-arrival time maximum:	12.305125
Inter-arrival time distribution
Read inter-arrival average: 	0.000000
Read inter-arrival std.dev.:	0.000000
Read inter-arrival maximum:	0
Read inter-arrival distribution
Write inter-arrival average: 	2.165847
Write inter-arrival std.dev.:	1.385751
Write inter-arrival maximum:	12.305125
Write inter-arrival distribution
Number of idle periods:  1
Idle period length average: 	0.000000
Idle period length std.dev.:	0.000000
Idle period length maximum:	0
Idle period length distribution
Request size average: 	15.585724
Request size std.dev.:	8.192142
Request size maximum:	116
Request size distribution
Read request size average: 	0.000000
Read request size std.dev.:	0.000000
Read request size maximum:	0
Read request size distribution
Write request size average: 	15.585724
Write request size std.dev.:	8.192142
Write request size maximum:	116
Write request size distribution
Instantaneous queue length average: 	4.000000
Instantaneous queue length std.dev.:	0.000000
Instantaneous queue length maximum:	4
Instantaneous queue length distribution
Sub-optimal mapping penalty average: 	0.000000
Sub-optimal mapping penalty std.dev.:	0.000000
Sub-optimal mapping penalty maximum:	0
Sub-optimal mapping penalty distribution
