Total Requests handled:	10000
Requests per second:   	537.888173
Completely idle time:  	0.000000   	0.000000
Response time average: 	31.568185
Response time std.dev.:	26.919808
Response time maximum:	182.323668
Response time distribution
Overlaps combined:     	0	0.000000
Read overlaps combined:	0	0.000000	0.000000
Critical Reads:      	     0  	0.000000
Critical Read Response time average: 	0.000000
Critical Read Response time std.dev.:	0.000000
Critical Read Response time maximum:	0
Critical Read Response time distribution
Non-Critical Reads:  	     0  	0.000000
Non-Critical Read Response time average: 	0.000000
Non-Critical Read Response time std.dev.:	0.000000
Non-Critical Read Response time maximum:	0
Non-Critical Read Response time distribution
Critical Writes:     	 10000  	0.998403
Critical Write Response time average: 	31.568185
Critical Write Response time std.dev.:	26.919808
Critical Write Response time maximum:	182.323668
Critical Write Response time distribution
Non-Critical Writes: 	     0  	0.000000
Non-Critical Write Response time average: 	0.000000
Non-Critical Write Response time std.dev.:	0.000000
Non-Critical Write Response time maximum:	0
Non-Critical Write Response time distribution
Number of reads:         0  	0.000000
Number of writes:    10016  	1.000000
Sequential reads:        0  	0.000000  	0.000000
Sequential writes:       0  	0.000000  	0.000000
Base SPTF/SDF Different:      0 /      0 	0.000000
Timeout SPTF/SDF Different:      0 /      0 	0.000000
Priority SPTF/SDF Different:      0 /      0 	0.000000
runlistlen:              316050.823214
runoutstanding:          0.000000
simtime:                 18591.224895
warmuptime:              0.000000
setsize:                 1
Average # requests:      17.000000
Maximum # requests:      17
End # requests:          16
Average queue length:    17.000000
Maximum queue length:    17
End queued requests:     16
Queue time average: 	31.568185
Queue time std.dev.:	26.919808
Queue time maximum:	182.323668
Queue time distribution
Avg # read requests:     0.000000
Max # read requests:     0
Avg # write requests:    17.000000
Max # write requests:    17
Physical access time average: 	0.000000
Physical access time std.dev.:	0.000000
Physical access time maximum:	0
Physical access time distribution
Number of batches:  0
Batch size average: 	0.000000
Batch size std.dev.:	0.000000
Batch size maximum:	0
Batch size distribution
Inter-arrival time average: 	1.855846
Inter-arrival time std.dev.:	1.120496
Inter-arrival time maximum:	14.516303
Inter-arrival time distribution
Read inter-arrival average: 	0.000000
Read inter-arrival std.dev.:	0.000000
Read inter-arrival maximum:	0
Read inter-arrival distribution
Write inter-arrival average: 	1.855846
Write inter-arrival std.dev.:	1.120496
Write inter-arrival maximum:	14.516303
Write inter-arrival distribution
Number of idle periods:  1
Idle period length average: 	0.000000
Idle period length std.dev.:	0.000000
Idle period length maximum:	0
Idle period length distribution
Request size average: 	15.584964
Request size std.dev.:	8.189838
Request size maximum:	116
Request size distribution
Read request size average: 	0.000000
Read request size std.dev.:	0.000000
Read request size maximum:	0
Read request size distribution
Write request size average: 	15.584964
Write request size std.dev.:	8.189838
Write request size maximum:	116
Write request size distribution
Instantaneous queue length average: 	17.000000
Instantaneous queue length std.dev.:	0.000000
Instantaneous queue length maximum:	17
Instantaneous queue length distribution
Sub-optimal mapping penalty average: 	0.000000
Sub-optimal mapping penalty std.dev.:	0.000000
Sub-optimal mapping penalty maximum:	0
Sub-optimal mapping penalty distribution
