Total Requests handled:	10000
Requests per second:   	88.471610
Completely idle time:  	0.000000   	0.000000
Response time average: 	507.254157
Response time std.dev.:	508.969978
Response time maximum:	3308.999651
Response time distribution
Overlaps combined:     	0	0.000000
Read overlaps combined:	0	0.000000	0.000000
Critical Reads:      	     0  	0.000000
Critical Read Response time average: 	0.000000
Critical Read Response time std.dev.:	0.000000
Critical Read Response time maximum:	0
Critical Read Response time distribution
Non-Critical Reads:  	     0  	0.000000
Non-Critical Read Response time average: 	0.000000
Non-Critical Read Response time std.dev.:	0.000000
Non-Critical Read Response time maximum:	0
Non-Critical Read Response time distribution
Critical Writes:     	 10000  	0.296921
Critical Write Response time average: 	507.254157
Critical Write Response time std.dev.:	508.969978
Critical Write Response time maximum:	3308.999651
Critical Write Response time distribution
Non-Critical Writes: 	     0  	0.000000
Non-Critical Write Response time average: 	0.000000
Non-Critical Write Response time std.dev.:	0.000000
Non-Critical Write Response time maximum:	0
Non-Critical Write Response time distribution
Number of reads:         0  	0.000000
Number of writes:    33679  	1.000000
Sequential reads:        0  	0.000000  	0.000000
Sequential writes:       0  	0.000000  	0.000000
Base SPTF/SDF Different:      0 /      0 	0.000000
Timeout SPTF/SDF Different:      0 /      0 	0.000000
Priority SPTF/SDF Different:      0 /      0 	0.000000
runlistlen:              1343964926.116516
runoutstanding:          0.000000
simtime:                 113030.608931
warmuptime:              0.000000
setsize:                 1
Average # requests:      11890.274137
Maximum # requests:      23680
End # requests:          23679
Average queue length:    11890.274137
Maximum queue length:    23680
End queued requests:     23679
Queue time average: 	507.254157
Queue time std.dev.:	508.969978
Queue time maximum:	3308.999651
Queue time distribution
Avg # read requests:     0.000000
Max # read requests:     0
Avg # write requests:    11890.274137
Max # write requests:    23680
Physical access time average: 	0.000000
Physical access time std.dev.:	0.000000
Physical access time maximum:	0
Physical access time distribution
Number of batches:  0
Batch size average: 	0.000000
Batch size std.dev.:	0.000000
Batch size maximum:	0
Batch size distribution
Inter-arrival time average: 	3.355867
Inter-arrival time std.dev.:	3.836556
Inter-arrival time maximum:	36.453000
Inter-arrival time distribution
Read inter-arrival average: 	0.000000
Read inter-arrival std.dev.:	0.000000
Read inter-arrival maximum:	0
Read inter-arrival distribution
Write inter-arrival average: 	3.355867
Write inter-arrival std.dev.:	3.836556
Write inter-arrival maximum:	36.453000
Write inter-arrival distribution
Number of idle periods:  1
Idle period length average: 	0.000000
Idle period length std.dev.:	0.000000
Idle period length maximum:	0
Idle period length distribution
Request size average: 	14.385225
Request size std.dev.:	9.318814
Request size maximum:	116
Request size distribution
Read request size average: 	0.000000
Read request size std.dev.:	0.000000
Read request size maximum:	0
Read request size distribution
Write request size average: 	14.385225
Write request size std.dev.:	9.318814
Write request size maximum:	116
Write request size distribution
Instantaneous queue length average: 	11912.101400
Instantaneous queue length std.dev.:	6808.184469
Instantaneous queue length maximum:	23680
Instantaneous queue length distribution
Sub-optimal mapping penalty average: 	0.000000
Sub-optimal mapping penalty std.dev.:	0.000000
Sub-optimal mapping penalty maximum:	0
Sub-optimal mapping penalty distribution
