Total Requests handled:	10000
Requests per second:   	88.431938
Completely idle time:  	0.000000   	0.000000
Response time average: 	406.096220
Response time std.dev.:	365.327012
Response time maximum:	2579.400724
Response time distribution
Overlaps combined:     	0	0.000000
Read overlaps combined:	0	0.000000	0.000000
Critical Reads:      	     0  	0.000000
Critical Read Response time average: 	0.000000
Critical Read Response time std.dev.:	0.000000
Critical Read Response time maximum:	0
Critical Read Response time distribution
Non-Critical Reads:  	     0  	0.000000
Non-Critical Read Response time average: 	0.000000
Non-Critical Read Response time std.dev.:	0.000000
Non-Critical Read Response time maximum:	0
Non-Critical Read Response time distribution
Critical Writes:     	 10000  	0.296868
Critical Write Response time average: 	406.096220
Critical Write Response time std.dev.:	365.327012
Critical Write Response time maximum:	2579.400724
Critical Write Response time distribution
Non-Critical Writes: 	     0  	0.000000
Non-Critical Write Response time average: 	0.000000
Non-Critical Write Response time std.dev.:	0.000000
Non-Critical Write Response time maximum:	0
Non-Critical Write Response time distribution
Number of reads:         0  	0.000000
Number of writes:    33685  	1.000000
Sequential reads:        0  	0.000000  	0.000000
Sequential writes:       0  	0.000000  	0.000000
Base SPTF/SDF Different:      0 /      0 	0.000000
Timeout SPTF/SDF Different:      0 /      0 	0.000000
Priority SPTF/SDF Different:      0 /      0 	0.000000
runlistlen:              1343825856.806700
runoutstanding:          0.000000
simtime:                 113081.316616
warmuptime:              0.000000
setsize:                 1
Average # requests:      11883.712509
Maximum # requests:      23686
End # requests:          23685
Average queue length:    11883.712509
Maximum queue length:    23686
End queued requests:     23685
Queue time average: 	406.096220
Queue time std.dev.:	365.327012
Queue time maximum:	2579.400724
Queue time distribution
Avg # read requests:     0.000000
Max # read requests:     0
Avg # write requests:    11883.712509
Max # write requests:    23686
Physical access time average: 	0.000000
Physical access time std.dev.:	0.000000
Physical access time maximum:	0
Physical access time distribution
Number of batches:  0
Batch size average: 	0.000000
Batch size std.dev.:	0.000000
Batch size maximum:	0
Batch size distribution
Inter-arrival time average: 	3.356736
Inter-arrival time std.dev.:	3.844779
Inter-arrival time maximum:	34.614000
Inter-arrival time distribution
Read inter-arrival average: 	0.000000
Read inter-arrival std.dev.:	0.000000
Read inter-arrival maximum:	0
Read inter-arrival distribution
Write inter-arrival average: 	3.356736
Write inter-arrival std.dev.:	3.844779
Write inter-arrival maximum:	34.614000
Write inter-arrival distribution
Number of idle periods:  1
Idle period length average: 	0.000000
Idle period length std.dev.:	0.000000
Idle period length maximum:	0
Idle period length distribution
Request size average: 	14.383850
Request size std.dev.:	9.322654
Request size maximum:	116
Request size distribution
Read request size average: 	0.000000
Read request size std.dev.:	0.000000
Read request size maximum:	0
Read request size distribution
Write request size average: 	14.383850
Write request size std.dev.:	9.322654
Write request size maximum:	116
Write request size distribution
Instantaneous queue length average: 	11893.419500
Instantaneous queue length std.dev.:	6807.882719
Instantaneous queue length maximum:	23686
Instantaneous queue length distribution
Sub-optimal mapping penalty average: 	0.000000
Sub-optimal mapping penalty std.dev.:	0.000000
Sub-optimal mapping penalty maximum:	0
Sub-optimal mapping penalty distribution
