Total Requests handled:	10000
Requests per second:   	88.422854
Completely idle time:  	0.000000   	0.000000
Response time average: 	383.718013
Response time std.dev.:	336.324250
Response time maximum:	2349.113978
Response time distribution
Overlaps combined:     	0	0.000000
Read overlaps combined:	0	0.000000	0.000000
Critical Reads:      	     0  	0.000000
Critical Read Response time average: 	0.000000
Critical Read Response time std.dev.:	0.000000
Critical Read Response time maximum:	0
Critical Read Response time distribution
Non-Critical Reads:  	     0  	0.000000
Non-Critical Read Response time average: 	0.000000
Non-Critical Read Response time std.dev.:	0.000000
Non-Critical Read Response time maximum:	0
Non-Critical Read Response time distribution
Critical Writes:     	 10000  	0.297097
Critical Write Response time average: 	383.718013
Critical Write Response time std.dev.:	336.324250
Critical Write Response time maximum:	2349.113978
Critical Write Response time distribution
Non-Critical Writes: 	     0  	0.000000
Non-Critical Write Response time average: 	0.000000
Non-Critical Write Response time std.dev.:	0.000000
Non-Critical Write Response time maximum:	0
Non-Critical Write Response time distribution
Number of reads:         0  	0.000000
Number of writes:    33659  	1.000000
Sequential reads:        0  	0.000000  	0.000000
Sequential writes:       0  	0.000000  	0.000000
Base SPTF/SDF Different:      0 /      0 	0.000000
Timeout SPTF/SDF Different:      0 /      0 	0.000000
Priority SPTF/SDF Different:      0 /      0 	0.000000
runlistlen:              1342589381.938731
runoutstanding:          0.000000
simtime:                 113092.933857
warmuptime:              0.000000
setsize:                 1
Average # requests:      11871.558515
Maximum # requests:      23660
End # requests:          23659
Average queue length:    11871.558515
Maximum queue length:    23660
End queued requests:     23659
Queue time average: 	383.718013
Queue time std.dev.:	336.324250
Queue time maximum:	2349.113978
Queue time distribution
Avg # read requests:     0.000000
Max # read requests:     0
Avg # write requests:    11871.558515
Max # write requests:    23660
Physical access time average: 	0.000000
Physical access time std.dev.:	0.000000
Physical access time maximum:	0
Physical access time distribution
Number of batches:  0
Batch size average: 	0.000000
Batch size std.dev.:	0.000000
Batch size maximum:	0
Batch size distribution
Inter-arrival time average: 	3.359166
Inter-arrival time std.dev.:	3.804639
Inter-arrival time maximum:	36.888000
Inter-arrival time distribution
Read inter-arrival average: 	0.000000
Read inter-arrival std.dev.:	0.000000
Read inter-arrival maximum:	0
Read inter-arrival distribution
Write inter-arrival average: 	3.359166
Write inter-arrival std.dev.:	3.804639
Write inter-arrival maximum:	36.888000
Write inter-arrival distribution
Number of idle periods:  1
Idle period length average: 	0.000000
Idle period length std.dev.:	0.000000
Idle period length maximum:	0
Idle period length distribution
Request size average: 	14.386553
Request size std.dev.:	9.325774
Request size maximum:	116
Request size distribution
Read request size average: 	0.000000
Read request size std.dev.:	0.000000
Read request size maximum:	0
Read request size distribution
Write request size average: 	14.386553
Write request size std.dev.:	9.325774
Write request size maximum:	116
Write request size distribution
Instantaneous queue length average: 	11889.533200
Instantaneous queue length std.dev.:	6807.652878
Instantaneous queue length maximum:	23660
Instantaneous queue length distribution
Sub-optimal mapping penalty average: 	0.000000
Sub-optimal mapping penalty std.dev.:	0.000000
Sub-optimal mapping penalty maximum:	0
Sub-optimal mapping penalty distribution
