Total Requests handled:	10000
Requests per second:   	87.637763
Completely idle time:  	0.000000   	0.000000
Response time average: 	91.246158
Response time std.dev.:	49.891370
Response time maximum:	413.802833
Response time distribution
Overlaps combined:     	0	0.000000
Read overlaps combined:	0	0.000000	0.000000
Critical Reads:      	     0  	0.000000
Critical Read Response time average: 	0.000000
Critical Read Response time std.dev.:	0.000000
Critical Read Response time maximum:	0
Critical Read Response time distribution
Non-Critical Reads:  	     0  	0.000000
Non-Critical Read Response time average: 	0.000000
Non-Critical Read Response time std.dev.:	0.000000
Non-Critical Read Response time maximum:	0
Non-Critical Read Response time distribution
Critical Writes:     	 10000  	0.297592
Critical Write Response time average: 	91.246158
Critical Write Response time std.dev.:	49.891370
Critical Write Response time maximum:	413.802833
Critical Write Response time distribution
Non-Critical Writes: 	     0  	0.000000
Non-Critical Write Response time average: 	0.000000
Non-Critical Write Response time std.dev.:	0.000000
Non-Critical Write Response time maximum:	0
Non-Critical Write Response time distribution
Number of reads:         0  	0.000000
Number of writes:    33603  	1.000000
Sequential reads:        0  	0.000000  	0.000000
Sequential writes:       1  	0.000030  	0.000030
Base SPTF/SDF Different:      0 /      0 	0.000000
Timeout SPTF/SDF Different:      0 /      0 	0.000000
Priority SPTF/SDF Different:      0 /      0 	0.000000
runlistlen:              1350248000.321320
runoutstanding:          0.000000
simtime:                 114106.061164
warmuptime:              0.000000
setsize:                 1
Average # requests:      11833.271489
Maximum # requests:      23604
End # requests:          23603
Average queue length:    11833.271489
Maximum queue length:    23604
End queued requests:     23603
Queue time average: 	91.246158
Queue time std.dev.:	49.891370
Queue time maximum:	413.802833
Queue time distribution
Avg # read requests:     0.000000
Max # read requests:     0
Avg # write requests:    11833.271489
Max # write requests:    23604
Physical access time average: 	0.000000
Physical access time std.dev.:	0.000000
Physical access time maximum:	0
Physical access time distribution
Number of batches:  0
Batch size average: 	0.000000
Batch size std.dev.:	0.000000
Batch size maximum:	0
Batch size distribution
Inter-arrival time average: 	3.395628
Inter-arrival time std.dev.:	3.838346
Inter-arrival time maximum:	38.078371
Inter-arrival time distribution
Read inter-arrival average: 	0.000000
Read inter-arrival std.dev.:	0.000000
Read inter-arrival maximum:	0
Read inter-arrival distribution
Write inter-arrival average: 	3.395628
Write inter-arrival std.dev.:	3.838346
Write inter-arrival maximum:	38.078371
Write inter-arrival distribution
Number of idle periods:  1
Idle period length average: 	0.000000
Idle period length std.dev.:	0.000000
Idle period length maximum:	0
Idle period length distribution
Request size average: 	14.387257
Request size std.dev.:	9.324936
Request size maximum:	116
Request size distribution
Read request size average: 	0.000000
Read request size std.dev.:	0.000000
Read request size maximum:	0
Read request size distribution
Write request size average: 	14.387257
Write request size std.dev.:	9.324936
Write request size maximum:	116
Write request size distribution
Instantaneous queue length average: 	11823.340000
Instantaneous queue length std.dev.:	6808.279121
Instantaneous queue length maximum:	23604
Instantaneous queue length distribution
Sub-optimal mapping penalty average: 	0.000000
Sub-optimal mapping penalty std.dev.:	0.000000
Sub-optimal mapping penalty maximum:	0
Sub-optimal mapping penalty distribution
