Total Requests handled:	10000
Requests per second:   	88.459321
Completely idle time:  	0.000000   	0.000000
Response time average: 	327.347364
Response time std.dev.:	263.685639
Response time maximum:	1913.845657
Response time distribution
Overlaps combined:     	0	0.000000
Read overlaps combined:	0	0.000000	0.000000
Critical Reads:      	     0  	0.000000
Critical Read Response time average: 	0.000000
Critical Read Response time std.dev.:	0.000000
Critical Read Response time maximum:	0
Critical Read Response time distribution
Non-Critical Reads:  	     0  	0.000000
Non-Critical Read Response time average: 	0.000000
Non-Critical Read Response time std.dev.:	0.000000
Non-Critical Read Response time maximum:	0
Non-Critical Read Response time distribution
Critical Writes:     	 10000  	0.297115
Critical Write Response time average: 	327.347364
Critical Write Response time std.dev.:	263.685639
Critical Write Response time maximum:	1913.845657
Critical Write Response time distribution
Non-Critical Writes: 	     0  	0.000000
Non-Critical Write Response time average: 	0.000000
Non-Critical Write Response time std.dev.:	0.000000
Non-Critical Write Response time maximum:	0
Non-Critical Write Response time distribution
Number of reads:         0  	0.000000
Number of writes:    33657  	1.000000
Sequential reads:        0  	0.000000  	0.000000
Sequential writes:       0  	0.000000  	0.000000
Base SPTF/SDF Different:      0 /      0 	0.000000
Timeout SPTF/SDF Different:      0 /      0 	0.000000
Priority SPTF/SDF Different:      0 /      0 	0.000000
runlistlen:              1341440405.624610
runoutstanding:          0.000000
simtime:                 113046.311653
warmuptime:              0.000000
setsize:                 1
Average # requests:      11866.290780
Maximum # requests:      23658
End # requests:          23657
Average queue length:    11866.290780
Maximum queue length:    23658
End queued requests:     23657
Queue time average: 	327.347364
Queue time std.dev.:	263.685639
Queue time maximum:	1913.845657
Queue time distribution
Avg # read requests:     0.000000
Max # read requests:     0
Avg # write requests:    11866.290780
Max # write requests:    23658
Physical access time average: 	0.000000
Physical access time std.dev.:	0.000000
Physical access time maximum:	0
Physical access time distribution
Number of batches:  0
Batch size average: 	0.000000
Batch size std.dev.:	0.000000
Batch size maximum:	0
Batch size distribution
Inter-arrival time average: 	3.358500
Inter-arrival time std.dev.:	3.818694
Inter-arrival time maximum:	39.146196
Inter-arrival time distribution
Read inter-arrival average: 	0.000000
Read inter-arrival std.dev.:	0.000000
Read inter-arrival maximum:	0
Read inter-arrival distribution
Write inter-arrival average: 	3.358500
Write inter-arrival std.dev.:	3.818694
Write inter-arrival maximum:	39.146196
Write inter-arrival distribution
Number of idle periods:  1
Idle period length average: 	0.000000
Idle period length std.dev.:	0.000000
Idle period length maximum:	0
Idle period length distribution
Request size average: 	14.386339
Request size std.dev.:	9.327555
Request size maximum:	116
Request size distribution
Read request size average: 	0.000000
Read request size std.dev.:	0.000000
Read request size maximum:	0
Read request size distribution
Write request size average: 	14.386339
Write request size std.dev.:	9.327555
Write request size maximum:	116
Write request size distribution
Instantaneous queue length average: 	11874.510200
Instantaneous queue length std.dev.:	6808.286134
Instantaneous queue length maximum:	23658
Instantaneous queue length distribution
Sub-optimal mapping penalty average: 	0.000000
Sub-optimal mapping penalty std.dev.:	0.000000
Sub-optimal mapping penalty maximum:	0
Sub-optimal mapping penalty distribution
