Total Requests handled:	10000
Requests per second:   	84.686088
Completely idle time:  	0.000000   	0.000000
Response time average: 	424.180966
Response time std.dev.:	214.517646
Response time maximum:	1528.174428
Response time distribution
Overlaps combined:     	0	0.000000
Read overlaps combined:	0	0.000000	0.000000
Critical Reads:      	     0  	0.000000
Critical Read Response time average: 	0.000000
Critical Read Response time std.dev.:	0.000000
Critical Read Response time maximum:	0
Critical Read Response time distribution
Non-Critical Reads:  	     0  	0.000000
Non-Critical Read Response time average: 	0.000000
Non-Critical Read Response time std.dev.:	0.000000
Non-Critical Read Response time maximum:	0
Non-Critical Read Response time distribution
Critical Writes:     	 10000  	0.299446
Critical Write Response time average: 	424.180966
Critical Write Response time std.dev.:	214.517646
Critical Write Response time maximum:	1528.174428
Critical Write Response time distribution
Non-Critical Writes: 	     0  	0.000000
Non-Critical Write Response time average: 	0.000000
Non-Critical Write Response time std.dev.:	0.000000
Non-Critical Write Response time maximum:	0
Non-Critical Write Response time distribution
Number of reads:         0  	0.000000
Number of writes:    33395  	1.000000
Sequential reads:        0  	0.000000  	0.000000
Sequential writes:       1  	0.000030  	0.000030
Base SPTF/SDF Different:      0 /      0 	0.000000
Timeout SPTF/SDF Different:      0 /      0 	0.000000
Priority SPTF/SDF Different:      0 /      0 	0.000000
runlistlen:              1385589275.036308
runoutstanding:          0.000000
simtime:                 118083.150025
warmuptime:              0.000000
setsize:                 1
Average # requests:      11734.013487
Maximum # requests:      23396
End # requests:          23395
Average queue length:    11734.013487
Maximum queue length:    23396
End queued requests:     23395
Queue time average: 	424.180966
Queue time std.dev.:	214.517646
Queue time maximum:	1528.174428
Queue time distribution
Avg # read requests:     0.000000
Max # read requests:     0
Avg # write requests:    11734.013487
Max # write requests:    23396
Physical access time average: 	0.000000
Physical access time std.dev.:	0.000000
Physical access time maximum:	0
Physical access time distribution
Number of batches:  0
Batch size average: 	0.000000
Batch size std.dev.:	0.000000
Batch size maximum:	0
Batch size distribution
Inter-arrival time average: 	3.535865
Inter-arrival time std.dev.:	3.867410
Inter-arrival time maximum:	37.515544
Inter-arrival time distribution
Read inter-arrival average: 	0.000000
Read inter-arrival std.dev.:	0.000000
Read inter-arrival maximum:	0
Read inter-arrival distribution
Write inter-arrival average: 	3.535865
Write inter-arrival std.dev.:	3.867410
Write inter-arrival maximum:	37.515544
Write inter-arrival distribution
Number of idle periods:  1
Idle period length average: 	0.000000
Idle period length std.dev.:	0.000000
Idle period length maximum:	0
Idle period length distribution
Request size average: 	14.752478
Request size std.dev.:	8.390092
Request size maximum:	116
Request size distribution
Read request size average: 	0.000000
Read request size std.dev.:	0.000000
Read request size maximum:	0
Read request size distribution
Write request size average: 	14.752478
Write request size std.dev.:	8.390092
Write request size maximum:	116
Write request size distribution
Instantaneous queue length average: 	11737.158400
Instantaneous queue length std.dev.:	6729.641418
Instantaneous queue length maximum:	23396
Instantaneous queue length distribution
Sub-optimal mapping penalty average: 	0.000000
Sub-optimal mapping penalty std.dev.:	0.000000
Sub-optimal mapping penalty maximum:	0
Sub-optimal mapping penalty distribution
