Total Requests handled:	10000
Requests per second:   	83.651496
Completely idle time:  	0.000000   	0.000000
Response time average: 	203.026608
Response time std.dev.:	97.504662
Response time maximum:	712.419604
Response time distribution
Overlaps combined:     	0	0.000000
Read overlaps combined:	0	0.000000	0.000000
Critical Reads:      	     0  	0.000000
Critical Read Response time average: 	0.000000
Critical Read Response time std.dev.:	0.000000
Critical Read Response time maximum:	0
Critical Read Response time distribution
Non-Critical Reads:  	     0  	0.000000
Non-Critical Read Response time average: 	0.000000
Non-Critical Read Response time std.dev.:	0.000000
Non-Critical Read Response time maximum:	0
Non-Critical Read Response time distribution
Critical Writes:     	 10000  	0.299913
Critical Write Response time average: 	203.026608
Critical Write Response time std.dev.:	97.504662
Critical Write Response time maximum:	712.419604
Critical Write Response time distribution
Non-Critical Writes: 	     0  	0.000000
Non-Critical Write Response time average: 	0.000000
Non-Critical Write Response time std.dev.:	0.000000
Non-Critical Write Response time maximum:	0
Non-Critical Write Response time distribution
Number of reads:         0  	0.000000
Number of writes:    33343  	1.000000
Sequential reads:        0  	0.000000  	0.000000
Sequential writes:       1  	0.000030  	0.000030
Base SPTF/SDF Different:      0 /      0 	0.000000
Timeout SPTF/SDF Different:      0 /      0 	0.000000
Priority SPTF/SDF Different:      0 /      0 	0.000000
runlistlen:              1397778643.599969
runoutstanding:          0.000000
simtime:                 119543.587923
warmuptime:              0.000000
setsize:                 1
Average # requests:      11692.627500
Maximum # requests:      23344
End # requests:          23343
Average queue length:    11692.627500
Maximum queue length:    23344
End queued requests:     23343
Queue time average: 	203.026608
Queue time std.dev.:	97.504662
Queue time maximum:	712.419604
Queue time distribution
Avg # read requests:     0.000000
Max # read requests:     0
Avg # write requests:    11692.627500
Max # write requests:    23344
Physical access time average: 	0.000000
Physical access time std.dev.:	0.000000
Physical access time maximum:	0
Physical access time distribution
Number of batches:  0
Batch size average: 	0.000000
Batch size std.dev.:	0.000000
Batch size maximum:	0
Batch size distribution
Inter-arrival time average: 	3.585150
Inter-arrival time std.dev.:	3.885646
Inter-arrival time maximum:	39.426985
Inter-arrival time distribution
Read inter-arrival average: 	0.000000
Read inter-arrival std.dev.:	0.000000
Read inter-arrival maximum:	0
Read inter-arrival distribution
Write inter-arrival average: 	3.585150
Write inter-arrival std.dev.:	3.885646
Write inter-arrival maximum:	39.426985
Write inter-arrival distribution
Number of idle periods:  1
Idle period length average: 	0.000000
Idle period length std.dev.:	0.000000
Idle period length maximum:	0
Idle period length distribution
Request size average: 	14.751432
Request size std.dev.:	8.384000
Request size maximum:	116
Request size distribution
Read request size average: 	0.000000
Read request size std.dev.:	0.000000
Read request size maximum:	0
Read request size distribution
Write request size average: 	14.751432
Write request size std.dev.:	8.384000
Write request size maximum:	116
Write request size distribution
Instantaneous queue length average: 	11689.006300
Instantaneous queue length std.dev.:	6728.686833
Instantaneous queue length maximum:	23344
Instantaneous queue length distribution
Sub-optimal mapping penalty average: 	0.000000
Sub-optimal mapping penalty std.dev.:	0.000000
Sub-optimal mapping penalty maximum:	0
Sub-optimal mapping penalty distribution
