Total Requests handled:	10000
Requests per second:   	386.057244
Completely idle time:  	0.000000   	0.000000
Response time average: 	5.179749
Response time std.dev.:	3.506079
Response time maximum:	18.087309
Response time distribution
Overlaps combined:     	0	0.000000
Read overlaps combined:	0	0.000000	0.000000
Critical Reads:      	     0  	0.000000
Critical Read Response time average: 	0.000000
Critical Read Response time std.dev.:	0.000000
Critical Read Response time maximum:	0
Critical Read Response time distribution
Non-Critical Reads:  	     0  	0.000000
Non-Critical Read Response time average: 	0.000000
Non-Critical Read Response time std.dev.:	0.000000
Non-Critical Read Response time maximum:	0
Non-Critical Read Response time distribution
Critical Writes:     	 10000  	0.999900
Critical Write Response time average: 	5.179749
Critical Write Response time std.dev.:	3.506079
Critical Write Response time maximum:	18.087309
Critical Write Response time distribution
Non-Critical Writes: 	     0  	0.000000
Non-Critical Write Response time average: 	0.000000
Non-Critical Write Response time std.dev.:	0.000000
Non-Critical Write Response time maximum:	0
Non-Critical Write Response time distribution
Number of reads:         0  	0.000000
Number of writes:    10001  	1.000000
Sequential reads:        0  	0.000000  	0.000000
Sequential writes:       0  	0.000000  	0.000000
Base SPTF/SDF Different:      0 /      0 	0.000000
Timeout SPTF/SDF Different:      0 /      0 	0.000000
Priority SPTF/SDF Different:      0 /      0 	0.000000
runlistlen:              51805.788657
runoutstanding:          0.000000
simtime:                 25902.894329
warmuptime:              0.000000
setsize:                 1
Average # requests:      2.000000
Maximum # requests:      2
End # requests:          1
Average queue length:    2.000000
Maximum queue length:    2
End queued requests:     1
Queue time average: 	5.179749
Queue time std.dev.:	3.506079
Queue time maximum:	18.087309
Queue time distribution
Avg # read requests:     0.000000
Max # read requests:     0
Avg # write requests:    2.000000
Max # write requests:    2
Physical access time average: 	0.000000
Physical access time std.dev.:	0.000000
Physical access time maximum:	0
Physical access time distribution
Number of batches:  0
Batch size average: 	0.000000
Batch size std.dev.:	0.000000
Batch size maximum:	0
Batch size distribution
Inter-arrival time average: 	2.589607
Inter-arrival time std.dev.:	1.728435
Inter-arrival time maximum:	12.211410
Inter-arrival time distribution
Read inter-arrival average: 	0.000000
Read inter-arrival std.dev.:	0.000000
Read inter-arrival maximum:	0
Read inter-arrival distribution
Write inter-arrival average: 	2.589607
Write inter-arrival std.dev.:	1.728435
Write inter-arrival maximum:	12.211410
Write inter-arrival distribution
Number of idle periods:  1
Idle period length average: 	0.000000
Idle period length std.dev.:	0.000000
Idle period length maximum:	0
Idle period length distribution
Request size average: 	15.586241
Request size std.dev.:	8.192831
Request size maximum:	116
Request size distribution
Read request size average: 	0.000000
Read request size std.dev.:	0.000000
Read request size maximum:	0
Read request size distribution
Write request size average: 	15.586241
Write request size std.dev.:	8.192831
Write request size maximum:	116
Write request size distribution
Instantaneous queue length average: 	2.000000
Instantaneous queue length std.dev.:	0.000000
Instantaneous queue length maximum:	2
Instantaneous queue length distribution
Sub-optimal mapping penalty average: 	0.000000
Sub-optimal mapping penalty std.dev.:	0.000000
Sub-optimal mapping penalty maximum:	0
Sub-optimal mapping penalty distribution
