Total Requests handled:	10000
Requests per second:   	542.256997
Completely idle time:  	0.000000   	0.000000
Response time average: 	44.179671
Response time std.dev.:	41.020985
Response time maximum:	319.204825
Response time distribution
Overlaps combined:     	0	0.000000
Read overlaps combined:	0	0.000000	0.000000
Critical Reads:      	     0  	0.000000
Critical Read Response time average: 	0.000000
Critical Read Response time std.dev.:	0.000000
Critical Read Response time maximum:	0
Critical Read Response time distribution
Non-Critical Reads:  	     0  	0.000000
Non-Critical Read Response time average: 	0.000000
Non-Critical Read Response time std.dev.:	0.000000
Non-Critical Read Response time maximum:	0
Non-Critical Read Response time distribution
Critical Writes:     	 10000  	0.997705
Critical Write Response time average: 	44.179671
Critical Write Response time std.dev.:	41.020985
Critical Write Response time maximum:	319.204825
Critical Write Response time distribution
Non-Critical Writes: 	     0  	0.000000
Non-Critical Write Response time average: 	0.000000
Non-Critical Write Response time std.dev.:	0.000000
Non-Critical Write Response time maximum:	0
Non-Critical Write Response time distribution
Number of reads:         0  	0.000000
Number of writes:    10023  	1.000000
Sequential reads:        0  	0.000000  	0.000000
Sequential writes:       0  	0.000000  	0.000000
Base SPTF/SDF Different:      0 /      0 	0.000000
Timeout SPTF/SDF Different:      0 /      0 	0.000000
Priority SPTF/SDF Different:      0 /      0 	0.000000
runlistlen:              442594.565203
runoutstanding:          0.000000
simtime:                 18441.440217
warmuptime:              0.000000
setsize:                 1
Average # requests:      24.000000
Maximum # requests:      24
End # requests:          23
Average queue length:    24.000000
Maximum queue length:    24
End queued requests:     23
Queue time average: 	44.179671
Queue time std.dev.:	41.020985
Queue time maximum:	319.204825
Queue time distribution
Avg # read requests:     0.000000
Max # read requests:     0
Avg # write requests:    24.000000
Max # write requests:    24
Physical access time average: 	0.000000
Physical access time std.dev.:	0.000000
Physical access time maximum:	0
Physical access time distribution
Number of batches:  0
Batch size average: 	0.000000
Batch size std.dev.:	0.000000
Batch size maximum:	0
Batch size distribution
Inter-arrival time average: 	1.839686
Inter-arrival time std.dev.:	1.106338
Inter-arrival time maximum:	11.916000
Inter-arrival time distribution
Read inter-arrival average: 	0.000000
Read inter-arrival std.dev.:	0.000000
Read inter-arrival maximum:	0
Read inter-arrival distribution
Write inter-arrival average: 	1.839686
Write inter-arrival std.dev.:	1.106338
Write inter-arrival maximum:	11.916000
Write inter-arrival distribution
Number of idle periods:  1
Idle period length average: 	0.000000
Idle period length std.dev.:	0.000000
Idle period length maximum:	0
Idle period length distribution
Request size average: 	15.583458
Request size std.dev.:	8.187613
Request size maximum:	116
Request size distribution
Read request size average: 	0.000000
Read request size std.dev.:	0.000000
Read request size maximum:	0
Read request size distribution
Write request size average: 	15.583458
Write request size std.dev.:	8.187613
Write request size maximum:	116
Write request size distribution
Instantaneous queue length average: 	24.000000
Instantaneous queue length std.dev.:	0.000000
Instantaneous queue length maximum:	24
Instantaneous queue length distribution
Sub-optimal mapping penalty average: 	0.000000
Sub-optimal mapping penalty std.dev.:	0.000000
Sub-optimal mapping penalty maximum:	0
Sub-optimal mapping penalty distribution
