Total Requests handled:	10000
Requests per second:   	548.479755
Completely idle time:  	0.000000   	0.000000
Response time average: 	69.082973
Response time std.dev.:	66.390140
Response time maximum:	473.539859
Response time distribution
Overlaps combined:     	0	0.000000
Read overlaps combined:	0	0.000000	0.000000
Critical Reads:      	     0  	0.000000
Critical Read Response time average: 	0.000000
Critical Read Response time std.dev.:	0.000000
Critical Read Response time maximum:	0
Critical Read Response time distribution
Non-Critical Reads:  	     0  	0.000000
Non-Critical Read Response time average: 	0.000000
Non-Critical Read Response time std.dev.:	0.000000
Non-Critical Read Response time maximum:	0
Non-Critical Read Response time distribution
Critical Writes:     	 10000  	0.996314
Critical Write Response time average: 	69.082973
Critical Write Response time std.dev.:	66.390140
Critical Write Response time maximum:	473.539859
Critical Write Response time distribution
Non-Critical Writes: 	     0  	0.000000
Non-Critical Write Response time average: 	0.000000
Non-Critical Write Response time std.dev.:	0.000000
Non-Critical Write Response time maximum:	0
Non-Critical Write Response time distribution
Number of reads:         0  	0.000000
Number of writes:    10037  	1.000000
Sequential reads:        0  	0.000000  	0.000000
Sequential writes:       0  	0.000000  	0.000000
Base SPTF/SDF Different:      0 /      0 	0.000000
Timeout SPTF/SDF Different:      0 /      0 	0.000000
Priority SPTF/SDF Different:      0 /      0 	0.000000
runlistlen:              692824.112817
runoutstanding:          0.000000
simtime:                 18232.213495
warmuptime:              0.000000
setsize:                 1
Average # requests:      38.000000
Maximum # requests:      38
End # requests:          37
Average queue length:    38.000000
Maximum queue length:    38
End queued requests:     37
Queue time average: 	69.082973
Queue time std.dev.:	66.390140
Queue time maximum:	473.539859
Queue time distribution
Avg # read requests:     0.000000
Max # read requests:     0
Avg # write requests:    38.000000
Max # write requests:    38
Physical access time average: 	0.000000
Physical access time std.dev.:	0.000000
Physical access time maximum:	0
Physical access time distribution
Number of batches:  0
Batch size average: 	0.000000
Batch size std.dev.:	0.000000
Batch size maximum:	0
Batch size distribution
Inter-arrival time average: 	1.816244
Inter-arrival time std.dev.:	1.090099
Inter-arrival time maximum:	11.718000
Inter-arrival time distribution
Read inter-arrival average: 	0.000000
Read inter-arrival std.dev.:	0.000000
Read inter-arrival maximum:	0
Read inter-arrival distribution
Write inter-arrival average: 	1.816244
Write inter-arrival std.dev.:	1.090099
Write inter-arrival maximum:	11.718000
Write inter-arrival distribution
Number of idle periods:  1
Idle period length average: 	0.000000
Idle period length std.dev.:	0.000000
Idle period length maximum:	0
Idle period length distribution
Request size average: 	15.584936
Request size std.dev.:	8.195156
Request size maximum:	116
Request size distribution
Read request size average: 	0.000000
Read request size std.dev.:	0.000000
Read request size maximum:	0
Read request size distribution
Write request size average: 	15.584936
Write request size std.dev.:	8.195156
Write request size maximum:	116
Write request size distribution
Instantaneous queue length average: 	38.000000
Instantaneous queue length std.dev.:	0.000000
Instantaneous queue length maximum:	38
Instantaneous queue length distribution
Sub-optimal mapping penalty average: 	0.000000
Sub-optimal mapping penalty std.dev.:	0.000000
Sub-optimal mapping penalty maximum:	0
Sub-optimal mapping penalty distribution
