Total Requests handled:	10000
Requests per second:   	84.919536
Completely idle time:  	0.000000   	0.000000
Response time average: 	516.790896
Response time std.dev.:	255.872529
Response time maximum:	2030.532722
Response time distribution
Overlaps combined:     	0	0.000000
Read overlaps combined:	0	0.000000	0.000000
Critical Reads:      	     0  	0.000000
Critical Read Response time average: 	0.000000
Critical Read Response time std.dev.:	0.000000
Critical Read Response time maximum:	0
Critical Read Response time distribution
Non-Critical Reads:  	     0  	0.000000
Non-Critical Read Response time average: 	0.000000
Non-Critical Read Response time std.dev.:	0.000000
Non-Critical Read Response time maximum:	0
Non-Critical Read Response time distribution
Critical Writes:     	 10000  	0.299276
Critical Write Response time average: 	516.790896
Critical Write Response time std.dev.:	255.872529
Critical Write Response time maximum:	2030.532722
Critical Write Response time distribution
Non-Critical Writes: 	     0  	0.000000
Non-Critical Write Response time average: 	0.000000
Non-Critical Write Response time std.dev.:	0.000000
Non-Critical Write Response time maximum:	0
Non-Critical Write Response time distribution
Number of reads:         0  	0.000000
Number of writes:    33414  	1.000000
Sequential reads:        0  	0.000000  	0.000000
Sequential writes:       1  	0.000030  	0.000030
Base SPTF/SDF Different:      0 /      0 	0.000000
Timeout SPTF/SDF Different:      0 /      0 	0.000000
Priority SPTF/SDF Different:      0 /      0 	0.000000
runlistlen:              1383215557.392881
runoutstanding:          0.000000
simtime:                 117758.533309
warmuptime:              0.000000
setsize:                 1
Average # requests:      11746.202322
Maximum # requests:      23415
End # requests:          23414
Average queue length:    11746.202322
Maximum queue length:    23415
End queued requests:     23414
Queue time average: 	516.790896
Queue time std.dev.:	255.872529
Queue time maximum:	2030.532722
Queue time distribution
Avg # read requests:     0.000000
Max # read requests:     0
Avg # write requests:    11746.202322
Max # write requests:    23415
Physical access time average: 	0.000000
Physical access time std.dev.:	0.000000
Physical access time maximum:	0
Physical access time distribution
Number of batches:  0
Batch size average: 	0.000000
Batch size std.dev.:	0.000000
Batch size maximum:	0
Batch size distribution
Inter-arrival time average: 	3.524128
Inter-arrival time std.dev.:	3.886696
Inter-arrival time maximum:	43.161000
Inter-arrival time distribution
Read inter-arrival average: 	0.000000
Read inter-arrival std.dev.:	0.000000
Read inter-arrival maximum:	0
Read inter-arrival distribution
Write inter-arrival average: 	3.524128
Write inter-arrival std.dev.:	3.886696
Write inter-arrival maximum:	43.161000
Write inter-arrival distribution
Number of idle periods:  1
Idle period length average: 	0.000000
Idle period length std.dev.:	0.000000
Idle period length maximum:	0
Idle period length distribution
Request size average: 	14.749027
Request size std.dev.:	8.385225
Request size maximum:	116
Request size distribution
Read request size average: 	0.000000
Read request size std.dev.:	0.000000
Read request size maximum:	0
Read request size distribution
Write request size average: 	14.749027
Write request size std.dev.:	8.385225
Write request size maximum:	116
Write request size distribution
Instantaneous queue length average: 	11754.299600
Instantaneous queue length std.dev.:	6729.811274
Instantaneous queue length maximum:	23415
Instantaneous queue length distribution
Sub-optimal mapping penalty average: 	0.000000
Sub-optimal mapping penalty std.dev.:	0.000000
Sub-optimal mapping penalty maximum:	0
Sub-optimal mapping penalty distribution
