Total Requests handled:	10000
Requests per second:   	84.710100
Completely idle time:  	0.000000   	0.000000
Response time average: 	459.266583
Response time std.dev.:	226.668990
Response time maximum:	1650.301883
Response time distribution
Overlaps combined:     	0	0.000000
Read overlaps combined:	0	0.000000	0.000000
Critical Reads:      	     0  	0.000000
Critical Read Response time average: 	0.000000
Critical Read Response time std.dev.:	0.000000
Critical Read Response time maximum:	0
Critical Read Response time distribution
Non-Critical Reads:  	     0  	0.000000
Non-Critical Read Response time average: 	0.000000
Non-Critical Read Response time std.dev.:	0.000000
Non-Critical Read Response time maximum:	0
Non-Critical Read Response time distribution
Critical Writes:     	 10000  	0.299437
Critical Write Response time average: 	459.266583
Critical Write Response time std.dev.:	226.668990
Critical Write Response time maximum:	1650.301883
Critical Write Response time distribution
Non-Critical Writes: 	     0  	0.000000
Non-Critical Write Response time average: 	0.000000
Non-Critical Write Response time std.dev.:	0.000000
Non-Critical Write Response time maximum:	0
Non-Critical Write Response time distribution
Number of reads:         0  	0.000000
Number of writes:    33396  	1.000000
Sequential reads:        0  	0.000000  	0.000000
Sequential writes:       0  	0.000000  	0.000000
Base SPTF/SDF Different:      0 /      0 	0.000000
Timeout SPTF/SDF Different:      0 /      0 	0.000000
Priority SPTF/SDF Different:      0 /      0 	0.000000
runlistlen:              1384662012.639823
runoutstanding:          0.000000
simtime:                 118049.677581
warmuptime:              0.000000
setsize:                 1
Average # requests:      11729.485764
Maximum # requests:      23397
End # requests:          23396
Average queue length:    11729.485764
Maximum queue length:    23397
End queued requests:     23396
Queue time average: 	459.266583
Queue time std.dev.:	226.668990
Queue time maximum:	1650.301883
Queue time distribution
Avg # read requests:     0.000000
Max # read requests:     0
Avg # write requests:    11729.485764
Max # write requests:    23397
Physical access time average: 	0.000000
Physical access time std.dev.:	0.000000
Physical access time maximum:	0
Physical access time distribution
Number of batches:  0
Batch size average: 	0.000000
Batch size std.dev.:	0.000000
Batch size maximum:	0
Batch size distribution
Inter-arrival time average: 	3.534682
Inter-arrival time std.dev.:	3.863188
Inter-arrival time maximum:	40.385454
Inter-arrival time distribution
Read inter-arrival average: 	0.000000
Read inter-arrival std.dev.:	0.000000
Read inter-arrival maximum:	0
Read inter-arrival distribution
Write inter-arrival average: 	3.534682
Write inter-arrival std.dev.:	3.863188
Write inter-arrival maximum:	40.385454
Write inter-arrival distribution
Number of idle periods:  1
Idle period length average: 	0.000000
Idle period length std.dev.:	0.000000
Idle period length maximum:	0
Idle period length distribution
Request size average: 	14.752455
Request size std.dev.:	8.389097
Request size maximum:	116
Request size distribution
Read request size average: 	0.000000
Read request size std.dev.:	0.000000
Read request size maximum:	0
Read request size distribution
Write request size average: 	14.752455
Write request size std.dev.:	8.389097
Write request size maximum:	116
Write request size distribution
Instantaneous queue length average: 	11742.558400
Instantaneous queue length std.dev.:	6729.264605
Instantaneous queue length maximum:	23397
Instantaneous queue length distribution
Sub-optimal mapping penalty average: 	0.000000
Sub-optimal mapping penalty std.dev.:	0.000000
Sub-optimal mapping penalty maximum:	0
Sub-optimal mapping penalty distribution
