Total Requests handled:	10000
Requests per second:   	84.016529
Completely idle time:  	0.000000   	0.000000
Response time average: 	261.461054
Response time std.dev.:	154.547777
Response time maximum:	1330.439315
Response time distribution
Overlaps combined:     	0	0.000000
Read overlaps combined:	0	0.000000	0.000000
Critical Reads:      	     0  	0.000000
Critical Read Response time average: 	0.000000
Critical Read Response time std.dev.:	0.000000
Critical Read Response time maximum:	0
Critical Read Response time distribution
Non-Critical Reads:  	     0  	0.000000
Non-Critical Read Response time average: 	0.000000
Non-Critical Read Response time std.dev.:	0.000000
Non-Critical Read Response time maximum:	0
Non-Critical Read Response time distribution
Critical Writes:     	 10000  	0.293772
Critical Write Response time average: 	261.461054
Critical Write Response time std.dev.:	154.547777
Critical Write Response time maximum:	1330.439315
Critical Write Response time distribution
Non-Critical Writes: 	     0  	0.000000
Non-Critical Write Response time average: 	0.000000
Non-Critical Write Response time std.dev.:	0.000000
Non-Critical Write Response time maximum:	0
Non-Critical Write Response time distribution
Number of reads:         0  	0.000000
Number of writes:    34040  	1.000000
Sequential reads:        0  	0.000000  	0.000000
Sequential writes:       0  	0.000000  	0.000000
Base SPTF/SDF Different:      0 /      0 	0.000000
Timeout SPTF/SDF Different:      0 /      0 	0.000000
Priority SPTF/SDF Different:      0 /      0 	0.000000
runlistlen:              1431431371.656867
runoutstanding:          0.000000
simtime:                 119024.198124
warmuptime:              0.000000
setsize:                 1
Average # requests:      12026.389543
Maximum # requests:      24041
End # requests:          24040
Average queue length:    12026.389543
Maximum queue length:    24041
End queued requests:     24040
Queue time average: 	261.461054
Queue time std.dev.:	154.547777
Queue time maximum:	1330.439315
Queue time distribution
Avg # read requests:     0.000000
Max # read requests:     0
Avg # write requests:    12026.389543
Max # write requests:    24041
Physical access time average: 	0.000000
Physical access time std.dev.:	0.000000
Physical access time maximum:	0
Physical access time distribution
Number of batches:  0
Batch size average: 	0.000000
Batch size std.dev.:	0.000000
Batch size maximum:	0
Batch size distribution
Inter-arrival time average: 	3.496540
Inter-arrival time std.dev.:	4.124752
Inter-arrival time maximum:	39.867000
Inter-arrival time distribution
Read inter-arrival average: 	0.000000
Read inter-arrival std.dev.:	0.000000
Read inter-arrival maximum:	0
Read inter-arrival distribution
Write inter-arrival average: 	3.496540
Write inter-arrival std.dev.:	4.124752
Write inter-arrival maximum:	39.867000
Write inter-arrival distribution
Number of idle periods:  1
Idle period length average: 	0.000000
Idle period length std.dev.:	0.000000
Idle period length maximum:	0
Idle period length distribution
Request size average: 	14.073707
Request size std.dev.:	8.688259
Request size maximum:	116
Request size distribution
Read request size average: 	0.000000
Read request size std.dev.:	0.000000
Read request size maximum:	0
Read request size distribution
Write request size average: 	14.073707
Write request size std.dev.:	8.688259
Write request size maximum:	116
Write request size distribution
Instantaneous queue length average: 	12044.452100
Instantaneous queue length std.dev.:	6919.189952
Instantaneous queue length maximum:	24041
Instantaneous queue length distribution
Sub-optimal mapping penalty average: 	0.000000
Sub-optimal mapping penalty std.dev.:	0.000000
Sub-optimal mapping penalty maximum:	0
Sub-optimal mapping penalty distribution
