Total Requests handled:	10000
Requests per second:   	84.029433
Completely idle time:  	0.000000   	0.000000
Response time average: 	439.267773
Response time std.dev.:	269.071101
Response time maximum:	2099.334073
Response time distribution
Overlaps combined:     	0	0.000000
Read overlaps combined:	0	0.000000	0.000000
Critical Reads:      	     0  	0.000000
Critical Read Response time average: 	0.000000
Critical Read Response time std.dev.:	0.000000
Critical Read Response time maximum:	0
Critical Read Response time distribution
Non-Critical Reads:  	     0  	0.000000
Non-Critical Read Response time average: 	0.000000
Non-Critical Read Response time std.dev.:	0.000000
Non-Critical Read Response time maximum:	0
Non-Critical Read Response time distribution
Critical Writes:     	 10000  	0.293444
Critical Write Response time average: 	439.267773
Critical Write Response time std.dev.:	269.071101
Critical Write Response time maximum:	2099.334073
Critical Write Response time distribution
Non-Critical Writes: 	     0  	0.000000
Non-Critical Write Response time average: 	0.000000
Non-Critical Write Response time std.dev.:	0.000000
Non-Critical Write Response time maximum:	0
Non-Critical Write Response time distribution
Number of reads:         0  	0.000000
Number of writes:    34078  	1.000000
Sequential reads:        0  	0.000000  	0.000000
Sequential writes:       1  	0.000029  	0.000029
Base SPTF/SDF Different:      0 /      0 	0.000000
Timeout SPTF/SDF Different:      0 /      0 	0.000000
Priority SPTF/SDF Different:      0 /      0 	0.000000
runlistlen:              1434697074.024854
runoutstanding:          0.000000
simtime:                 119005.919532
warmuptime:              0.000000
setsize:                 1
Average # requests:      12055.678236
Maximum # requests:      24079
End # requests:          24078
Average queue length:    12055.678236
Maximum queue length:    24079
End queued requests:     24078
Queue time average: 	439.267773
Queue time std.dev.:	269.071101
Queue time maximum:	2099.334073
Queue time distribution
Avg # read requests:     0.000000
Max # read requests:     0
Avg # write requests:    12055.678236
Max # write requests:    24079
Physical access time average: 	0.000000
Physical access time std.dev.:	0.000000
Physical access time maximum:	0
Physical access time distribution
Number of batches:  0
Batch size average: 	0.000000
Batch size std.dev.:	0.000000
Batch size maximum:	0
Batch size distribution
Inter-arrival time average: 	3.492134
Inter-arrival time std.dev.:	4.147458
Inter-arrival time maximum:	40.071000
Inter-arrival time distribution
Read inter-arrival average: 	0.000000
Read inter-arrival std.dev.:	0.000000
Read inter-arrival maximum:	0
Read inter-arrival distribution
Write inter-arrival average: 	3.492134
Write inter-arrival std.dev.:	4.147458
Write inter-arrival maximum:	40.071000
Write inter-arrival distribution
Number of idle periods:  1
Idle period length average: 	0.000000
Idle period length std.dev.:	0.000000
Idle period length maximum:	0
Idle period length distribution
Request size average: 	14.073126
Request size std.dev.:	8.691793
Request size maximum:	116
Request size distribution
Read request size average: 	0.000000
Read request size std.dev.:	0.000000
Read request size maximum:	0
Read request size distribution
Write request size average: 	14.073126
Write request size std.dev.:	8.691793
Write request size maximum:	116
Write request size distribution
Instantaneous queue length average: 	12083.916800
Instantaneous queue length std.dev.:	6919.084750
Instantaneous queue length maximum:	24079
Instantaneous queue length distribution
Sub-optimal mapping penalty average: 	0.000000
Sub-optimal mapping penalty std.dev.:	0.000000
Sub-optimal mapping penalty maximum:	0
Sub-optimal mapping penalty distribution
