Total Requests handled:	10000
Requests per second:   	86.648479
Completely idle time:  	0.000000   	0.000000
Response time average: 	242.077380
Response time std.dev.:	167.457045
Response time maximum:	993.781589
Response time distribution
Overlaps combined:     	0	0.000000
Read overlaps combined:	0	0.000000	0.000000
Critical Reads:      	     0  	0.000000
Critical Read Response time average: 	0.000000
Critical Read Response time std.dev.:	0.000000
Critical Read Response time maximum:	0
Critical Read Response time distribution
Non-Critical Reads:  	     0  	0.000000
Non-Critical Read Response time average: 	0.000000
Non-Critical Read Response time std.dev.:	0.000000
Non-Critical Read Response time maximum:	0
Non-Critical Read Response time distribution
Critical Writes:     	 10000  	0.306091
Critical Write Response time average: 	242.077380
Critical Write Response time std.dev.:	167.457045
Critical Write Response time maximum:	993.781589
Critical Write Response time distribution
Non-Critical Writes: 	     0  	0.000000
Non-Critical Write Response time average: 	0.000000
Non-Critical Write Response time std.dev.:	0.000000
Non-Critical Write Response time maximum:	0
Non-Critical Write Response time distribution
Number of reads:         0  	0.000000
Number of writes:    32670  	1.000000
Sequential reads:        0  	0.000000  	0.000000
Sequential writes:       1  	0.000031  	0.000031
Base SPTF/SDF Different:      0 /      0 	0.000000
Timeout SPTF/SDF Different:      0 /      0 	0.000000
Priority SPTF/SDF Different:      0 /      0 	0.000000
runlistlen:              1308686398.155560
runoutstanding:          0.000000
simtime:                 115408.835102
warmuptime:              0.000000
setsize:                 1
Average # requests:      11339.568561
Maximum # requests:      22671
End # requests:          22670
Average queue length:    11339.568561
Maximum queue length:    22671
End queued requests:     22670
Queue time average: 	242.077380
Queue time std.dev.:	167.457045
Queue time maximum:	993.781589
Queue time distribution
Avg # read requests:     0.000000
Max # read requests:     0
Avg # write requests:    11339.568561
Max # write requests:    22671
Physical access time average: 	0.000000
Physical access time std.dev.:	0.000000
Physical access time maximum:	0
Physical access time distribution
Number of batches:  0
Batch size average: 	0.000000
Batch size std.dev.:	0.000000
Batch size maximum:	0
Batch size distribution
Inter-arrival time average: 	3.532536
Inter-arrival time std.dev.:	3.457880
Inter-arrival time maximum:	28.477097
Inter-arrival time distribution
Read inter-arrival average: 	0.000000
Read inter-arrival std.dev.:	0.000000
Read inter-arrival maximum:	0
Read inter-arrival distribution
Write inter-arrival average: 	3.532536
Write inter-arrival std.dev.:	3.457880
Write inter-arrival maximum:	28.477097
Write inter-arrival distribution
Number of idle periods:  1
Idle period length average: 	0.000000
Idle period length std.dev.:	0.000000
Idle period length maximum:	0
Idle period length distribution
Request size average: 	15.061953
Request size std.dev.:	9.181052
Request size maximum:	116
Request size distribution
Read request size average: 	0.000000
Read request size std.dev.:	0.000000
Read request size maximum:	0
Read request size distribution
Write request size average: 	15.061953
Write request size std.dev.:	9.181052
Write request size maximum:	116
Write request size distribution
Instantaneous queue length average: 	11355.019600
Instantaneous queue length std.dev.:	6533.547694
Instantaneous queue length maximum:	22671
Instantaneous queue length distribution
Sub-optimal mapping penalty average: 	0.000000
Sub-optimal mapping penalty std.dev.:	0.000000
Sub-optimal mapping penalty maximum:	0
Sub-optimal mapping penalty distribution
