Total Requests handled:	10000
Requests per second:   	85.624965
Completely idle time:  	0.000000   	0.000000
Response time average: 	128.423822
Response time std.dev.:	78.340097
Response time maximum:	564.868596
Response time distribution
Overlaps combined:     	0	0.000000
Read overlaps combined:	0	0.000000	0.000000
Critical Reads:      	     0  	0.000000
Critical Read Response time average: 	0.000000
Critical Read Response time std.dev.:	0.000000
Critical Read Response time maximum:	0
Critical Read Response time distribution
Non-Critical Reads:  	     0  	0.000000
Non-Critical Read Response time average: 	0.000000
Non-Critical Read Response time std.dev.:	0.000000
Non-Critical Read Response time maximum:	0
Non-Critical Read Response time distribution
Critical Writes:     	 10000  	0.306363
Critical Write Response time average: 	128.423822
Critical Write Response time std.dev.:	78.340097
Critical Write Response time maximum:	564.868596
Critical Write Response time distribution
Non-Critical Writes: 	     0  	0.000000
Non-Critical Write Response time average: 	0.000000
Non-Critical Write Response time std.dev.:	0.000000
Non-Critical Write Response time maximum:	0
Non-Critical Write Response time distribution
Number of reads:         0  	0.000000
Number of writes:    32641  	1.000000
Sequential reads:        0  	0.000000  	0.000000
Sequential writes:       2  	0.000061  	0.000061
Base SPTF/SDF Different:      0 /      0 	0.000000
Timeout SPTF/SDF Different:      0 /      0 	0.000000
Priority SPTF/SDF Different:      0 /      0 	0.000000
runlistlen:              1323176069.835036
runoutstanding:          0.000000
simtime:                 116788.369153
warmuptime:              0.000000
setsize:                 1
Average # requests:      11329.690443
Maximum # requests:      22642
End # requests:          22641
Average queue length:    11329.690443
Maximum queue length:    22642
End queued requests:     22641
Queue time average: 	128.423822
Queue time std.dev.:	78.340097
Queue time maximum:	564.868596
Queue time distribution
Avg # read requests:     0.000000
Max # read requests:     0
Avg # write requests:    11329.690443
Max # write requests:    22642
Physical access time average: 	0.000000
Physical access time std.dev.:	0.000000
Physical access time maximum:	0
Physical access time distribution
Number of batches:  0
Batch size average: 	0.000000
Batch size std.dev.:	0.000000
Batch size maximum:	0
Batch size distribution
Inter-arrival time average: 	3.577755
Inter-arrival time std.dev.:	3.523625
Inter-arrival time maximum:	35.355156
Inter-arrival time distribution
Read inter-arrival average: 	0.000000
Read inter-arrival std.dev.:	0.000000
Read inter-arrival maximum:	0
Read inter-arrival distribution
Write inter-arrival average: 	3.577755
Write inter-arrival std.dev.:	3.523625
Write inter-arrival maximum:	35.355156
Write inter-arrival distribution
Number of idle periods:  1
Idle period length average: 	0.000000
Idle period length std.dev.:	0.000000
Idle period length maximum:	0
Idle period length distribution
Request size average: 	15.061732
Request size std.dev.:	9.179745
Request size maximum:	116
Request size distribution
Read request size average: 	0.000000
Read request size std.dev.:	0.000000
Read request size maximum:	0
Read request size distribution
Write request size average: 	15.061732
Write request size std.dev.:	9.179745
Write request size maximum:	116
Write request size distribution
Instantaneous queue length average: 	11331.166800
Instantaneous queue length std.dev.:	6533.480242
Instantaneous queue length maximum:	22642
Instantaneous queue length distribution
Sub-optimal mapping penalty average: 	0.000000
Sub-optimal mapping penalty std.dev.:	0.000000
Sub-optimal mapping penalty maximum:	0
Sub-optimal mapping penalty distribution
