Total Requests handled:	10000
Requests per second:   	129.403512
Completely idle time:  	0.000000   	0.000000
Response time average: 	192.811941
Response time std.dev.:	129.177882
Response time maximum:	1048.495312
Response time distribution
Overlaps combined:     	0	0.000000
Read overlaps combined:	0	0.000000	0.000000
Critical Reads:      	     0  	0.000000
Critical Read Response time average: 	0.000000
Critical Read Response time std.dev.:	0.000000
Critical Read Response time maximum:	0
Critical Read Response time distribution
Non-Critical Reads:  	     0  	0.000000
Non-Critical Read Response time average: 	0.000000
Non-Critical Read Response time std.dev.:	0.000000
Non-Critical Read Response time maximum:	0
Non-Critical Read Response time distribution
Critical Writes:     	 10000  	0.301468
Critical Write Response time average: 	192.811941
Critical Write Response time std.dev.:	129.177882
Critical Write Response time maximum:	1048.495312
Critical Write Response time distribution
Non-Critical Writes: 	     0  	0.000000
Non-Critical Write Response time average: 	0.000000
Non-Critical Write Response time std.dev.:	0.000000
Non-Critical Write Response time maximum:	0
Non-Critical Write Response time distribution
Number of reads:         0  	0.000000
Number of writes:    33171  	1.000000
Sequential reads:        0  	0.000000  	0.000000
Sequential writes:       0  	0.000000  	0.000000
Base SPTF/SDF Different:      0 /      0 	0.000000
Timeout SPTF/SDF Different:      0 /      0 	0.000000
Priority SPTF/SDF Different:      0 /      0 	0.000000
runlistlen:              896504411.322952
runoutstanding:          0.000000
simtime:                 77277.655565
warmuptime:              0.000000
setsize:                 1
Average # requests:      11601.081901
Maximum # requests:      23172
End # requests:          23171
Average queue length:    11601.081901
Maximum queue length:    23172
End queued requests:     23171
Queue time average: 	192.811941
Queue time std.dev.:	129.177882
Queue time maximum:	1048.495312
Queue time distribution
Avg # read requests:     0.000000
Max # read requests:     0
Avg # write requests:    11601.081901
Max # write requests:    23172
Physical access time average: 	0.000000
Physical access time std.dev.:	0.000000
Physical access time maximum:	0
Physical access time distribution
Number of batches:  0
Batch size average: 	0.000000
Batch size std.dev.:	0.000000
Batch size maximum:	0
Batch size distribution
Inter-arrival time average: 	2.329630
Inter-arrival time std.dev.:	2.357907
Inter-arrival time maximum:	22.824771
Inter-arrival time distribution
Read inter-arrival average: 	0.000000
Read inter-arrival std.dev.:	0.000000
Read inter-arrival maximum:	0
Read inter-arrival distribution
Write inter-arrival average: 	2.329630
Write inter-arrival std.dev.:	2.357907
Write inter-arrival maximum:	22.824771
Write inter-arrival distribution
Number of idle periods:  1
Idle period length average: 	0.000000
Idle period length std.dev.:	0.000000
Idle period length maximum:	0
Idle period length distribution
Request size average: 	14.280034
Request size std.dev.:	8.880982
Request size maximum:	116
Request size distribution
Read request size average: 	0.000000
Read request size std.dev.:	0.000000
Read request size maximum:	0
Read request size distribution
Write request size average: 	14.280034
Write request size std.dev.:	8.880982
Write request size maximum:	116
Write request size distribution
Instantaneous queue length average: 	11614.122900
Instantaneous queue length std.dev.:	6670.576347
Instantaneous queue length maximum:	23172
Instantaneous queue length distribution
Sub-optimal mapping penalty average: 	0.000000
Sub-optimal mapping penalty std.dev.:	0.000000
Sub-optimal mapping penalty maximum:	0
Sub-optimal mapping penalty distribution
