Total Requests handled:	10000
Requests per second:   	127.688305
Completely idle time:  	0.000000   	0.000000
Response time average: 	140.805381
Response time std.dev.:	90.165375
Response time maximum:	812.911280
Response time distribution
Overlaps combined:     	0	0.000000
Read overlaps combined:	0	0.000000	0.000000
Critical Reads:      	     0  	0.000000
Critical Read Response time average: 	0.000000
Critical Read Response time std.dev.:	0.000000
Critical Read Response time maximum:	0
Critical Read Response time distribution
Non-Critical Reads:  	     0  	0.000000
Non-Critical Read Response time average: 	0.000000
Non-Critical Read Response time std.dev.:	0.000000
Non-Critical Read Response time maximum:	0
Non-Critical Read Response time distribution
Critical Writes:     	 10000  	0.301632
Critical Write Response time average: 	140.805381
Critical Write Response time std.dev.:	90.165375
Critical Write Response time maximum:	812.911280
Critical Write Response time distribution
Non-Critical Writes: 	     0  	0.000000
Non-Critical Write Response time average: 	0.000000
Non-Critical Write Response time std.dev.:	0.000000
Non-Critical Write Response time maximum:	0
Non-Critical Write Response time distribution
Number of reads:         0  	0.000000
Number of writes:    33153  	1.000000
Sequential reads:        0  	0.000000  	0.000000
Sequential writes:       0  	0.000000  	0.000000
Base SPTF/SDF Different:      0 /      0 	0.000000
Timeout SPTF/SDF Different:      0 /      0 	0.000000
Priority SPTF/SDF Different:      0 /      0 	0.000000
runlistlen:              907254822.362016
runoutstanding:          0.000000
simtime:                 78315.708019
warmuptime:              0.000000
setsize:                 1
Average # requests:      11584.583033
Maximum # requests:      23154
End # requests:          23153
Average queue length:    11584.583033
Maximum queue length:    23154
End queued requests:     23153
Queue time average: 	140.805381
Queue time std.dev.:	90.165375
Queue time maximum:	812.911280
Queue time distribution
Avg # read requests:     0.000000
Max # read requests:     0
Avg # write requests:    11584.583033
Max # write requests:    23154
Physical access time average: 	0.000000
Physical access time std.dev.:	0.000000
Physical access time maximum:	0
Physical access time distribution
Number of batches:  0
Batch size average: 	0.000000
Batch size std.dev.:	0.000000
Batch size maximum:	0
Batch size distribution
Inter-arrival time average: 	2.362171
Inter-arrival time std.dev.:	2.354742
Inter-arrival time maximum:	19.404212
Inter-arrival time distribution
Read inter-arrival average: 	0.000000
Read inter-arrival std.dev.:	0.000000
Read inter-arrival maximum:	0
Read inter-arrival distribution
Write inter-arrival average: 	2.362171
Write inter-arrival std.dev.:	2.354742
Write inter-arrival maximum:	19.404212
Write inter-arrival distribution
Number of idle periods:  1
Idle period length average: 	0.000000
Idle period length std.dev.:	0.000000
Idle period length maximum:	0
Idle period length distribution
Request size average: 	14.276717
Request size std.dev.:	8.876089
Request size maximum:	116
Request size distribution
Read request size average: 	0.000000
Read request size std.dev.:	0.000000
Read request size maximum:	0
Read request size distribution
Write request size average: 	14.276717
Write request size std.dev.:	8.876089
Write request size maximum:	116
Write request size distribution
Instantaneous queue length average: 	11599.489100
Instantaneous queue length std.dev.:	6670.505753
Instantaneous queue length maximum:	23154
Instantaneous queue length distribution
Sub-optimal mapping penalty average: 	0.000000
Sub-optimal mapping penalty std.dev.:	0.000000
Sub-optimal mapping penalty maximum:	0
Sub-optimal mapping penalty distribution
