Total Requests handled:	10000
Requests per second:   	124.229534
Completely idle time:  	0.000000   	0.000000
Response time average: 	88.498705
Response time std.dev.:	54.413285
Response time maximum:	469.997920
Response time distribution
Overlaps combined:     	0	0.000000
Read overlaps combined:	0	0.000000	0.000000
Critical Reads:      	     0  	0.000000
Critical Read Response time average: 	0.000000
Critical Read Response time std.dev.:	0.000000
Critical Read Response time maximum:	0
Critical Read Response time distribution
Non-Critical Reads:  	     0  	0.000000
Non-Critical Read Response time average: 	0.000000
Non-Critical Read Response time std.dev.:	0.000000
Non-Critical Read Response time maximum:	0
Non-Critical Read Response time distribution
Critical Writes:     	 10000  	0.301805
Critical Write Response time average: 	88.498705
Critical Write Response time std.dev.:	54.413285
Critical Write Response time maximum:	469.997920
Critical Write Response time distribution
Non-Critical Writes: 	     0  	0.000000
Non-Critical Write Response time average: 	0.000000
Non-Critical Write Response time std.dev.:	0.000000
Non-Critical Write Response time maximum:	0
Non-Critical Write Response time distribution
Number of reads:         0  	0.000000
Number of writes:    33134  	1.000000
Sequential reads:        0  	0.000000  	0.000000
Sequential writes:       1  	0.000030  	0.000030
Base SPTF/SDF Different:      0 /      0 	0.000000
Timeout SPTF/SDF Different:      0 /      0 	0.000000
Priority SPTF/SDF Different:      0 /      0 	0.000000
runlistlen:              930012837.485226
runoutstanding:          0.000000
simtime:                 80496.156225
warmuptime:              0.000000
setsize:                 1
Average # requests:      11553.506169
Maximum # requests:      23135
End # requests:          23134
Average queue length:    11553.506169
Maximum queue length:    23135
End queued requests:     23134
Queue time average: 	88.498705
Queue time std.dev.:	54.413285
Queue time maximum:	469.997920
Queue time distribution
Avg # read requests:     0.000000
Max # read requests:     0
Avg # write requests:    11553.506169
Max # write requests:    23135
Physical access time average: 	0.000000
Physical access time std.dev.:	0.000000
Physical access time maximum:	0
Physical access time distribution
Number of batches:  0
Batch size average: 	0.000000
Batch size std.dev.:	0.000000
Batch size maximum:	0
Batch size distribution
Inter-arrival time average: 	2.429303
Inter-arrival time std.dev.:	2.407200
Inter-arrival time maximum:	22.302115
Inter-arrival time distribution
Read inter-arrival average: 	0.000000
Read inter-arrival std.dev.:	0.000000
Read inter-arrival maximum:	0
Read inter-arrival distribution
Write inter-arrival average: 	2.429303
Write inter-arrival std.dev.:	2.407200
Write inter-arrival maximum:	22.302115
Write inter-arrival distribution
Number of idle periods:  1
Idle period length average: 	0.000000
Idle period length std.dev.:	0.000000
Idle period length maximum:	0
Idle period length distribution
Request size average: 	14.277389
Request size std.dev.:	8.877641
Request size maximum:	116
Request size distribution
Read request size average: 	0.000000
Read request size std.dev.:	0.000000
Read request size maximum:	0
Read request size distribution
Write request size average: 	14.277389
Write request size std.dev.:	8.877641
Write request size maximum:	116
Write request size distribution
Instantaneous queue length average: 	11583.623800
Instantaneous queue length std.dev.:	6670.648858
Instantaneous queue length maximum:	23135
Instantaneous queue length distribution
Sub-optimal mapping penalty average: 	0.000000
Sub-optimal mapping penalty std.dev.:	0.000000
Sub-optimal mapping penalty maximum:	0
Sub-optimal mapping penalty distribution
