por "Parity rotated čtení"
00000001 150.901313
00000002 244.970478
00000003 302.317676
00000004 335.492957
00000005 358.184635
00000006 374.863782
00000007 387.149443
00000008 397.101415
00000009 403.435306
00000010 409.188560
00000011 415.330729
00000012 419.079558
00000013 425.266928
00000014 426.166075
00000015 430.356074
00000016 430.668730
00000017 434.546358
00000018 436.637474
00000019 438.713949
00000020 437.880752
00000021 439.595289
00000022 440.941249
00000023 443.577020
00000024 445.469223
00000025 446.648576
00000026 446.357326
00000027 446.720207
00000028 448.055870
00000029 449.642917
00000030 452.695378
00000031 451.115633
00000032 452.373083
00000033 453.476794
00000034 453.618277
00000035 453.609735
00000036 454.670363
00000037 453.762785
00000038 452.437003
00000039 455.633223
00000040 457.702272
00000041 456.834097
00000042 458.533984
00000043 458.270890
00000044 459.200920
00000045 460.154744
00000046 459.132040
00000047 462.212563
00000048 461.372701
00000049 462.122071
00000050 461.911863
