Total Requests handled:	10000
Requests per second:   	86.324253
Completely idle time:  	0.000000   	0.000000
Response time average: 	185.157915
Response time std.dev.:	123.907853
Response time maximum:	788.173451
Response time distribution
Overlaps combined:     	0	0.000000
Read overlaps combined:	0	0.000000	0.000000
Critical Reads:      	     0  	0.000000
Critical Read Response time average: 	0.000000
Critical Read Response time std.dev.:	0.000000
Critical Read Response time maximum:	0
Critical Read Response time distribution
Non-Critical Reads:  	     0  	0.000000
Non-Critical Read Response time average: 	0.000000
Non-Critical Read Response time std.dev.:	0.000000
Non-Critical Read Response time maximum:	0
Non-Critical Read Response time distribution
Critical Writes:     	 10000  	0.306138
Critical Write Response time average: 	185.157915
Critical Write Response time std.dev.:	123.907853
Critical Write Response time maximum:	788.173451
Critical Write Response time distribution
Non-Critical Writes: 	     0  	0.000000
Non-Critical Write Response time average: 	0.000000
Non-Critical Write Response time std.dev.:	0.000000
Non-Critical Write Response time maximum:	0
Non-Critical Write Response time distribution
Number of reads:         0  	0.000000
Number of writes:    32665  	1.000000
Sequential reads:        0  	0.000000  	0.000000
Sequential writes:       1  	0.000031  	0.000031
Base SPTF/SDF Different:      0 /      0 	0.000000
Timeout SPTF/SDF Different:      0 /      0 	0.000000
Priority SPTF/SDF Different:      0 /      0 	0.000000
runlistlen:              1314379195.447641
runoutstanding:          0.000000
simtime:                 115842.299519
warmuptime:              0.000000
setsize:                 1
Average # requests:      11346.280253
Maximum # requests:      22666
End # requests:          22665
Average queue length:    11346.280253
Maximum queue length:    22666
End queued requests:     22665
Queue time average: 	185.157915
Queue time std.dev.:	123.907853
Queue time maximum:	788.173451
Queue time distribution
Avg # read requests:     0.000000
Max # read requests:     0
Avg # write requests:    11346.280253
Max # write requests:    22666
Physical access time average: 	0.000000
Physical access time std.dev.:	0.000000
Physical access time maximum:	0
Physical access time distribution
Number of batches:  0
Batch size average: 	0.000000
Batch size std.dev.:	0.000000
Batch size maximum:	0
Batch size distribution
Inter-arrival time average: 	3.546190
Inter-arrival time std.dev.:	3.484139
Inter-arrival time maximum:	28.266000
Inter-arrival time distribution
Read inter-arrival average: 	0.000000
Read inter-arrival std.dev.:	0.000000
Read inter-arrival maximum:	0
Read inter-arrival distribution
Write inter-arrival average: 	3.546190
Write inter-arrival std.dev.:	3.484139
Write inter-arrival maximum:	28.266000
Write inter-arrival distribution
Number of idle periods:  1
Idle period length average: 	0.000000
Idle period length std.dev.:	0.000000
Idle period length maximum:	0
Idle period length distribution
Request size average: 	15.062085
Request size std.dev.:	9.182254
Request size maximum:	116
Request size distribution
Read request size average: 	0.000000
Read request size std.dev.:	0.000000
Read request size maximum:	0
Read request size distribution
Write request size average: 	15.062085
Write request size std.dev.:	9.182254
Write request size maximum:	116
Write request size distribution
Instantaneous queue length average: 	11342.938100
Instantaneous queue length std.dev.:	6533.589727
Instantaneous queue length maximum:	22666
Instantaneous queue length distribution
Sub-optimal mapping penalty average: 	0.000000
Sub-optimal mapping penalty std.dev.:	0.000000
Sub-optimal mapping penalty maximum:	0
Sub-optimal mapping penalty distribution
