Total Requests handled:	10000
Requests per second:   	86.528432
Completely idle time:  	0.000000   	0.000000
Response time average: 	253.935912
Response time std.dev.:	175.727132
Response time maximum:	1115.133118
Response time distribution
Overlaps combined:     	0	0.000000
Read overlaps combined:	0	0.000000	0.000000
Critical Reads:      	     0  	0.000000
Critical Read Response time average: 	0.000000
Critical Read Response time std.dev.:	0.000000
Critical Read Response time maximum:	0
Critical Read Response time distribution
Non-Critical Reads:  	     0  	0.000000
Non-Critical Read Response time average: 	0.000000
Non-Critical Read Response time std.dev.:	0.000000
Non-Critical Read Response time maximum:	0
Non-Critical Read Response time distribution
Critical Writes:     	 10000  	0.306054
Critical Write Response time average: 	253.935912
Critical Write Response time std.dev.:	175.727132
Critical Write Response time maximum:	1115.133118
Critical Write Response time distribution
Non-Critical Writes: 	     0  	0.000000
Non-Critical Write Response time average: 	0.000000
Non-Critical Write Response time std.dev.:	0.000000
Non-Critical Write Response time maximum:	0
Non-Critical Write Response time distribution
Number of reads:         0  	0.000000
Number of writes:    32674  	1.000000
Sequential reads:        0  	0.000000  	0.000000
Sequential writes:       0  	0.000000  	0.000000
Base SPTF/SDF Different:      0 /      0 	0.000000
Timeout SPTF/SDF Different:      0 /      0 	0.000000
Priority SPTF/SDF Different:      0 /      0 	0.000000
runlistlen:              1311335071.466334
runoutstanding:          0.000000
simtime:                 115568.949871
warmuptime:              0.000000
setsize:                 1
Average # requests:      11346.776733
Maximum # requests:      22675
End # requests:          22674
Average queue length:    11346.776733
Maximum queue length:    22675
End queued requests:     22674
Queue time average: 	253.935912
Queue time std.dev.:	175.727132
Queue time maximum:	1115.133118
Queue time distribution
Avg # read requests:     0.000000
Max # read requests:     0
Avg # write requests:    11346.776733
Max # write requests:    22675
Physical access time average: 	0.000000
Physical access time std.dev.:	0.000000
Physical access time maximum:	0
Physical access time distribution
Number of batches:  0
Batch size average: 	0.000000
Batch size std.dev.:	0.000000
Batch size maximum:	0
Batch size distribution
Inter-arrival time average: 	3.536804
Inter-arrival time std.dev.:	3.459717
Inter-arrival time maximum:	29.721000
Inter-arrival time distribution
Read inter-arrival average: 	0.000000
Read inter-arrival std.dev.:	0.000000
Read inter-arrival maximum:	0
Read inter-arrival distribution
Write inter-arrival average: 	3.536804
Write inter-arrival std.dev.:	3.459717
Write inter-arrival maximum:	29.721000
Write inter-arrival distribution
Number of idle periods:  1
Idle period length average: 	0.000000
Idle period length std.dev.:	0.000000
Idle period length maximum:	0
Idle period length distribution
Request size average: 	15.061915
Request size std.dev.:	9.180882
Request size maximum:	116
Request size distribution
Read request size average: 	0.000000
Read request size std.dev.:	0.000000
Read request size maximum:	0
Read request size distribution
Write request size average: 	15.061915
Write request size std.dev.:	9.180882
Write request size maximum:	116
Write request size distribution
Instantaneous queue length average: 	11357.082300
Instantaneous queue length std.dev.:	6533.625507
Instantaneous queue length maximum:	22675
Instantaneous queue length distribution
Sub-optimal mapping penalty average: 	0.000000
Sub-optimal mapping penalty std.dev.:	0.000000
Sub-optimal mapping penalty maximum:	0
Sub-optimal mapping penalty distribution
