Total Requests handled:	10000
Requests per second:   	87.538240
Completely idle time:  	0.000000   	0.000000
Response time average: 	557.885627
Response time std.dev.:	437.150684
Response time maximum:	2417.584836
Response time distribution
Overlaps combined:     	0	0.000000
Read overlaps combined:	0	0.000000	0.000000
Critical Reads:      	     0  	0.000000
Critical Read Response time average: 	0.000000
Critical Read Response time std.dev.:	0.000000
Critical Read Response time maximum:	0
Critical Read Response time distribution
Non-Critical Reads:  	     0  	0.000000
Non-Critical Read Response time average: 	0.000000
Non-Critical Read Response time std.dev.:	0.000000
Non-Critical Read Response time maximum:	0
Non-Critical Read Response time distribution
Critical Writes:     	 10000  	0.305381
Critical Write Response time average: 	557.885627
Critical Write Response time std.dev.:	437.150684
Critical Write Response time maximum:	2417.584836
Critical Write Response time distribution
Non-Critical Writes: 	     0  	0.000000
Non-Critical Write Response time average: 	0.000000
Non-Critical Write Response time std.dev.:	0.000000
Non-Critical Write Response time maximum:	0
Non-Critical Write Response time distribution
Number of reads:         0  	0.000000
Number of writes:    32746  	1.000000
Sequential reads:        0  	0.000000  	0.000000
Sequential writes:       3  	0.000092  	0.000092
Base SPTF/SDF Different:      0 /      0 	0.000000
Timeout SPTF/SDF Different:      0 /      0 	0.000000
Priority SPTF/SDF Different:      0 /      0 	0.000000
runlistlen:              1301352527.754329
runoutstanding:          0.000000
simtime:                 114235.790362
warmuptime:              0.000000
setsize:                 1
Average # requests:      11391.810952
Maximum # requests:      22747
End # requests:          22746
Average queue length:    11391.810952
Maximum queue length:    22747
End queued requests:     22746
Queue time average: 	557.885627
Queue time std.dev.:	437.150684
Queue time maximum:	2417.584836
Queue time distribution
Avg # read requests:     0.000000
Max # read requests:     0
Avg # write requests:    11391.810952
Max # write requests:    22747
Physical access time average: 	0.000000
Physical access time std.dev.:	0.000000
Physical access time maximum:	0
Physical access time distribution
Number of batches:  0
Batch size average: 	0.000000
Batch size std.dev.:	0.000000
Batch size maximum:	0
Batch size distribution
Inter-arrival time average: 	3.488506
Inter-arrival time std.dev.:	3.440459
Inter-arrival time maximum:	30.292618
Inter-arrival time distribution
Read inter-arrival average: 	0.000000
Read inter-arrival std.dev.:	0.000000
Read inter-arrival maximum:	0
Read inter-arrival distribution
Write inter-arrival average: 	3.488506
Write inter-arrival std.dev.:	3.440459
Write inter-arrival maximum:	30.292618
Write inter-arrival distribution
Number of idle periods:  1
Idle period length average: 	0.000000
Idle period length std.dev.:	0.000000
Idle period length maximum:	0
Idle period length distribution
Request size average: 	15.059488
Request size std.dev.:	9.183044
Request size maximum:	116
Request size distribution
Read request size average: 	0.000000
Read request size std.dev.:	0.000000
Read request size maximum:	0
Read request size distribution
Write request size average: 	15.059488
Write request size std.dev.:	9.183044
Write request size maximum:	116
Write request size distribution
Instantaneous queue length average: 	11419.679000
Instantaneous queue length std.dev.:	6533.967911
Instantaneous queue length maximum:	22747
Instantaneous queue length distribution
Sub-optimal mapping penalty average: 	0.000000
Sub-optimal mapping penalty std.dev.:	0.000000
Sub-optimal mapping penalty maximum:	0
Sub-optimal mapping penalty distribution
