Total Requests handled:	10000
Requests per second:   	85.347195
Completely idle time:  	0.000000   	0.000000
Response time average: 	105.399160
Response time std.dev.:	60.899810
Response time maximum:	454.892699
Response time distribution
Overlaps combined:     	0	0.000000
Read overlaps combined:	0	0.000000	0.000000
Critical Reads:      	     0  	0.000000
Critical Read Response time average: 	0.000000
Critical Read Response time std.dev.:	0.000000
Critical Read Response time maximum:	0
Critical Read Response time distribution
Non-Critical Reads:  	     0  	0.000000
Non-Critical Read Response time average: 	0.000000
Non-Critical Read Response time std.dev.:	0.000000
Non-Critical Read Response time maximum:	0
Non-Critical Read Response time distribution
Critical Writes:     	 10000  	0.306326
Critical Write Response time average: 	105.399160
Critical Write Response time std.dev.:	60.899810
Critical Write Response time maximum:	454.892699
Critical Write Response time distribution
Non-Critical Writes: 	     0  	0.000000
Non-Critical Write Response time average: 	0.000000
Non-Critical Write Response time std.dev.:	0.000000
Non-Critical Write Response time maximum:	0
Non-Critical Write Response time distribution
Number of reads:         0  	0.000000
Number of writes:    32645  	1.000000
Sequential reads:        0  	0.000000  	0.000000
Sequential writes:       1  	0.000031  	0.000031
Base SPTF/SDF Different:      0 /      0 	0.000000
Timeout SPTF/SDF Different:      0 /      0 	0.000000
Priority SPTF/SDF Different:      0 /      0 	0.000000
runlistlen:              1327883842.182654
runoutstanding:          0.000000
simtime:                 117168.466930
warmuptime:              0.000000
setsize:                 1
Average # requests:      11333.116127
Maximum # requests:      22646
End # requests:          22645
Average queue length:    11333.116127
Maximum queue length:    22646
End queued requests:     22645
Queue time average: 	105.399160
Queue time std.dev.:	60.899810
Queue time maximum:	454.892699
Queue time distribution
Avg # read requests:     0.000000
Max # read requests:     0
Avg # write requests:    11333.116127
Max # write requests:    22646
Physical access time average: 	0.000000
Physical access time std.dev.:	0.000000
Physical access time maximum:	0
Physical access time distribution
Number of batches:  0
Batch size average: 	0.000000
Batch size std.dev.:	0.000000
Batch size maximum:	0
Batch size distribution
Inter-arrival time average: 	3.589001
Inter-arrival time std.dev.:	3.512632
Inter-arrival time maximum:	29.070505
Inter-arrival time distribution
Read inter-arrival average: 	0.000000
Read inter-arrival std.dev.:	0.000000
Read inter-arrival maximum:	0
Read inter-arrival distribution
Write inter-arrival average: 	3.589001
Write inter-arrival std.dev.:	3.512632
Write inter-arrival maximum:	29.070505
Write inter-arrival distribution
Number of idle periods:  1
Idle period length average: 	0.000000
Idle period length std.dev.:	0.000000
Idle period length maximum:	0
Idle period length distribution
Request size average: 	15.061357
Request size std.dev.:	9.179629
Request size maximum:	116
Request size distribution
Read request size average: 	0.000000
Read request size std.dev.:	0.000000
Read request size maximum:	0
Read request size distribution
Write request size average: 	15.061357
Write request size std.dev.:	9.179629
Write request size maximum:	116
Write request size distribution
Instantaneous queue length average: 	11327.223500
Instantaneous queue length std.dev.:	6533.424567
Instantaneous queue length maximum:	22646
Instantaneous queue length distribution
Sub-optimal mapping penalty average: 	0.000000
Sub-optimal mapping penalty std.dev.:	0.000000
Sub-optimal mapping penalty maximum:	0
Sub-optimal mapping penalty distribution
