Total Requests handled:	10000
Requests per second:   	86.537017
Completely idle time:  	0.000000   	0.000000
Response time average: 	575.625703
Response time std.dev.:	481.080378
Response time maximum:	2506.092096
Response time distribution
Overlaps combined:     	0	0.000000
Read overlaps combined:	0	0.000000	0.000000
Critical Reads:      	     0  	0.000000
Critical Read Response time average: 	0.000000
Critical Read Response time std.dev.:	0.000000
Critical Read Response time maximum:	0
Critical Read Response time distribution
Non-Critical Reads:  	     0  	0.000000
Non-Critical Read Response time average: 	0.000000
Non-Critical Read Response time std.dev.:	0.000000
Non-Critical Read Response time maximum:	0
Non-Critical Read Response time distribution
Critical Writes:     	 10000  	0.313814
Critical Write Response time average: 	575.625703
Critical Write Response time std.dev.:	481.080378
Critical Write Response time maximum:	2506.092096
Critical Write Response time distribution
Non-Critical Writes: 	     0  	0.000000
Non-Critical Write Response time average: 	0.000000
Non-Critical Write Response time std.dev.:	0.000000
Non-Critical Write Response time maximum:	0
Non-Critical Write Response time distribution
Number of reads:         0  	0.000000
Number of writes:    31866  	1.000000
Sequential reads:        0  	0.000000  	0.000000
Sequential writes:       2  	0.000063  	0.000063
Base SPTF/SDF Different:      0 /      0 	0.000000
Timeout SPTF/SDF Different:      0 /      0 	0.000000
Priority SPTF/SDF Different:      0 /      0 	0.000000
runlistlen:              1267277076.146832
runoutstanding:          0.000000
simtime:                 115557.484650
warmuptime:              0.000000
setsize:                 1
Average # requests:      10966.637773
Maximum # requests:      21867
End # requests:          21866
Average queue length:    10966.637773
Maximum queue length:    21867
End queued requests:     21866
Queue time average: 	575.625703
Queue time std.dev.:	481.080378
Queue time maximum:	2506.092096
Queue time distribution
Avg # read requests:     0.000000
Max # read requests:     0
Avg # write requests:    10966.637773
Max # write requests:    21867
Physical access time average: 	0.000000
Physical access time std.dev.:	0.000000
Physical access time maximum:	0
Physical access time distribution
Number of batches:  0
Batch size average: 	0.000000
Batch size std.dev.:	0.000000
Batch size maximum:	0
Batch size distribution
Inter-arrival time average: 	3.626212
Inter-arrival time std.dev.:	3.283714
Inter-arrival time maximum:	27.076481
Inter-arrival time distribution
Read inter-arrival average: 	0.000000
Read inter-arrival std.dev.:	0.000000
Read inter-arrival maximum:	0
Read inter-arrival distribution
Write inter-arrival average: 	3.626212
Write inter-arrival std.dev.:	3.283714
Write inter-arrival maximum:	27.076481
Write inter-arrival distribution
Number of idle periods:  1
Idle period length average: 	0.000000
Idle period length std.dev.:	0.000000
Idle period length maximum:	0
Idle period length distribution
Request size average: 	15.322162
Request size std.dev.:	9.845809
Request size maximum:	116
Request size distribution
Read request size average: 	0.000000
Read request size std.dev.:	0.000000
Read request size maximum:	0
Read request size distribution
Write request size average: 	15.322162
Write request size std.dev.:	9.845809
Write request size maximum:	116
Write request size distribution
Instantaneous queue length average: 	10983.851700
Instantaneous queue length std.dev.:	6288.898835
Instantaneous queue length maximum:	21867
Instantaneous queue length distribution
Sub-optimal mapping penalty average: 	0.000000
Sub-optimal mapping penalty std.dev.:	0.000000
Sub-optimal mapping penalty maximum:	0
Sub-optimal mapping penalty distribution
