Total Requests handled:	10000
Requests per second:   	67.282223
Completely idle time:  	0.000000   	0.000000
Response time average: 	14.862767
Response time std.dev.:	5.304049
Response time maximum:	48.574383
Response time distribution
Overlaps combined:     	0	0.000000
Read overlaps combined:	0	0.000000	0.000000
Critical Reads:      	     0  	0.000000
Critical Read Response time average: 	0.000000
Critical Read Response time std.dev.:	0.000000
Critical Read Response time maximum:	0
Critical Read Response time distribution
Non-Critical Reads:  	     0  	0.000000
Non-Critical Read Response time average: 	0.000000
Non-Critical Read Response time std.dev.:	0.000000
Non-Critical Read Response time maximum:	0
Non-Critical Read Response time distribution
Critical Writes:     	 10000  	0.314653
Critical Write Response time average: 	14.862767
Critical Write Response time std.dev.:	5.304049
Critical Write Response time maximum:	48.574383
Critical Write Response time distribution
Non-Critical Writes: 	     0  	0.000000
Non-Critical Write Response time average: 	0.000000
Non-Critical Write Response time std.dev.:	0.000000
Non-Critical Write Response time maximum:	0
Non-Critical Write Response time distribution
Number of reads:         0  	0.000000
Number of writes:    31781  	1.000000
Sequential reads:        0  	0.000000  	0.000000
Sequential writes:       0  	0.000000  	0.000000
Base SPTF/SDF Different:      0 /      0 	0.000000
Timeout SPTF/SDF Different:      0 /      0 	0.000000
Priority SPTF/SDF Different:      0 /      0 	0.000000
runlistlen:              1614860903.989646
runoutstanding:          0.000000
simtime:                 148627.670522
warmuptime:              0.000000
setsize:                 1
Average # requests:      10865.143067
Maximum # requests:      21782
End # requests:          21781
Average queue length:    10865.143067
Maximum queue length:    21782
End queued requests:     21781
Queue time average: 	14.862767
Queue time std.dev.:	5.304049
Queue time maximum:	48.574383
Queue time distribution
Avg # read requests:     0.000000
Max # read requests:     0
Avg # write requests:    10865.143067
Max # write requests:    21782
Physical access time average: 	0.000000
Physical access time std.dev.:	0.000000
Physical access time maximum:	0
Physical access time distribution
Number of batches:  0
Batch size average: 	0.000000
Batch size std.dev.:	0.000000
Batch size maximum:	0
Batch size distribution
Inter-arrival time average: 	4.676553
Inter-arrival time std.dev.:	3.998284
Inter-arrival time maximum:	28.114820
Inter-arrival time distribution
Read inter-arrival average: 	0.000000
Read inter-arrival std.dev.:	0.000000
Read inter-arrival maximum:	0
Read inter-arrival distribution
Write inter-arrival average: 	4.676553
Write inter-arrival std.dev.:	3.998284
Write inter-arrival maximum:	28.114820
Write inter-arrival distribution
Number of idle periods:  1
Idle period length average: 	0.000000
Idle period length std.dev.:	0.000000
Idle period length maximum:	0
Idle period length distribution
Request size average: 	15.319405
Request size std.dev.:	9.840330
Request size maximum:	116
Request size distribution
Read request size average: 	0.000000
Read request size std.dev.:	0.000000
Read request size maximum:	0
Read request size distribution
Write request size average: 	15.319405
Write request size std.dev.:	9.840330
Write request size maximum:	116
Write request size distribution
Instantaneous queue length average: 	10888.771100
Instantaneous queue length std.dev.:	6289.168546
Instantaneous queue length maximum:	21782
Instantaneous queue length distribution
Sub-optimal mapping penalty average: 	0.000000
Sub-optimal mapping penalty std.dev.:	0.000000
Sub-optimal mapping penalty maximum:	0
Sub-optimal mapping penalty distribution
