Total Requests handled:	10000
Requests per second:   	85.408299
Completely idle time:  	0.000000   	0.000000
Response time average: 	245.478615
Response time std.dev.:	193.269400
Response time maximum:	1066.868132
Response time distribution
Overlaps combined:     	0	0.000000
Read overlaps combined:	0	0.000000	0.000000
Critical Reads:      	     0  	0.000000
Critical Read Response time average: 	0.000000
Critical Read Response time std.dev.:	0.000000
Critical Read Response time maximum:	0
Critical Read Response time distribution
Non-Critical Reads:  	     0  	0.000000
Non-Critical Read Response time average: 	0.000000
Non-Critical Read Response time std.dev.:	0.000000
Non-Critical Read Response time maximum:	0
Non-Critical Read Response time distribution
Critical Writes:     	 10000  	0.314297
Critical Write Response time average: 	245.478615
Critical Write Response time std.dev.:	193.269400
Critical Write Response time maximum:	1066.868132
Critical Write Response time distribution
Non-Critical Writes: 	     0  	0.000000
Non-Critical Write Response time average: 	0.000000
Non-Critical Write Response time std.dev.:	0.000000
Non-Critical Write Response time maximum:	0
Non-Critical Write Response time distribution
Number of reads:         0  	0.000000
Number of writes:    31817  	1.000000
Sequential reads:        0  	0.000000  	0.000000
Sequential writes:       0  	0.000000  	0.000000
Base SPTF/SDF Different:      0 /      0 	0.000000
Timeout SPTF/SDF Different:      0 /      0 	0.000000
Priority SPTF/SDF Different:      0 /      0 	0.000000
runlistlen:              1277070002.212707
runoutstanding:          0.000000
simtime:                 117084.641000
warmuptime:              0.000000
setsize:                 1
Average # requests:      10907.237630
Maximum # requests:      21818
End # requests:          21817
Average queue length:    10907.237630
Maximum queue length:    21818
End queued requests:     21817
Queue time average: 	245.478615
Queue time std.dev.:	193.269400
Queue time maximum:	1066.868132
Queue time distribution
Avg # read requests:     0.000000
Max # read requests:     0
Avg # write requests:    10907.237630
Max # write requests:    21818
Physical access time average: 	0.000000
Physical access time std.dev.:	0.000000
Physical access time maximum:	0
Physical access time distribution
Number of batches:  0
Batch size average: 	0.000000
Batch size std.dev.:	0.000000
Batch size maximum:	0
Batch size distribution
Inter-arrival time average: 	3.679852
Inter-arrival time std.dev.:	3.325036
Inter-arrival time maximum:	33.696021
Inter-arrival time distribution
Read inter-arrival average: 	0.000000
Read inter-arrival std.dev.:	0.000000
Read inter-arrival maximum:	0
Read inter-arrival distribution
Write inter-arrival average: 	3.679852
Write inter-arrival std.dev.:	3.325036
Write inter-arrival maximum:	33.696021
Write inter-arrival distribution
Number of idle periods:  1
Idle period length average: 	0.000000
Idle period length std.dev.:	0.000000
Idle period length maximum:	0
Idle period length distribution
Request size average: 	15.322249
Request size std.dev.:	9.843652
Request size maximum:	116
Request size distribution
Read request size average: 	0.000000
Read request size std.dev.:	0.000000
Read request size maximum:	0
Read request size distribution
Write request size average: 	15.322249
Write request size std.dev.:	9.843652
Write request size maximum:	116
Write request size distribution
Instantaneous queue length average: 	10926.822300
Instantaneous queue length std.dev.:	6289.043462
Instantaneous queue length maximum:	21818
Instantaneous queue length distribution
Sub-optimal mapping penalty average: 	0.000000
Sub-optimal mapping penalty std.dev.:	0.000000
Sub-optimal mapping penalty maximum:	0
Sub-optimal mapping penalty distribution
