Total Requests handled:	10000
Requests per second:   	84.598348
Completely idle time:  	0.000000   	0.000000
Response time average: 	153.562066
Response time std.dev.:	113.633502
Response time maximum:	732.470295
Response time distribution
Overlaps combined:     	0	0.000000
Read overlaps combined:	0	0.000000	0.000000
Critical Reads:      	     0  	0.000000
Critical Read Response time average: 	0.000000
Critical Read Response time std.dev.:	0.000000
Critical Read Response time maximum:	0
Critical Read Response time distribution
Non-Critical Reads:  	     0  	0.000000
Non-Critical Read Response time average: 	0.000000
Non-Critical Read Response time std.dev.:	0.000000
Non-Critical Read Response time maximum:	0
Non-Critical Read Response time distribution
Critical Writes:     	 10000  	0.314436
Critical Write Response time average: 	153.562066
Critical Write Response time std.dev.:	113.633502
Critical Write Response time maximum:	732.470295
Critical Write Response time distribution
Non-Critical Writes: 	     0  	0.000000
Non-Critical Write Response time average: 	0.000000
Non-Critical Write Response time std.dev.:	0.000000
Non-Critical Write Response time maximum:	0
Non-Critical Write Response time distribution
Number of reads:         0  	0.000000
Number of writes:    31803  	1.000000
Sequential reads:        0  	0.000000  	0.000000
Sequential writes:       0  	0.000000  	0.000000
Base SPTF/SDF Different:      0 /      0 	0.000000
Timeout SPTF/SDF Different:      0 /      0 	0.000000
Priority SPTF/SDF Different:      0 /      0 	0.000000
runlistlen:              1288848605.031905
runoutstanding:          0.000000
simtime:                 118205.617652
warmuptime:              0.000000
setsize:                 1
Average # requests:      10903.446305
Maximum # requests:      21804
End # requests:          21803
Average queue length:    10903.446305
Maximum queue length:    21804
End queued requests:     21803
Queue time average: 	153.562066
Queue time std.dev.:	113.633502
Queue time maximum:	732.470295
Queue time distribution
Avg # read requests:     0.000000
Max # read requests:     0
Avg # write requests:    10903.446305
Max # write requests:    21804
Physical access time average: 	0.000000
Physical access time std.dev.:	0.000000
Physical access time maximum:	0
Physical access time distribution
Number of batches:  0
Batch size average: 	0.000000
Batch size std.dev.:	0.000000
Batch size maximum:	0
Batch size distribution
Inter-arrival time average: 	3.716742
Inter-arrival time std.dev.:	3.357466
Inter-arrival time maximum:	32.233148
Inter-arrival time distribution
Read inter-arrival average: 	0.000000
Read inter-arrival std.dev.:	0.000000
Read inter-arrival maximum:	0
Read inter-arrival distribution
Write inter-arrival average: 	3.716742
Write inter-arrival std.dev.:	3.357466
Write inter-arrival maximum:	32.233148
Write inter-arrival distribution
Number of idle periods:  1
Idle period length average: 	0.000000
Idle period length std.dev.:	0.000000
Idle period length maximum:	0
Idle period length distribution
Request size average: 	15.320945
Request size std.dev.:	9.838390
Request size maximum:	116
Request size distribution
Read request size average: 	0.000000
Read request size std.dev.:	0.000000
Read request size maximum:	0
Read request size distribution
Write request size average: 	15.320945
Write request size std.dev.:	9.838390
Write request size maximum:	116
Write request size distribution
Instantaneous queue length average: 	10911.293600
Instantaneous queue length std.dev.:	6289.043829
Instantaneous queue length maximum:	21804
Instantaneous queue length distribution
Sub-optimal mapping penalty average: 	0.000000
Sub-optimal mapping penalty std.dev.:	0.000000
Sub-optimal mapping penalty maximum:	0
Sub-optimal mapping penalty distribution
