Total Requests handled:	10000
Requests per second:   	132.246097
Completely idle time:  	0.000000   	0.000000
Response time average: 	444.089580
Response time std.dev.:	301.904983
Response time maximum:	2662.323112
Response time distribution
Overlaps combined:     	0	0.000000
Read overlaps combined:	0	0.000000	0.000000
Critical Reads:      	     0  	0.000000
Critical Read Response time average: 	0.000000
Critical Read Response time std.dev.:	0.000000
Critical Read Response time maximum:	0
Critical Read Response time distribution
Non-Critical Reads:  	     0  	0.000000
Non-Critical Read Response time average: 	0.000000
Non-Critical Read Response time std.dev.:	0.000000
Non-Critical Read Response time maximum:	0
Non-Critical Read Response time distribution
Critical Writes:     	 10000  	0.300860
Critical Write Response time average: 	444.089580
Critical Write Response time std.dev.:	301.904983
Critical Write Response time maximum:	2662.323112
Critical Write Response time distribution
Non-Critical Writes: 	     0  	0.000000
Non-Critical Write Response time average: 	0.000000
Non-Critical Write Response time std.dev.:	0.000000
Non-Critical Write Response time maximum:	0
Non-Critical Write Response time distribution
Number of reads:         0  	0.000000
Number of writes:    33238  	1.000000
Sequential reads:        0  	0.000000  	0.000000
Sequential writes:       0  	0.000000  	0.000000
Base SPTF/SDF Different:      0 /      0 	0.000000
Timeout SPTF/SDF Different:      0 /      0 	0.000000
Priority SPTF/SDF Different:      0 /      0 	0.000000
runlistlen:              881241620.324305
runoutstanding:          0.000000
simtime:                 75616.598166
warmuptime:              0.000000
setsize:                 1
Average # requests:      11654.076508
Maximum # requests:      23239
End # requests:          23238
Average queue length:    11654.076508
Maximum queue length:    23239
End queued requests:     23238
Queue time average: 	444.089580
Queue time std.dev.:	301.904983
Queue time maximum:	2662.323112
Queue time distribution
Avg # read requests:     0.000000
Max # read requests:     0
Avg # write requests:    11654.076508
Max # write requests:    23239
Physical access time average: 	0.000000
Physical access time std.dev.:	0.000000
Physical access time maximum:	0
Physical access time distribution
Number of batches:  0
Batch size average: 	0.000000
Batch size std.dev.:	0.000000
Batch size maximum:	0
Batch size distribution
Inter-arrival time average: 	2.274936
Inter-arrival time std.dev.:	2.311077
Inter-arrival time maximum:	21.848414
Inter-arrival time distribution
Read inter-arrival average: 	0.000000
Read inter-arrival std.dev.:	0.000000
Read inter-arrival maximum:	0
Read inter-arrival distribution
Write inter-arrival average: 	2.274936
Write inter-arrival std.dev.:	2.311077
Write inter-arrival maximum:	21.848414
Write inter-arrival distribution
Number of idle periods:  1
Idle period length average: 	0.000000
Idle period length std.dev.:	0.000000
Idle period length maximum:	0
Idle period length distribution
Request size average: 	14.273542
Request size std.dev.:	8.877053
Request size maximum:	116
Request size distribution
Read request size average: 	0.000000
Read request size std.dev.:	0.000000
Read request size maximum:	0
Read request size distribution
Write request size average: 	14.273542
Write request size std.dev.:	8.877053
Write request size maximum:	116
Write request size distribution
Instantaneous queue length average: 	11690.289300
Instantaneous queue length std.dev.:	6670.488470
Instantaneous queue length maximum:	23239
Instantaneous queue length distribution
Sub-optimal mapping penalty average: 	0.000000
Sub-optimal mapping penalty std.dev.:	0.000000
Sub-optimal mapping penalty maximum:	0
Sub-optimal mapping penalty distribution
