Total Requests handled:	10000
Requests per second:   	133.445864
Completely idle time:  	0.000000   	0.000000
Response time average: 	804.469398
Response time std.dev.:	547.934424
Response time maximum:	4267.158765
Response time distribution
Overlaps combined:     	0	0.000000
Read overlaps combined:	0	0.000000	0.000000
Critical Reads:      	     0  	0.000000
Critical Read Response time average: 	0.000000
Critical Read Response time std.dev.:	0.000000
Critical Read Response time maximum:	0
Critical Read Response time distribution
Non-Critical Reads:  	     0  	0.000000
Non-Critical Read Response time average: 	0.000000
Non-Critical Read Response time std.dev.:	0.000000
Non-Critical Read Response time maximum:	0
Non-Critical Read Response time distribution
Critical Writes:     	 10000  	0.299949
Critical Write Response time average: 	804.469398
Critical Write Response time std.dev.:	547.934424
Critical Write Response time maximum:	4267.158765
Critical Write Response time distribution
Non-Critical Writes: 	     0  	0.000000
Non-Critical Write Response time average: 	0.000000
Non-Critical Write Response time std.dev.:	0.000000
Non-Critical Write Response time maximum:	0
Non-Critical Write Response time distribution
Number of reads:         0  	0.000000
Number of writes:    33339  	1.000000
Sequential reads:        0  	0.000000  	0.000000
Sequential writes:       1  	0.000030  	0.000030
Base SPTF/SDF Different:      0 /      0 	0.000000
Timeout SPTF/SDF Different:      0 /      0 	0.000000
Priority SPTF/SDF Different:      0 /      0 	0.000000
runlistlen:              879584841.409280
runoutstanding:          0.000000
simtime:                 74936.755059
warmuptime:              0.000000
setsize:                 1
Average # requests:      11737.695884
Maximum # requests:      23340
End # requests:          23339
Average queue length:    11737.695884
Maximum queue length:    23340
End queued requests:     23339
Queue time average: 	804.469398
Queue time std.dev.:	547.934424
Queue time maximum:	4267.158765
Queue time distribution
Avg # read requests:     0.000000
Max # read requests:     0
Avg # write requests:    11737.695884
Max # write requests:    23340
Physical access time average: 	0.000000
Physical access time std.dev.:	0.000000
Physical access time maximum:	0
Physical access time distribution
Number of batches:  0
Batch size average: 	0.000000
Batch size std.dev.:	0.000000
Batch size maximum:	0
Batch size distribution
Inter-arrival time average: 	2.247655
Inter-arrival time std.dev.:	2.281000
Inter-arrival time maximum:	25.810794
Inter-arrival time distribution
Read inter-arrival average: 	0.000000
Read inter-arrival std.dev.:	0.000000
Read inter-arrival maximum:	0
Read inter-arrival distribution
Write inter-arrival average: 	2.247655
Write inter-arrival std.dev.:	2.281000
Write inter-arrival maximum:	25.810794
Write inter-arrival distribution
Number of idle periods:  1
Idle period length average: 	0.000000
Idle period length std.dev.:	0.000000
Idle period length maximum:	0
Idle period length distribution
Request size average: 	14.263055
Request size std.dev.:	8.860712
Request size maximum:	116
Request size distribution
Read request size average: 	0.000000
Read request size std.dev.:	0.000000
Read request size maximum:	0
Read request size distribution
Write request size average: 	14.263055
Write request size std.dev.:	8.860712
Write request size maximum:	116
Write request size distribution
Instantaneous queue length average: 	11793.101600
Instantaneous queue length std.dev.:	6670.382916
Instantaneous queue length maximum:	23340
Instantaneous queue length distribution
Sub-optimal mapping penalty average: 	0.000000
Sub-optimal mapping penalty std.dev.:	0.000000
Sub-optimal mapping penalty maximum:	0
Sub-optimal mapping penalty distribution
