Total Requests handled:	10000
Requests per second:   	133.417618
Completely idle time:  	0.000000   	0.000000
Response time average: 	840.376129
Response time std.dev.:	565.305556
Response time maximum:	4526.462041
Response time distribution
Overlaps combined:     	0	0.000000
Read overlaps combined:	0	0.000000	0.000000
Critical Reads:      	     0  	0.000000
Critical Read Response time average: 	0.000000
Critical Read Response time std.dev.:	0.000000
Critical Read Response time maximum:	0
Critical Read Response time distribution
Non-Critical Reads:  	     0  	0.000000
Non-Critical Read Response time average: 	0.000000
Non-Critical Read Response time std.dev.:	0.000000
Non-Critical Read Response time maximum:	0
Non-Critical Read Response time distribution
Critical Writes:     	 10000  	0.299706
Critical Write Response time average: 	840.376129
Critical Write Response time std.dev.:	565.305556
Critical Write Response time maximum:	4526.462041
Critical Write Response time distribution
Non-Critical Writes: 	     0  	0.000000
Non-Critical Write Response time average: 	0.000000
Non-Critical Write Response time std.dev.:	0.000000
Non-Critical Write Response time maximum:	0
Non-Critical Write Response time distribution
Number of reads:         0  	0.000000
Number of writes:    33366  	1.000000
Sequential reads:        0  	0.000000  	0.000000
Sequential writes:       1  	0.000030  	0.000030
Base SPTF/SDF Different:      0 /      0 	0.000000
Timeout SPTF/SDF Different:      0 /      0 	0.000000
Priority SPTF/SDF Different:      0 /      0 	0.000000
runlistlen:              880822105.991555
runoutstanding:          0.000000
simtime:                 74952.619547
warmuptime:              0.000000
setsize:                 1
Average # requests:      11751.718770
Maximum # requests:      23367
End # requests:          23366
Average queue length:    11751.718770
Maximum queue length:    23367
End queued requests:     23366
Queue time average: 	840.376129
Queue time std.dev.:	565.305556
Queue time maximum:	4526.462041
Queue time distribution
Avg # read requests:     0.000000
Max # read requests:     0
Avg # write requests:    11751.718770
Max # write requests:    23367
Physical access time average: 	0.000000
Physical access time std.dev.:	0.000000
Physical access time maximum:	0
Physical access time distribution
Number of batches:  0
Batch size average: 	0.000000
Batch size std.dev.:	0.000000
Batch size maximum:	0
Batch size distribution
Inter-arrival time average: 	2.246339
Inter-arrival time std.dev.:	2.302777
Inter-arrival time maximum:	27.780171
Inter-arrival time distribution
Read inter-arrival average: 	0.000000
Read inter-arrival std.dev.:	0.000000
Read inter-arrival maximum:	0
Read inter-arrival distribution
Write inter-arrival average: 	2.246339
Write inter-arrival std.dev.:	2.302777
Write inter-arrival maximum:	27.780171
Write inter-arrival distribution
Number of idle periods:  1
Idle period length average: 	0.000000
Idle period length std.dev.:	0.000000
Idle period length maximum:	0
Idle period length distribution
Request size average: 	14.263022
Request size std.dev.:	8.857283
Request size maximum:	116
Request size distribution
Read request size average: 	0.000000
Read request size std.dev.:	0.000000
Read request size maximum:	0
Read request size distribution
Write request size average: 	14.263022
Write request size std.dev.:	8.857283
Write request size maximum:	116
Write request size distribution
Instantaneous queue length average: 	11803.317400
Instantaneous queue length std.dev.:	6670.619427
Instantaneous queue length maximum:	23367
Instantaneous queue length distribution
Sub-optimal mapping penalty average: 	0.000000
Sub-optimal mapping penalty std.dev.:	0.000000
Sub-optimal mapping penalty maximum:	0
Sub-optimal mapping penalty distribution
