Total Requests handled:	10000
Requests per second:   	132.975962
Completely idle time:  	0.000000   	0.000000
Response time average: 	650.466200
Response time std.dev.:	426.412324
Response time maximum:	3778.449428
Response time distribution
Overlaps combined:     	0	0.000000
Read overlaps combined:	0	0.000000	0.000000
Critical Reads:      	     0  	0.000000
Critical Read Response time average: 	0.000000
Critical Read Response time std.dev.:	0.000000
Critical Read Response time maximum:	0
Critical Read Response time distribution
Non-Critical Reads:  	     0  	0.000000
Non-Critical Read Response time average: 	0.000000
Non-Critical Read Response time std.dev.:	0.000000
Non-Critical Read Response time maximum:	0
Non-Critical Read Response time distribution
Critical Writes:     	 10000  	0.300201
Critical Write Response time average: 	650.466200
Critical Write Response time std.dev.:	426.412324
Critical Write Response time maximum:	3778.449428
Critical Write Response time distribution
Non-Critical Writes: 	     0  	0.000000
Non-Critical Write Response time average: 	0.000000
Non-Critical Write Response time std.dev.:	0.000000
Non-Critical Write Response time maximum:	0
Non-Critical Write Response time distribution
Number of reads:         0  	0.000000
Number of writes:    33311  	1.000000
Sequential reads:        0  	0.000000  	0.000000
Sequential writes:       0  	0.000000  	0.000000
Base SPTF/SDF Different:      0 /      0 	0.000000
Timeout SPTF/SDF Different:      0 /      0 	0.000000
Priority SPTF/SDF Different:      0 /      0 	0.000000
runlistlen:              881149260.226444
runoutstanding:          0.000000
simtime:                 75201.561703
warmuptime:              0.000000
setsize:                 1
Average # requests:      11717.167041
Maximum # requests:      23312
End # requests:          23311
Average queue length:    11717.167041
Maximum queue length:    23312
End queued requests:     23311
Queue time average: 	650.466200
Queue time std.dev.:	426.412324
Queue time maximum:	3778.449428
Queue time distribution
Avg # read requests:     0.000000
Max # read requests:     0
Avg # write requests:    11717.167041
Max # write requests:    23312
Physical access time average: 	0.000000
Physical access time std.dev.:	0.000000
Physical access time maximum:	0
Physical access time distribution
Number of batches:  0
Batch size average: 	0.000000
Batch size std.dev.:	0.000000
Batch size maximum:	0
Batch size distribution
Inter-arrival time average: 	2.257530
Inter-arrival time std.dev.:	2.273495
Inter-arrival time maximum:	19.071000
Inter-arrival time distribution
Read inter-arrival average: 	0.000000
Read inter-arrival std.dev.:	0.000000
Read inter-arrival maximum:	0
Read inter-arrival distribution
Write inter-arrival average: 	2.257530
Write inter-arrival std.dev.:	2.273495
Write inter-arrival maximum:	19.071000
Write inter-arrival distribution
Number of idle periods:  1
Idle period length average: 	0.000000
Idle period length std.dev.:	0.000000
Idle period length maximum:	0
Idle period length distribution
Request size average: 	14.265228
Request size std.dev.:	8.862930
Request size maximum:	116
Request size distribution
Read request size average: 	0.000000
Read request size std.dev.:	0.000000
Read request size maximum:	0
Read request size distribution
Write request size average: 	14.265228
Write request size std.dev.:	8.862930
Write request size maximum:	116
Write request size distribution
Instantaneous queue length average: 	11750.179100
Instantaneous queue length std.dev.:	6670.146596
Instantaneous queue length maximum:	23312
Instantaneous queue length distribution
Sub-optimal mapping penalty average: 	0.000000
Sub-optimal mapping penalty std.dev.:	0.000000
Sub-optimal mapping penalty maximum:	0
Sub-optimal mapping penalty distribution
