Total Requests handled:	10000
Requests per second:   	397.541812
Completely idle time:  	0.000000   	0.000000
Response time average: 	25.137821
Response time std.dev.:	17.619603
Response time maximum:	132.574189
Response time distribution
Overlaps combined:     	0	0.000000
Read overlaps combined:	0	0.000000	0.000000
Critical Reads:      	 10000  	0.999101
Critical Read Response time average: 	25.137821
Critical Read Response time std.dev.:	17.619603
Critical Read Response time maximum:	132.574189
Critical Read Response time distribution
Non-Critical Reads:  	     0  	0.000000
Non-Critical Read Response time average: 	0.000000
Non-Critical Read Response time std.dev.:	0.000000
Non-Critical Read Response time maximum:	0
Non-Critical Read Response time distribution
Critical Writes:     	     0  	0.000000
Critical Write Response time average: 	0.000000
Critical Write Response time std.dev.:	0.000000
Critical Write Response time maximum:	0
Critical Write Response time distribution
Non-Critical Writes: 	     0  	0.000000
Non-Critical Write Response time average: 	0.000000
Non-Critical Write Response time std.dev.:	0.000000
Non-Critical Write Response time maximum:	0
Non-Critical Write Response time distribution
Number of reads:     10009  	1.000000
Number of writes:        0  	0.000000
Sequential reads:        0  	0.000000  	0.000000
Sequential writes:       0  	0.000000  	0.000000
Base SPTF/SDF Different:      0 /      0 	0.000000
Timeout SPTF/SDF Different:      0 /      0 	0.000000
Priority SPTF/SDF Different:      0 /      0 	0.000000
runlistlen:              251545.867360
runoutstanding:          0.000000
simtime:                 25154.586736
warmuptime:              0.000000
setsize:                 1
Average # requests:      10.000000
Maximum # requests:      10
End # requests:          9
Average queue length:    10.000000
Maximum queue length:    10
End queued requests:     9
Queue time average: 	25.137821
Queue time std.dev.:	17.619603
Queue time maximum:	132.574189
Queue time distribution
Avg # read requests:     10.000000
Max # read requests:     10
Avg # write requests:    0.000000
Max # write requests:    0
Physical access time average: 	0.000000
Physical access time std.dev.:	0.000000
Physical access time maximum:	0
Physical access time distribution
Number of batches:  0
Batch size average: 	0.000000
Batch size std.dev.:	0.000000
Batch size maximum:	0
Batch size distribution
Inter-arrival time average: 	2.512876
Inter-arrival time std.dev.:	1.793159
Inter-arrival time maximum:	12.947885
Inter-arrival time distribution
Read inter-arrival average: 	2.512876
Read inter-arrival std.dev.:	1.793159
Read inter-arrival maximum:	12.947885
Read inter-arrival distribution
Write inter-arrival average: 	0.000000
Write inter-arrival std.dev.:	0.000000
Write inter-arrival maximum:	0
Write inter-arrival distribution
Number of idle periods:  1
Idle period length average: 	0.000000
Idle period length std.dev.:	0.000000
Idle period length maximum:	0
Idle period length distribution
Request size average: 	15.585873
Request size std.dev.:	8.191462
Request size maximum:	116
Request size distribution
Read request size average: 	15.585873
Read request size std.dev.:	8.191462
Read request size maximum:	116
Read request size distribution
Write request size average: 	0.000000
Write request size std.dev.:	0.000000
Write request size maximum:	0
Write request size distribution
Instantaneous queue length average: 	10.000000
Instantaneous queue length std.dev.:	0.000000
Instantaneous queue length maximum:	10
Instantaneous queue length distribution
Sub-optimal mapping penalty average: 	0.000000
Sub-optimal mapping penalty std.dev.:	0.000000
Sub-optimal mapping penalty maximum:	0
Sub-optimal mapping penalty distribution
