Total Requests handled:	10000
Requests per second:   	460.998410
Completely idle time:  	0.000000   	0.000000
Response time average: 	191.619014
Response time std.dev.:	178.648749
Response time maximum:	998.148938
Response time distribution
Overlaps combined:     	0	0.000000
Read overlaps combined:	0	0.000000	0.000000
Critical Reads:      	 10000  	0.991277
Critical Read Response time average: 	191.619014
Critical Read Response time std.dev.:	178.648749
Critical Read Response time maximum:	998.148938
Critical Read Response time distribution
Non-Critical Reads:  	     0  	0.000000
Non-Critical Read Response time average: 	0.000000
Non-Critical Read Response time std.dev.:	0.000000
Non-Critical Read Response time maximum:	0
Non-Critical Read Response time distribution
Critical Writes:     	     0  	0.000000
Critical Write Response time average: 	0.000000
Critical Write Response time std.dev.:	0.000000
Critical Write Response time maximum:	0
Critical Write Response time distribution
Non-Critical Writes: 	     0  	0.000000
Non-Critical Write Response time average: 	0.000000
Non-Critical Write Response time std.dev.:	0.000000
Non-Critical Write Response time maximum:	0
Non-Critical Write Response time distribution
Number of reads:     10088  	1.000000
Number of writes:        0  	0.000000
Sequential reads:        0  	0.000000  	0.000000
Sequential writes:       0  	0.000000  	0.000000
Base SPTF/SDF Different:      0 /      0 	0.000000
Timeout SPTF/SDF Different:      0 /      0 	0.000000
Priority SPTF/SDF Different:      0 /      0 	0.000000
runlistlen:              1930592.341065
runoutstanding:          0.000000
simtime:                 21692.048776
warmuptime:              0.000000
setsize:                 1
Average # requests:      89.000000
Maximum # requests:      89
End # requests:          88
Average queue length:    89.000000
Maximum queue length:    89
End queued requests:     88
Queue time average: 	191.619014
Queue time std.dev.:	178.648749
Queue time maximum:	998.148938
Queue time distribution
Avg # read requests:     89.000000
Max # read requests:     89
Avg # write requests:    0.000000
Max # write requests:    0
Physical access time average: 	0.000000
Physical access time std.dev.:	0.000000
Physical access time maximum:	0
Physical access time distribution
Number of batches:  0
Batch size average: 	0.000000
Batch size std.dev.:	0.000000
Batch size maximum:	0
Batch size distribution
Inter-arrival time average: 	2.149800
Inter-arrival time std.dev.:	1.537865
Inter-arrival time maximum:	11.077198
Inter-arrival time distribution
Read inter-arrival average: 	2.149800
Read inter-arrival std.dev.:	1.537865
Read inter-arrival maximum:	11.077198
Read inter-arrival distribution
Write inter-arrival average: 	0.000000
Write inter-arrival std.dev.:	0.000000
Write inter-arrival maximum:	0
Write inter-arrival distribution
Number of idle periods:  1
Idle period length average: 	0.000000
Idle period length std.dev.:	0.000000
Idle period length maximum:	0
Idle period length distribution
Request size average: 	15.582177
Request size std.dev.:	8.183390
Request size maximum:	116
Request size distribution
Read request size average: 	15.582177
Read request size std.dev.:	8.183390
Read request size maximum:	116
Read request size distribution
Write request size average: 	0.000000
Write request size std.dev.:	0.000000
Write request size maximum:	0
Write request size distribution
Instantaneous queue length average: 	89.000000
Instantaneous queue length std.dev.:	0.000000
Instantaneous queue length maximum:	89
Instantaneous queue length distribution
Sub-optimal mapping penalty average: 	0.000000
Sub-optimal mapping penalty std.dev.:	0.000000
Sub-optimal mapping penalty maximum:	0
Sub-optimal mapping penalty distribution
