Total Requests handled:	10000
Requests per second:   	102.519129
Completely idle time:  	0.000000   	0.000000
Response time average: 	998.153498
Response time std.dev.:	501.633920
Response time maximum:	3575.750262
Response time distribution
Overlaps combined:     	0	0.000000
Read overlaps combined:	0	0.000000	0.000000
Critical Reads:      	     0  	0.000000
Critical Read Response time average: 	0.000000
Critical Read Response time std.dev.:	0.000000
Critical Read Response time maximum:	0
Critical Read Response time distribution
Non-Critical Reads:  	     0  	0.000000
Non-Critical Read Response time average: 	0.000000
Non-Critical Read Response time std.dev.:	0.000000
Non-Critical Read Response time maximum:	0
Non-Critical Read Response time distribution
Critical Writes:     	 10000  	0.295316
Critical Write Response time average: 	998.153498
Critical Write Response time std.dev.:	501.633920
Critical Write Response time maximum:	3575.750262
Critical Write Response time distribution
Non-Critical Writes: 	     0  	0.000000
Non-Critical Write Response time average: 	0.000000
Non-Critical Write Response time std.dev.:	0.000000
Non-Critical Write Response time maximum:	0
Non-Critical Write Response time distribution
Number of reads:         0  	0.000000
Number of writes:    33862  	1.000000
Sequential reads:        0  	0.000000  	0.000000
Sequential writes:       0  	0.000000  	0.000000
Base SPTF/SDF Different:      0 /      0 	0.000000
Timeout SPTF/SDF Different:      0 /      0 	0.000000
Priority SPTF/SDF Different:      0 /      0 	0.000000
runlistlen:              1170627881.881238
runoutstanding:          0.000000
simtime:                 97542.771659
warmuptime:              0.000000
setsize:                 1
Average # requests:      12001.175094
Maximum # requests:      23863
End # requests:          23862
Average queue length:    12001.175094
Maximum queue length:    23863
End queued requests:     23862
Queue time average: 	998.153498
Queue time std.dev.:	501.633920
Queue time maximum:	3575.750262
Queue time distribution
Avg # read requests:     0.000000
Max # read requests:     0
Avg # write requests:    12001.175094
Max # write requests:    23863
Physical access time average: 	0.000000
Physical access time std.dev.:	0.000000
Physical access time maximum:	0
Physical access time distribution
Number of batches:  0
Batch size average: 	0.000000
Batch size std.dev.:	0.000000
Batch size maximum:	0
Batch size distribution
Inter-arrival time average: 	2.880422
Inter-arrival time std.dev.:	3.173114
Inter-arrival time maximum:	31.439475
Inter-arrival time distribution
Read inter-arrival average: 	0.000000
Read inter-arrival std.dev.:	0.000000
Read inter-arrival maximum:	0
Read inter-arrival distribution
Write inter-arrival average: 	2.880422
Write inter-arrival std.dev.:	3.173114
Write inter-arrival maximum:	31.439475
Write inter-arrival distribution
Number of idle periods:  1
Idle period length average: 	0.000000
Idle period length std.dev.:	0.000000
Idle period length maximum:	0
Idle period length distribution
Request size average: 	14.441527
Request size std.dev.:	8.547753
Request size maximum:	116
Request size distribution
Read request size average: 	0.000000
Read request size std.dev.:	0.000000
Read request size maximum:	0
Read request size distribution
Write request size average: 	14.441527
Write request size std.dev.:	8.547753
Write request size maximum:	116
Write request size distribution
Instantaneous queue length average: 	12038.888200
Instantaneous queue length std.dev.:	6811.090603
Instantaneous queue length maximum:	23863
Instantaneous queue length distribution
Sub-optimal mapping penalty average: 	0.000000
Sub-optimal mapping penalty std.dev.:	0.000000
Sub-optimal mapping penalty maximum:	0
Sub-optimal mapping penalty distribution
