Total Requests handled:	10000
Requests per second:   	102.778425
Completely idle time:  	0.000000   	0.000000
Response time average: 	880.921489
Response time std.dev.:	436.552906
Response time maximum:	3034.998383
Response time distribution
Overlaps combined:     	0	0.000000
Read overlaps combined:	0	0.000000	0.000000
Critical Reads:      	     0  	0.000000
Critical Read Response time average: 	0.000000
Critical Read Response time std.dev.:	0.000000
Critical Read Response time maximum:	0
Critical Read Response time distribution
Non-Critical Reads:  	     0  	0.000000
Non-Critical Read Response time average: 	0.000000
Non-Critical Read Response time std.dev.:	0.000000
Non-Critical Read Response time maximum:	0
Non-Critical Read Response time distribution
Critical Writes:     	 10000  	0.295709
Critical Write Response time average: 	880.921489
Critical Write Response time std.dev.:	436.552906
Critical Write Response time maximum:	3034.998383
Critical Write Response time distribution
Non-Critical Writes: 	     0  	0.000000
Non-Critical Write Response time average: 	0.000000
Non-Critical Write Response time std.dev.:	0.000000
Non-Critical Write Response time maximum:	0
Non-Critical Write Response time distribution
Number of reads:         0  	0.000000
Number of writes:    33817  	1.000000
Sequential reads:        0  	0.000000  	0.000000
Sequential writes:       2  	0.000059  	0.000059
Base SPTF/SDF Different:      0 /      0 	0.000000
Timeout SPTF/SDF Different:      0 /      0 	0.000000
Priority SPTF/SDF Different:      0 /      0 	0.000000
runlistlen:              1165435344.096563
runoutstanding:          0.000000
simtime:                 97296.684836
warmuptime:              0.000000
setsize:                 1
Average # requests:      11978.160880
Maximum # requests:      23818
End # requests:          23817
Average queue length:    11978.160880
Maximum queue length:    23818
End queued requests:     23817
Queue time average: 	880.921489
Queue time std.dev.:	436.552906
Queue time maximum:	3034.998383
Queue time distribution
Avg # read requests:     0.000000
Max # read requests:     0
Avg # write requests:    11978.160880
Max # write requests:    23818
Physical access time average: 	0.000000
Physical access time std.dev.:	0.000000
Physical access time maximum:	0
Physical access time distribution
Number of batches:  0
Batch size average: 	0.000000
Batch size std.dev.:	0.000000
Batch size maximum:	0
Batch size distribution
Inter-arrival time average: 	2.876771
Inter-arrival time std.dev.:	3.158732
Inter-arrival time maximum:	33.454000
Inter-arrival time distribution
Read inter-arrival average: 	0.000000
Read inter-arrival std.dev.:	0.000000
Read inter-arrival maximum:	0
Read inter-arrival distribution
Write inter-arrival average: 	2.876771
Write inter-arrival std.dev.:	3.158732
Write inter-arrival maximum:	33.454000
Write inter-arrival distribution
Number of idle periods:  1
Idle period length average: 	0.000000
Idle period length std.dev.:	0.000000
Idle period length maximum:	0
Idle period length distribution
Request size average: 	14.443002
Request size std.dev.:	8.548788
Request size maximum:	116
Request size distribution
Read request size average: 	0.000000
Read request size std.dev.:	0.000000
Read request size maximum:	0
Read request size distribution
Write request size average: 	14.443002
Write request size std.dev.:	8.548788
Write request size maximum:	116
Write request size distribution
Instantaneous queue length average: 	12011.920000
Instantaneous queue length std.dev.:	6811.196498
Instantaneous queue length maximum:	23818
Instantaneous queue length distribution
Sub-optimal mapping penalty average: 	0.000000
Sub-optimal mapping penalty std.dev.:	0.000000
Sub-optimal mapping penalty maximum:	0
Sub-optimal mapping penalty distribution
