Total Requests handled:	10000
Requests per second:   	102.848373
Completely idle time:  	0.000000   	0.000000
Response time average: 	1263.920513
Response time std.dev.:	631.235059
Response time maximum:	4343.726464
Response time distribution
Overlaps combined:     	0	0.000000
Read overlaps combined:	0	0.000000	0.000000
Critical Reads:      	     0  	0.000000
Critical Read Response time average: 	0.000000
Critical Read Response time std.dev.:	0.000000
Critical Read Response time maximum:	0
Critical Read Response time distribution
Non-Critical Reads:  	     0  	0.000000
Non-Critical Read Response time average: 	0.000000
Non-Critical Read Response time std.dev.:	0.000000
Non-Critical Read Response time maximum:	0
Non-Critical Read Response time distribution
Critical Writes:     	 10000  	0.294977
Critical Write Response time average: 	1263.920513
Critical Write Response time std.dev.:	631.235059
Critical Write Response time maximum:	4343.726464
Critical Write Response time distribution
Non-Critical Writes: 	     0  	0.000000
Non-Critical Write Response time average: 	0.000000
Non-Critical Write Response time std.dev.:	0.000000
Non-Critical Write Response time maximum:	0
Non-Critical Write Response time distribution
Number of reads:         0  	0.000000
Number of writes:    33901  	1.000000
Sequential reads:        0  	0.000000  	0.000000
Sequential writes:       0  	0.000000  	0.000000
Base SPTF/SDF Different:      0 /      0 	0.000000
Timeout SPTF/SDF Different:      0 /      0 	0.000000
Priority SPTF/SDF Different:      0 /      0 	0.000000
runlistlen:              1171385578.050586
runoutstanding:          0.000000
simtime:                 97230.512195
warmuptime:              0.000000
setsize:                 1
Average # requests:      12047.510104
Maximum # requests:      23902
End # requests:          23901
Average queue length:    12047.510104
Maximum queue length:    23902
End queued requests:     23901
Queue time average: 	1263.920513
Queue time std.dev.:	631.235059
Queue time maximum:	4343.726464
Queue time distribution
Avg # read requests:     0.000000
Max # read requests:     0
Avg # write requests:    12047.510104
Max # write requests:    23902
Physical access time average: 	0.000000
Physical access time std.dev.:	0.000000
Physical access time maximum:	0
Physical access time distribution
Number of batches:  0
Batch size average: 	0.000000
Batch size std.dev.:	0.000000
Batch size maximum:	0
Batch size distribution
Inter-arrival time average: 	2.868029
Inter-arrival time std.dev.:	3.173203
Inter-arrival time maximum:	32.077716
Inter-arrival time distribution
Read inter-arrival average: 	0.000000
Read inter-arrival std.dev.:	0.000000
Read inter-arrival maximum:	0
Read inter-arrival distribution
Write inter-arrival average: 	2.868029
Write inter-arrival std.dev.:	3.173203
Write inter-arrival maximum:	32.077716
Write inter-arrival distribution
Number of idle periods:  1
Idle period length average: 	0.000000
Idle period length std.dev.:	0.000000
Idle period length maximum:	0
Idle period length distribution
Request size average: 	14.436919
Request size std.dev.:	8.543295
Request size maximum:	116
Request size distribution
Read request size average: 	0.000000
Read request size std.dev.:	0.000000
Read request size maximum:	0
Read request size distribution
Write request size average: 	14.436919
Write request size std.dev.:	8.543295
Write request size maximum:	116
Write request size distribution
Instantaneous queue length average: 	12101.964800
Instantaneous queue length std.dev.:	6811.277234
Instantaneous queue length maximum:	23902
Instantaneous queue length distribution
Sub-optimal mapping penalty average: 	0.000000
Sub-optimal mapping penalty std.dev.:	0.000000
Sub-optimal mapping penalty maximum:	0
Sub-optimal mapping penalty distribution
