Total Requests handled:	10000
Requests per second:   	102.767106
Completely idle time:  	0.000000   	0.000000
Response time average: 	1148.968840
Response time std.dev.:	586.361502
Response time maximum:	3962.686352
Response time distribution
Overlaps combined:     	0	0.000000
Read overlaps combined:	0	0.000000	0.000000
Critical Reads:      	     0  	0.000000
Critical Read Response time average: 	0.000000
Critical Read Response time std.dev.:	0.000000
Critical Read Response time maximum:	0
Critical Read Response time distribution
Non-Critical Reads:  	     0  	0.000000
Non-Critical Read Response time average: 	0.000000
Non-Critical Read Response time std.dev.:	0.000000
Non-Critical Read Response time maximum:	0
Non-Critical Read Response time distribution
Critical Writes:     	 10000  	0.295064
Critical Write Response time average: 	1148.968840
Critical Write Response time std.dev.:	586.361502
Critical Write Response time maximum:	3962.686352
Critical Write Response time distribution
Non-Critical Writes: 	     0  	0.000000
Non-Critical Write Response time average: 	0.000000
Non-Critical Write Response time std.dev.:	0.000000
Non-Critical Write Response time maximum:	0
Non-Critical Write Response time distribution
Number of reads:         0  	0.000000
Number of writes:    33891  	1.000000
Sequential reads:        0  	0.000000  	0.000000
Sequential writes:       0  	0.000000  	0.000000
Base SPTF/SDF Different:      0 /      0 	0.000000
Timeout SPTF/SDF Different:      0 /      0 	0.000000
Priority SPTF/SDF Different:      0 /      0 	0.000000
runlistlen:              1170006936.268219
runoutstanding:          0.000000
simtime:                 97307.400647
warmuptime:              0.000000
setsize:                 1
Average # requests:      12023.822736
Maximum # requests:      23892
End # requests:          23891
Average queue length:    12023.822736
Maximum queue length:    23892
End queued requests:     23891
Queue time average: 	1148.968840
Queue time std.dev.:	586.361502
Queue time maximum:	3962.686352
Queue time distribution
Avg # read requests:     0.000000
Max # read requests:     0
Avg # write requests:    12023.822736
Max # write requests:    23892
Physical access time average: 	0.000000
Physical access time std.dev.:	0.000000
Physical access time maximum:	0
Physical access time distribution
Number of batches:  0
Batch size average: 	0.000000
Batch size std.dev.:	0.000000
Batch size maximum:	0
Batch size distribution
Inter-arrival time average: 	2.871129
Inter-arrival time std.dev.:	3.171168
Inter-arrival time maximum:	31.873825
Inter-arrival time distribution
Read inter-arrival average: 	0.000000
Read inter-arrival std.dev.:	0.000000
Read inter-arrival maximum:	0
Read inter-arrival distribution
Write inter-arrival average: 	2.871129
Write inter-arrival std.dev.:	3.171168
Write inter-arrival maximum:	31.873825
Write inter-arrival distribution
Number of idle periods:  1
Idle period length average: 	0.000000
Idle period length std.dev.:	0.000000
Idle period length maximum:	0
Idle period length distribution
Request size average: 	14.439025
Request size std.dev.:	8.542073
Request size maximum:	116
Request size distribution
Read request size average: 	0.000000
Read request size std.dev.:	0.000000
Read request size maximum:	0
Read request size distribution
Write request size average: 	14.439025
Write request size std.dev.:	8.542073
Write request size maximum:	116
Write request size distribution
Instantaneous queue length average: 	12072.744200
Instantaneous queue length std.dev.:	6809.190261
Instantaneous queue length maximum:	23892
Instantaneous queue length distribution
Sub-optimal mapping penalty average: 	0.000000
Sub-optimal mapping penalty std.dev.:	0.000000
Sub-optimal mapping penalty maximum:	0
Sub-optimal mapping penalty distribution
