Total Requests handled:	10000
Requests per second:   	85.896051
Completely idle time:  	0.000000   	0.000000
Response time average: 	220.956123
Response time std.dev.:	155.296327
Response time maximum:	976.451168
Response time distribution
Overlaps combined:     	0	0.000000
Read overlaps combined:	0	0.000000	0.000000
Critical Reads:      	     0  	0.000000
Critical Read Response time average: 	0.000000
Critical Read Response time std.dev.:	0.000000
Critical Read Response time maximum:	0
Critical Read Response time distribution
Non-Critical Reads:  	     0  	0.000000
Non-Critical Read Response time average: 	0.000000
Non-Critical Read Response time std.dev.:	0.000000
Non-Critical Read Response time maximum:	0
Non-Critical Read Response time distribution
Critical Writes:     	 10000  	0.305754
Critical Write Response time average: 	220.956123
Critical Write Response time std.dev.:	155.296327
Critical Write Response time maximum:	976.451168
Critical Write Response time distribution
Non-Critical Writes: 	     0  	0.000000
Non-Critical Write Response time average: 	0.000000
Non-Critical Write Response time std.dev.:	0.000000
Non-Critical Write Response time maximum:	0
Non-Critical Write Response time distribution
Number of reads:         0  	0.000000
Number of writes:    32706  	1.000000
Sequential reads:        0  	0.000000  	0.000000
Sequential writes:       1  	0.000031  	0.000031
Base SPTF/SDF Different:      0 /      0 	0.000000
Timeout SPTF/SDF Different:      0 /      0 	0.000000
Priority SPTF/SDF Different:      0 /      0 	0.000000
runlistlen:              1321315443.327338
runoutstanding:          0.000000
simtime:                 116419.787023
warmuptime:              0.000000
setsize:                 1
Average # requests:      11349.577912
Maximum # requests:      22707
End # requests:          22706
Average queue length:    11349.577912
Maximum queue length:    22707
End queued requests:     22706
Queue time average: 	220.956123
Queue time std.dev.:	155.296327
Queue time maximum:	976.451168
Queue time distribution
Avg # read requests:     0.000000
Max # read requests:     0
Avg # write requests:    11349.577912
Max # write requests:    22707
Physical access time average: 	0.000000
Physical access time std.dev.:	0.000000
Physical access time maximum:	0
Physical access time distribution
Number of batches:  0
Batch size average: 	0.000000
Batch size std.dev.:	0.000000
Batch size maximum:	0
Batch size distribution
Inter-arrival time average: 	3.559456
Inter-arrival time std.dev.:	3.476659
Inter-arrival time maximum:	29.933222
Inter-arrival time distribution
Read inter-arrival average: 	0.000000
Read inter-arrival std.dev.:	0.000000
Read inter-arrival maximum:	0
Read inter-arrival distribution
Write inter-arrival average: 	3.559456
Write inter-arrival std.dev.:	3.476659
Write inter-arrival maximum:	29.933222
Write inter-arrival distribution
Number of idle periods:  1
Idle period length average: 	0.000000
Idle period length std.dev.:	0.000000
Idle period length maximum:	0
Idle period length distribution
Request size average: 	15.037608
Request size std.dev.:	9.116023
Request size maximum:	116
Request size distribution
Read request size average: 	0.000000
Read request size std.dev.:	0.000000
Read request size maximum:	0
Read request size distribution
Write request size average: 	15.037608
Write request size std.dev.:	9.116023
Write request size maximum:	116
Write request size distribution
Instantaneous queue length average: 	11370.177100
Instantaneous queue length std.dev.:	6541.708322
Instantaneous queue length maximum:	22707
Instantaneous queue length distribution
Sub-optimal mapping penalty average: 	0.000000
Sub-optimal mapping penalty std.dev.:	0.000000
Sub-optimal mapping penalty maximum:	0
Sub-optimal mapping penalty distribution
