Total Requests handled:	10000
Requests per second:   	86.861772
Completely idle time:  	0.000000   	0.000000
Response time average: 	550.639722
Response time std.dev.:	437.070754
Response time maximum:	2350.967989
Response time distribution
Overlaps combined:     	0	0.000000
Read overlaps combined:	0	0.000000	0.000000
Critical Reads:      	     0  	0.000000
Critical Read Response time average: 	0.000000
Critical Read Response time std.dev.:	0.000000
Critical Read Response time maximum:	0
Critical Read Response time distribution
Non-Critical Reads:  	     0  	0.000000
Non-Critical Read Response time average: 	0.000000
Non-Critical Read Response time std.dev.:	0.000000
Non-Critical Read Response time maximum:	0
Non-Critical Read Response time distribution
Critical Writes:     	 10000  	0.305120
Critical Write Response time average: 	550.639722
Critical Write Response time std.dev.:	437.070754
Critical Write Response time maximum:	2350.967989
Critical Write Response time distribution
Non-Critical Writes: 	     0  	0.000000
Non-Critical Write Response time average: 	0.000000
Non-Critical Write Response time std.dev.:	0.000000
Non-Critical Write Response time maximum:	0
Non-Critical Write Response time distribution
Number of reads:         0  	0.000000
Number of writes:    32774  	1.000000
Sequential reads:        0  	0.000000  	0.000000
Sequential writes:       0  	0.000000  	0.000000
Base SPTF/SDF Different:      0 /      0 	0.000000
Timeout SPTF/SDF Different:      0 /      0 	0.000000
Priority SPTF/SDF Different:      0 /      0 	0.000000
runlistlen:              1312813425.493659
runoutstanding:          0.000000
simtime:                 115125.443160
warmuptime:              0.000000
setsize:                 1
Average # requests:      11403.330050
Maximum # requests:      22775
End # requests:          22774
Average queue length:    11403.330050
Maximum queue length:    22775
End queued requests:     22774
Queue time average: 	550.639722
Queue time std.dev.:	437.070754
Queue time maximum:	2350.967989
Queue time distribution
Avg # read requests:     0.000000
Max # read requests:     0
Avg # write requests:    11403.330050
Max # write requests:    22775
Physical access time average: 	0.000000
Physical access time std.dev.:	0.000000
Physical access time maximum:	0
Physical access time distribution
Number of batches:  0
Batch size average: 	0.000000
Batch size std.dev.:	0.000000
Batch size maximum:	0
Batch size distribution
Inter-arrival time average: 	3.512637
Inter-arrival time std.dev.:	3.485472
Inter-arrival time maximum:	31.890837
Inter-arrival time distribution
Read inter-arrival average: 	0.000000
Read inter-arrival std.dev.:	0.000000
Read inter-arrival maximum:	0
Read inter-arrival distribution
Write inter-arrival average: 	3.512637
Write inter-arrival std.dev.:	3.485472
Write inter-arrival maximum:	31.890837
Write inter-arrival distribution
Number of idle periods:  1
Idle period length average: 	0.000000
Idle period length std.dev.:	0.000000
Idle period length maximum:	0
Idle period length distribution
Request size average: 	15.035119
Request size std.dev.:	9.117883
Request size maximum:	116
Request size distribution
Read request size average: 	0.000000
Read request size std.dev.:	0.000000
Read request size maximum:	0
Read request size distribution
Write request size average: 	15.035119
Write request size std.dev.:	9.117883
Write request size maximum:	116
Write request size distribution
Instantaneous queue length average: 	11436.882100
Instantaneous queue length std.dev.:	6541.255076
Instantaneous queue length maximum:	22775
Instantaneous queue length distribution
Sub-optimal mapping penalty average: 	0.000000
Sub-optimal mapping penalty std.dev.:	0.000000
Sub-optimal mapping penalty maximum:	0
Sub-optimal mapping penalty distribution
