Total Requests handled:	10000
Requests per second:   	86.713534
Completely idle time:  	0.000000   	0.000000
Response time average: 	574.159071
Response time std.dev.:	458.692850
Response time maximum:	2400.088407
Response time distribution
Overlaps combined:     	0	0.000000
Read overlaps combined:	0	0.000000	0.000000
Critical Reads:      	     0  	0.000000
Critical Read Response time average: 	0.000000
Critical Read Response time std.dev.:	0.000000
Critical Read Response time maximum:	0
Critical Read Response time distribution
Non-Critical Reads:  	     0  	0.000000
Non-Critical Read Response time average: 	0.000000
Non-Critical Read Response time std.dev.:	0.000000
Non-Critical Read Response time maximum:	0
Non-Critical Read Response time distribution
Critical Writes:     	 10000  	0.305036
Critical Write Response time average: 	574.159071
Critical Write Response time std.dev.:	458.692850
Critical Write Response time maximum:	2400.088407
Critical Write Response time distribution
Non-Critical Writes: 	     0  	0.000000
Non-Critical Write Response time average: 	0.000000
Non-Critical Write Response time std.dev.:	0.000000
Non-Critical Write Response time maximum:	0
Non-Critical Write Response time distribution
Number of reads:         0  	0.000000
Number of writes:    32783  	1.000000
Sequential reads:        0  	0.000000  	0.000000
Sequential writes:       0  	0.000000  	0.000000
Base SPTF/SDF Different:      0 /      0 	0.000000
Timeout SPTF/SDF Different:      0 /      0 	0.000000
Priority SPTF/SDF Different:      0 /      0 	0.000000
runlistlen:              1317375061.524945
runoutstanding:          0.000000
simtime:                 115322.252150
warmuptime:              0.000000
setsize:                 1
Average # requests:      11423.424681
Maximum # requests:      22784
End # requests:          22783
Average queue length:    11423.424681
Maximum queue length:    22784
End queued requests:     22783
Queue time average: 	574.159071
Queue time std.dev.:	458.692850
Queue time maximum:	2400.088407
Queue time distribution
Avg # read requests:     0.000000
Max # read requests:     0
Avg # write requests:    11423.424681
Max # write requests:    22784
Physical access time average: 	0.000000
Physical access time std.dev.:	0.000000
Physical access time maximum:	0
Physical access time distribution
Number of batches:  0
Batch size average: 	0.000000
Batch size std.dev.:	0.000000
Batch size maximum:	0
Batch size distribution
Inter-arrival time average: 	3.517718
Inter-arrival time std.dev.:	3.441396
Inter-arrival time maximum:	31.991095
Inter-arrival time distribution
Read inter-arrival average: 	0.000000
Read inter-arrival std.dev.:	0.000000
Read inter-arrival maximum:	0
Read inter-arrival distribution
Write inter-arrival average: 	3.517718
Write inter-arrival std.dev.:	3.441396
Write inter-arrival maximum:	31.991095
Write inter-arrival distribution
Number of idle periods:  1
Idle period length average: 	0.000000
Idle period length std.dev.:	0.000000
Idle period length maximum:	0
Idle period length distribution
Request size average: 	15.036055
Request size std.dev.:	9.121283
Request size maximum:	116
Request size distribution
Read request size average: 	0.000000
Read request size std.dev.:	0.000000
Read request size maximum:	0
Read request size distribution
Write request size average: 	15.036055
Write request size std.dev.:	9.121283
Write request size maximum:	116
Write request size distribution
Instantaneous queue length average: 	11440.723100
Instantaneous queue length std.dev.:	6541.515635
Instantaneous queue length maximum:	22784
Instantaneous queue length distribution
Sub-optimal mapping penalty average: 	0.000000
Sub-optimal mapping penalty std.dev.:	0.000000
Sub-optimal mapping penalty maximum:	0
Sub-optimal mapping penalty distribution
