Total Requests handled:	10000
Requests per second:   	86.499589
Completely idle time:  	0.000000   	0.000000
Response time average: 	334.580807
Response time std.dev.:	250.459681
Response time maximum:	1457.830889
Response time distribution
Overlaps combined:     	0	0.000000
Read overlaps combined:	0	0.000000	0.000000
Critical Reads:      	     0  	0.000000
Critical Read Response time average: 	0.000000
Critical Read Response time std.dev.:	0.000000
Critical Read Response time maximum:	0
Critical Read Response time distribution
Non-Critical Reads:  	     0  	0.000000
Non-Critical Read Response time average: 	0.000000
Non-Critical Read Response time std.dev.:	0.000000
Non-Critical Read Response time maximum:	0
Non-Critical Read Response time distribution
Critical Writes:     	 10000  	0.305502
Critical Write Response time average: 	334.580807
Critical Write Response time std.dev.:	250.459681
Critical Write Response time maximum:	1457.830889
Critical Write Response time distribution
Non-Critical Writes: 	     0  	0.000000
Non-Critical Write Response time average: 	0.000000
Non-Critical Write Response time std.dev.:	0.000000
Non-Critical Write Response time maximum:	0
Non-Critical Write Response time distribution
Number of reads:         0  	0.000000
Number of writes:    32733  	1.000000
Sequential reads:        0  	0.000000  	0.000000
Sequential writes:       0  	0.000000  	0.000000
Base SPTF/SDF Different:      0 /      0 	0.000000
Timeout SPTF/SDF Different:      0 /      0 	0.000000
Priority SPTF/SDF Different:      0 /      0 	0.000000
runlistlen:              1315853986.395296
runoutstanding:          0.000000
simtime:                 115607.485797
warmuptime:              0.000000
setsize:                 1
Average # requests:      11382.082893
Maximum # requests:      22734
End # requests:          22733
Average queue length:    11382.082893
Maximum queue length:    22734
End queued requests:     22733
Queue time average: 	334.580807
Queue time std.dev.:	250.459681
Queue time maximum:	1457.830889
Queue time distribution
Avg # read requests:     0.000000
Max # read requests:     0
Avg # write requests:    11382.082893
Max # write requests:    22734
Physical access time average: 	0.000000
Physical access time std.dev.:	0.000000
Physical access time maximum:	0
Physical access time distribution
Number of batches:  0
Batch size average: 	0.000000
Batch size std.dev.:	0.000000
Batch size maximum:	0
Batch size distribution
Inter-arrival time average: 	3.531740
Inter-arrival time std.dev.:	3.477092
Inter-arrival time maximum:	37.827000
Inter-arrival time distribution
Read inter-arrival average: 	0.000000
Read inter-arrival std.dev.:	0.000000
Read inter-arrival maximum:	0
Read inter-arrival distribution
Write inter-arrival average: 	3.531740
Write inter-arrival std.dev.:	3.477092
Write inter-arrival maximum:	37.827000
Write inter-arrival distribution
Number of idle periods:  1
Idle period length average: 	0.000000
Idle period length std.dev.:	0.000000
Idle period length maximum:	0
Idle period length distribution
Request size average: 	15.036294
Request size std.dev.:	9.115770
Request size maximum:	116
Request size distribution
Read request size average: 	0.000000
Read request size std.dev.:	0.000000
Read request size maximum:	0
Read request size distribution
Write request size average: 	15.036294
Write request size std.dev.:	9.115770
Write request size maximum:	116
Write request size distribution
Instantaneous queue length average: 	11391.406700
Instantaneous queue length std.dev.:	6541.559050
Instantaneous queue length maximum:	22734
Instantaneous queue length distribution
Sub-optimal mapping penalty average: 	0.000000
Sub-optimal mapping penalty std.dev.:	0.000000
Sub-optimal mapping penalty maximum:	0
Sub-optimal mapping penalty distribution
