Total Requests handled:	10000
Requests per second:   	86.682322
Completely idle time:  	0.000000   	0.000000
Response time average: 	483.017037
Response time std.dev.:	380.095658
Response time maximum:	2064.766475
Response time distribution
Overlaps combined:     	0	0.000000
Read overlaps combined:	0	0.000000	0.000000
Critical Reads:      	     0  	0.000000
Critical Read Response time average: 	0.000000
Critical Read Response time std.dev.:	0.000000
Critical Read Response time maximum:	0
Critical Read Response time distribution
Non-Critical Reads:  	     0  	0.000000
Non-Critical Read Response time average: 	0.000000
Non-Critical Read Response time std.dev.:	0.000000
Non-Critical Read Response time maximum:	0
Non-Critical Read Response time distribution
Critical Writes:     	 10000  	0.305232
Critical Write Response time average: 	483.017037
Critical Write Response time std.dev.:	380.095658
Critical Write Response time maximum:	2064.766475
Critical Write Response time distribution
Non-Critical Writes: 	     0  	0.000000
Non-Critical Write Response time average: 	0.000000
Non-Critical Write Response time std.dev.:	0.000000
Non-Critical Write Response time maximum:	0
Non-Critical Write Response time distribution
Number of reads:         0  	0.000000
Number of writes:    32762  	1.000000
Sequential reads:        0  	0.000000  	0.000000
Sequential writes:       0  	0.000000  	0.000000
Base SPTF/SDF Different:      0 /      0 	0.000000
Timeout SPTF/SDF Different:      0 /      0 	0.000000
Priority SPTF/SDF Different:      0 /      0 	0.000000
runlistlen:              1315866098.749662
runoutstanding:          0.000000
simtime:                 115363.776222
warmuptime:              0.000000
setsize:                 1
Average # requests:      11406.232891
Maximum # requests:      22763
End # requests:          22762
Average queue length:    11406.232891
Maximum queue length:    22763
End queued requests:     22762
Queue time average: 	483.017037
Queue time std.dev.:	380.095658
Queue time maximum:	2064.766475
Queue time distribution
Avg # read requests:     0.000000
Max # read requests:     0
Avg # write requests:    11406.232891
Max # write requests:    22763
Physical access time average: 	0.000000
Physical access time std.dev.:	0.000000
Physical access time maximum:	0
Physical access time distribution
Number of batches:  0
Batch size average: 	0.000000
Batch size std.dev.:	0.000000
Batch size maximum:	0
Batch size distribution
Inter-arrival time average: 	3.521220
Inter-arrival time std.dev.:	3.441108
Inter-arrival time maximum:	30.300123
Inter-arrival time distribution
Read inter-arrival average: 	0.000000
Read inter-arrival std.dev.:	0.000000
Read inter-arrival maximum:	0
Read inter-arrival distribution
Write inter-arrival average: 	3.521220
Write inter-arrival std.dev.:	3.441108
Write inter-arrival maximum:	30.300123
Write inter-arrival distribution
Number of idle periods:  1
Idle period length average: 	0.000000
Idle period length std.dev.:	0.000000
Idle period length maximum:	0
Idle period length distribution
Request size average: 	15.037238
Request size std.dev.:	9.121169
Request size maximum:	116
Request size distribution
Read request size average: 	0.000000
Read request size std.dev.:	0.000000
Read request size maximum:	0
Read request size distribution
Write request size average: 	15.037238
Write request size std.dev.:	9.121169
Write request size maximum:	116
Write request size distribution
Instantaneous queue length average: 	11423.564100
Instantaneous queue length std.dev.:	6541.774984
Instantaneous queue length maximum:	22763
Instantaneous queue length distribution
Sub-optimal mapping penalty average: 	0.000000
Sub-optimal mapping penalty std.dev.:	0.000000
Sub-optimal mapping penalty maximum:	0
Sub-optimal mapping penalty distribution
