Total Requests handled:	10000
Requests per second:   	86.697569
Completely idle time:  	0.000000   	0.000000
Response time average: 	517.527401
Response time std.dev.:	410.313563
Response time maximum:	2335.013533
Response time distribution
Overlaps combined:     	0	0.000000
Read overlaps combined:	0	0.000000	0.000000
Critical Reads:      	     0  	0.000000
Critical Read Response time average: 	0.000000
Critical Read Response time std.dev.:	0.000000
Critical Read Response time maximum:	0
Critical Read Response time distribution
Non-Critical Reads:  	     0  	0.000000
Non-Critical Read Response time average: 	0.000000
Non-Critical Read Response time std.dev.:	0.000000
Non-Critical Read Response time maximum:	0
Non-Critical Read Response time distribution
Critical Writes:     	 10000  	0.305232
Critical Write Response time average: 	517.527401
Critical Write Response time std.dev.:	410.313563
Critical Write Response time maximum:	2335.013533
Critical Write Response time distribution
Non-Critical Writes: 	     0  	0.000000
Non-Critical Write Response time average: 	0.000000
Non-Critical Write Response time std.dev.:	0.000000
Non-Critical Write Response time maximum:	0
Non-Critical Write Response time distribution
Number of reads:         0  	0.000000
Number of writes:    32762  	1.000000
Sequential reads:        0  	0.000000  	0.000000
Sequential writes:       0  	0.000000  	0.000000
Base SPTF/SDF Different:      0 /      0 	0.000000
Timeout SPTF/SDF Different:      0 /      0 	0.000000
Priority SPTF/SDF Different:      0 /      0 	0.000000
runlistlen:              1313234561.913845
runoutstanding:          0.000000
simtime:                 115343.487695
warmuptime:              0.000000
setsize:                 1
Average # requests:      11385.424424
Maximum # requests:      22763
End # requests:          22762
Average queue length:    11385.424424
Maximum queue length:    22763
End queued requests:     22762
Queue time average: 	517.527401
Queue time std.dev.:	410.313563
Queue time maximum:	2335.013533
Queue time distribution
Avg # read requests:     0.000000
Max # read requests:     0
Avg # write requests:    11385.424424
Max # write requests:    22763
Physical access time average: 	0.000000
Physical access time std.dev.:	0.000000
Physical access time maximum:	0
Physical access time distribution
Number of batches:  0
Batch size average: 	0.000000
Batch size std.dev.:	0.000000
Batch size maximum:	0
Batch size distribution
Inter-arrival time average: 	3.520579
Inter-arrival time std.dev.:	3.479715
Inter-arrival time maximum:	36.521623
Inter-arrival time distribution
Read inter-arrival average: 	0.000000
Read inter-arrival std.dev.:	0.000000
Read inter-arrival maximum:	0
Read inter-arrival distribution
Write inter-arrival average: 	3.520579
Write inter-arrival std.dev.:	3.479715
Write inter-arrival maximum:	36.521623
Write inter-arrival distribution
Number of idle periods:  1
Idle period length average: 	0.000000
Idle period length std.dev.:	0.000000
Idle period length maximum:	0
Idle period length distribution
Request size average: 	15.036841
Request size std.dev.:	9.119078
Request size maximum:	116
Request size distribution
Read request size average: 	0.000000
Read request size std.dev.:	0.000000
Read request size maximum:	0
Read request size distribution
Write request size average: 	15.036841
Write request size std.dev.:	9.119078
Write request size maximum:	116
Write request size distribution
Instantaneous queue length average: 	11429.831900
Instantaneous queue length std.dev.:	6541.427355
Instantaneous queue length maximum:	22763
Instantaneous queue length distribution
Sub-optimal mapping penalty average: 	0.000000
Sub-optimal mapping penalty std.dev.:	0.000000
Sub-optimal mapping penalty maximum:	0
Sub-optimal mapping penalty distribution
