Total Requests handled:	10000
Requests per second:   	473.955814
Completely idle time:  	0.000000   	0.000000
Response time average: 	281.403974
Response time std.dev.:	215.951270
Response time maximum:	1176.310387
Response time distribution
Overlaps combined:     	0	0.000000
Read overlaps combined:	0	0.000000	0.000000
Critical Reads:      	 10000  	0.986777
Critical Read Response time average: 	281.403974
Critical Read Response time std.dev.:	215.951270
Critical Read Response time maximum:	1176.310387
Critical Read Response time distribution
Non-Critical Reads:  	     0  	0.000000
Non-Critical Read Response time average: 	0.000000
Non-Critical Read Response time std.dev.:	0.000000
Non-Critical Read Response time maximum:	0
Non-Critical Read Response time distribution
Critical Writes:     	     0  	0.000000
Critical Write Response time average: 	0.000000
Critical Write Response time std.dev.:	0.000000
Critical Write Response time maximum:	0
Critical Write Response time distribution
Non-Critical Writes: 	     0  	0.000000
Non-Critical Write Response time average: 	0.000000
Non-Critical Write Response time std.dev.:	0.000000
Non-Critical Write Response time maximum:	0
Non-Critical Write Response time distribution
Number of reads:     10134  	1.000000
Number of writes:        0  	0.000000
Sequential reads:        0  	0.000000  	0.000000
Sequential writes:       0  	0.000000  	0.000000
Base SPTF/SDF Different:      0 /      0 	0.000000
Timeout SPTF/SDF Different:      0 /      0 	0.000000
Priority SPTF/SDF Different:      0 /      0 	0.000000
runlistlen:              2848366.790828
runoutstanding:          0.000000
simtime:                 21099.013265
warmuptime:              0.000000
setsize:                 1
Average # requests:      135.000000
Maximum # requests:      135
End # requests:          134
Average queue length:    135.000000
Maximum queue length:    135
End queued requests:     134
Queue time average: 	281.403974
Queue time std.dev.:	215.951270
Queue time maximum:	1176.310387
Queue time distribution
Avg # read requests:     135.000000
Max # read requests:     135
Avg # write requests:    0.000000
Max # write requests:    0
Physical access time average: 	0.000000
Physical access time std.dev.:	0.000000
Physical access time maximum:	0
Physical access time distribution
Number of batches:  0
Batch size average: 	0.000000
Batch size std.dev.:	0.000000
Batch size maximum:	0
Batch size distribution
Inter-arrival time average: 	2.081761
Inter-arrival time std.dev.:	1.490944
Inter-arrival time maximum:	12.714101
Inter-arrival time distribution
Read inter-arrival average: 	2.081761
Read inter-arrival std.dev.:	1.490944
Read inter-arrival maximum:	12.714101
Read inter-arrival distribution
Write inter-arrival average: 	0.000000
Write inter-arrival std.dev.:	0.000000
Write inter-arrival maximum:	0
Write inter-arrival distribution
Number of idle periods:  1
Idle period length average: 	0.000000
Idle period length std.dev.:	0.000000
Idle period length maximum:	0
Idle period length distribution
Request size average: 	15.575982
Request size std.dev.:	8.172944
Request size maximum:	116
Request size distribution
Read request size average: 	15.575982
Read request size std.dev.:	8.172944
Read request size maximum:	116
Read request size distribution
Write request size average: 	0.000000
Write request size std.dev.:	0.000000
Write request size maximum:	0
Write request size distribution
Instantaneous queue length average: 	135.000000
Instantaneous queue length std.dev.:	0.000000
Instantaneous queue length maximum:	135
Instantaneous queue length distribution
Sub-optimal mapping penalty average: 	0.000000
Sub-optimal mapping penalty std.dev.:	0.000000
Sub-optimal mapping penalty maximum:	0
Sub-optimal mapping penalty distribution
