Total Requests handled:	10000
Requests per second:   	449.813034
Completely idle time:  	0.000000   	0.000000
Response time average: 	84.173996
Response time std.dev.:	71.731036
Response time maximum:	520.860940
Response time distribution
Overlaps combined:     	0	0.000000
Read overlaps combined:	0	0.000000	0.000000
Critical Reads:      	 10000  	0.996314
Critical Read Response time average: 	84.173996
Critical Read Response time std.dev.:	71.731036
Critical Read Response time maximum:	520.860940
Critical Read Response time distribution
Non-Critical Reads:  	     0  	0.000000
Non-Critical Read Response time average: 	0.000000
Non-Critical Read Response time std.dev.:	0.000000
Non-Critical Read Response time maximum:	0
Non-Critical Read Response time distribution
Critical Writes:     	     0  	0.000000
Critical Write Response time average: 	0.000000
Critical Write Response time std.dev.:	0.000000
Critical Write Response time maximum:	0
Critical Write Response time distribution
Non-Critical Writes: 	     0  	0.000000
Non-Critical Write Response time average: 	0.000000
Non-Critical Write Response time std.dev.:	0.000000
Non-Critical Write Response time maximum:	0
Non-Critical Write Response time distribution
Number of reads:     10037  	1.000000
Number of writes:        0  	0.000000
Sequential reads:        0  	0.000000  	0.000000
Sequential writes:       0  	0.000000  	0.000000
Base SPTF/SDF Different:      0 /      0 	0.000000
Timeout SPTF/SDF Different:      0 /      0 	0.000000
Priority SPTF/SDF Different:      0 /      0 	0.000000
runlistlen:              844795.439780
runoutstanding:          0.000000
simtime:                 22231.458942
warmuptime:              0.000000
setsize:                 1
Average # requests:      38.000000
Maximum # requests:      38
End # requests:          37
Average queue length:    38.000000
Maximum queue length:    38
End queued requests:     37
Queue time average: 	84.173996
Queue time std.dev.:	71.731036
Queue time maximum:	520.860940
Queue time distribution
Avg # read requests:     38.000000
Max # read requests:     38
Avg # write requests:    0.000000
Max # write requests:    0
Physical access time average: 	0.000000
Physical access time std.dev.:	0.000000
Physical access time maximum:	0
Physical access time distribution
Number of batches:  0
Batch size average: 	0.000000
Batch size std.dev.:	0.000000
Batch size maximum:	0
Batch size distribution
Inter-arrival time average: 	2.214774
Inter-arrival time std.dev.:	1.605836
Inter-arrival time maximum:	14.062376
Inter-arrival time distribution
Read inter-arrival average: 	2.214774
Read inter-arrival std.dev.:	1.605836
Read inter-arrival maximum:	14.062376
Read inter-arrival distribution
Write inter-arrival average: 	0.000000
Write inter-arrival std.dev.:	0.000000
Write inter-arrival maximum:	0
Write inter-arrival distribution
Number of idle periods:  1
Idle period length average: 	0.000000
Idle period length std.dev.:	0.000000
Idle period length maximum:	0
Idle period length distribution
Request size average: 	15.584936
Request size std.dev.:	8.195156
Request size maximum:	116
Request size distribution
Read request size average: 	15.584936
Read request size std.dev.:	8.195156
Read request size maximum:	116
Read request size distribution
Write request size average: 	0.000000
Write request size std.dev.:	0.000000
Write request size maximum:	0
Write request size distribution
Instantaneous queue length average: 	38.000000
Instantaneous queue length std.dev.:	0.000000
Instantaneous queue length maximum:	38
Instantaneous queue length distribution
Sub-optimal mapping penalty average: 	0.000000
Sub-optimal mapping penalty std.dev.:	0.000000
Sub-optimal mapping penalty maximum:	0
Sub-optimal mapping penalty distribution
