Total Requests handled:	10000
Requests per second:   	470.992269
Completely idle time:  	0.000000   	0.000000
Response time average: 	177.177874
Response time std.dev.:	139.845872
Response time maximum:	918.418794
Response time distribution
Overlaps combined:     	0	0.000000
Read overlaps combined:	0	0.000000	0.000000
Critical Reads:      	 10000  	0.991768
Critical Read Response time average: 	177.177874
Critical Read Response time std.dev.:	139.845872
Critical Read Response time maximum:	918.418794
Critical Read Response time distribution
Non-Critical Reads:  	     0  	0.000000
Non-Critical Read Response time average: 	0.000000
Non-Critical Read Response time std.dev.:	0.000000
Non-Critical Read Response time maximum:	0
Non-Critical Read Response time distribution
Critical Writes:     	     0  	0.000000
Critical Write Response time average: 	0.000000
Critical Write Response time std.dev.:	0.000000
Critical Write Response time maximum:	0
Critical Write Response time distribution
Non-Critical Writes: 	     0  	0.000000
Non-Critical Write Response time average: 	0.000000
Non-Critical Write Response time std.dev.:	0.000000
Non-Critical Write Response time maximum:	0
Non-Critical Write Response time distribution
Number of reads:     10083  	1.000000
Number of writes:        0  	0.000000
Sequential reads:        0  	0.000000  	0.000000
Sequential writes:       0  	0.000000  	0.000000
Base SPTF/SDF Different:      0 /      0 	0.000000
Timeout SPTF/SDF Different:      0 /      0 	0.000000
Priority SPTF/SDF Different:      0 /      0 	0.000000
runlistlen:              1783468.764520
runoutstanding:          0.000000
simtime:                 21231.771006
warmuptime:              0.000000
setsize:                 1
Average # requests:      84.000000
Maximum # requests:      84
End # requests:          83
Average queue length:    84.000000
Maximum queue length:    84
End queued requests:     83
Queue time average: 	177.177874
Queue time std.dev.:	139.845872
Queue time maximum:	918.418794
Queue time distribution
Avg # read requests:     84.000000
Max # read requests:     84
Avg # write requests:    0.000000
Max # write requests:    0
Physical access time average: 	0.000000
Physical access time std.dev.:	0.000000
Physical access time maximum:	0
Physical access time distribution
Number of batches:  0
Batch size average: 	0.000000
Batch size std.dev.:	0.000000
Batch size maximum:	0
Batch size distribution
Inter-arrival time average: 	2.105621
Inter-arrival time std.dev.:	1.485165
Inter-arrival time maximum:	14.850000
Inter-arrival time distribution
Read inter-arrival average: 	2.105621
Read inter-arrival std.dev.:	1.485165
Read inter-arrival maximum:	14.850000
Read inter-arrival distribution
Write inter-arrival average: 	0.000000
Write inter-arrival std.dev.:	0.000000
Write inter-arrival maximum:	0
Write inter-arrival distribution
Number of idle periods:  1
Idle period length average: 	0.000000
Idle period length std.dev.:	0.000000
Idle period length maximum:	0
Idle period length distribution
Request size average: 	15.582961
Request size std.dev.:	8.183937
Request size maximum:	116
Request size distribution
Read request size average: 	15.582961
Read request size std.dev.:	8.183937
Read request size maximum:	116
Read request size distribution
Write request size average: 	0.000000
Write request size std.dev.:	0.000000
Write request size maximum:	0
Write request size distribution
Instantaneous queue length average: 	84.000000
Instantaneous queue length std.dev.:	0.000000
Instantaneous queue length maximum:	84
Instantaneous queue length distribution
Sub-optimal mapping penalty average: 	0.000000
Sub-optimal mapping penalty std.dev.:	0.000000
Sub-optimal mapping penalty maximum:	0
Sub-optimal mapping penalty distribution
